Suite/Test/Step Name,Browser,Description,Start time,End time,Duration,Status
GETCRAFT_PROD,Firefox 63.0,,2018-12-12 11:41:04,2018-12-12 11:45:40,4m - 35.899s,PASSED
,,,,,,
Test Cases/Getcraft_Prod/Login-Akses my project,Firefox 63.0,,2018-12-12 11:41:04,2018-12-12 11:41:40,35.433s,PASSED
Statement - RN = <not implemented yet for class: org.codehaus.groovy.ast.expr.EmptyExpression>,Firefox 63.0,,2018-12-12 11:41:06,2018-12-12 11:41:06,0.002s,PASSED
Statement - RN = java.lang.Math.random() * 999,Firefox 63.0,,2018-12-12 11:41:06,2018-12-12 11:41:06,0.009s,PASSED
Statement - mailinator = email + RN,Firefox 63.0,,2018-12-12 11:41:06,2018-12-12 11:41:06,0.001s,PASSED
Statement - user = email + RN + domain,Firefox 63.0,,2018-12-12 11:41:06,2018-12-12 11:41:06,0.002s,PASSED
Statement - firstname = name + RN,Firefox 63.0,,2018-12-12 11:41:06,2018-12-12 11:41:06,0.001s,PASSED
Statement - lastname = name2 + RN,Firefox 63.0,,2018-12-12 11:41:06,2018-12-12 11:41:06,0.002s,PASSED
Statement - Phone = phonenumber + RN,Firefox 63.0,,2018-12-12 11:41:06,2018-12-12 11:41:06,0.001s,PASSED
Statement - println(user),Firefox 63.0,,2018-12-12 11:41:06,2018-12-12 11:41:06,0.010s,PASSED
openBrowser,Firefox 63.0,,2018-12-12 11:41:06,2018-12-12 11:41:12,6.813s,PASSED
maximizeWindow,Firefox 63.0,,2018-12-12 11:41:12,2018-12-12 11:41:16,3.637s,PASSED
navigateToUrl,Firefox 63.0,,2018-12-12 11:41:16,2018-12-12 11:41:28,11.902s,PASSED
"Statement - If (com.kms.katalon.core.webui.keyword.WebUiBuiltInKeywords.verifyElementVisible(com.kms.katalon.core.testobject.ObjectRepository.findTestObject(Object Repository/GETCRAFT/create_brief/Language_indo), OPTIONAL))",Firefox 63.0,,2018-12-12 11:41:28,2018-12-12 11:41:28,0.188s,PASSED
Statement - Else,Firefox 63.0,,2018-12-12 11:41:28,2018-12-12 11:41:31,3.090s,PASSED
waitForElementClickable,Firefox 63.0,,2018-12-12 11:41:31,2018-12-12 11:41:31,0.075s,PASSED
click,Firefox 63.0,,2018-12-12 11:41:31,2018-12-12 11:41:32,0.384s,PASSED
setText,Firefox 63.0,,2018-12-12 11:41:32,2018-12-12 11:41:32,0.244s,PASSED
setText,Firefox 63.0,,2018-12-12 11:41:32,2018-12-12 11:41:32,0.116s,PASSED
click,Firefox 63.0,,2018-12-12 11:41:32,2018-12-12 11:41:32,0.345s,PASSED
verifyElementPresent,Firefox 63.0,,2018-12-12 11:41:32,2018-12-12 11:41:39,6.783s,PASSED
closeBrowser,Firefox 63.0,,2018-12-12 11:41:39,2018-12-12 11:41:40,0.727s,PASSED
,,,,,,
Test Cases/Getcraft_Prod/Change_Workspace,Firefox 63.0,,2018-12-12 11:41:40,2018-12-12 11:42:16,36.001s,PASSED
Statement - RN = <not implemented yet for class: org.codehaus.groovy.ast.expr.EmptyExpression>,Firefox 63.0,,2018-12-12 11:41:40,2018-12-12 11:41:40,0.001s,PASSED
Statement - RN = java.lang.Math.random() * 599,Firefox 63.0,,2018-12-12 11:41:40,2018-12-12 11:41:40,0.001s,PASSED
Statement - name_project = project_name + RN,Firefox 63.0,,2018-12-12 11:41:40,2018-12-12 11:41:40,0.000s,PASSED
openBrowser,Firefox 63.0,,2018-12-12 11:41:40,2018-12-12 11:41:42,2.055s,PASSED
maximizeWindow,Firefox 63.0,,2018-12-12 11:41:42,2018-12-12 11:41:46,3.513s,PASSED
navigateToUrl,Firefox 63.0,,2018-12-12 11:41:46,2018-12-12 11:41:55,9.271s,PASSED
"Statement - If (com.kms.katalon.core.webui.keyword.WebUiBuiltInKeywords.verifyElementVisible(com.kms.katalon.core.testobject.ObjectRepository.findTestObject(Object Repository/GETCRAFT/create_brief/Language_indo), OPTIONAL))",Firefox 63.0,,2018-12-12 11:41:55,2018-12-12 11:41:55,0.273s,PASSED
Statement - Else,Firefox 63.0,,2018-12-12 11:41:55,2018-12-12 11:41:58,3.083s,PASSED
setText,Firefox 63.0,,2018-12-12 11:41:58,2018-12-12 11:41:59,0.401s,PASSED
setText,Firefox 63.0,,2018-12-12 11:41:59,2018-12-12 11:41:59,0.132s,PASSED
click,Firefox 63.0,,2018-12-12 11:41:59,2018-12-12 11:41:59,0.286s,PASSED
verifyElementPresent,Firefox 63.0,,2018-12-12 11:41:59,2018-12-12 11:42:06,6.362s,PASSED
click,Firefox 63.0,,2018-12-12 11:42:06,2018-12-12 11:42:07,1.204s,PASSED
Statement - text = com.kms.katalon.core.webui.keyword.WebUiBuiltInKeywords.getText(com.kms.katalon.core.testobject.ObjectRepository.findTestObject(GETCRAFT/general/select_workspace)),Firefox 63.0,,2018-12-12 11:42:07,2018-12-12 11:42:07,0.044s,PASSED
click,Firefox 63.0,,2018-12-12 11:42:07,2018-12-12 11:42:07,0.295s,PASSED
delay,Firefox 63.0,,2018-12-12 11:42:07,2018-12-12 11:42:12,5.015s,PASSED
verifyElementText,Firefox 63.0,,2018-12-12 11:42:12,2018-12-12 11:42:12,0.093s,PASSED
delay,Firefox 63.0,,2018-12-12 11:42:12,2018-12-12 11:42:15,3.002s,PASSED
closeBrowser,Firefox 63.0,,2018-12-12 11:42:15,2018-12-12 11:42:16,0.710s,PASSED
,,,,,,
Test Cases/Getcraft_Prod/Create_BriefSelected(DRAFT),Firefox 63.0,,2018-12-12 11:42:16,2018-12-12 11:43:09,52.876s,PASSED
Statement - RN = <not implemented yet for class: org.codehaus.groovy.ast.expr.EmptyExpression>,Firefox 63.0,,2018-12-12 11:42:16,2018-12-12 11:42:16,0.001s,PASSED
Statement - RN = java.lang.Math.random() * 599,Firefox 63.0,,2018-12-12 11:42:16,2018-12-12 11:42:16,0.001s,PASSED
Statement - name_project = project_name + RN,Firefox 63.0,,2018-12-12 11:42:16,2018-12-12 11:42:16,0.000s,PASSED
openBrowser,Firefox 63.0,,2018-12-12 11:42:16,2018-12-12 11:42:19,2.343s,PASSED
maximizeWindow,Firefox 63.0,,2018-12-12 11:42:19,2018-12-12 11:42:22,3.578s,PASSED
navigateToUrl,Firefox 63.0,,2018-12-12 11:42:22,2018-12-12 11:42:34,11.855s,PASSED
"Statement - If (com.kms.katalon.core.webui.keyword.WebUiBuiltInKeywords.verifyElementVisible(com.kms.katalon.core.testobject.ObjectRepository.findTestObject(Object Repository/GETCRAFT/create_brief/Language_indo), OPTIONAL))",Firefox 63.0,,2018-12-12 11:42:34,2018-12-12 11:42:34,0.222s,PASSED
Statement - Else,Firefox 63.0,,2018-12-12 11:42:34,2018-12-12 11:42:37,3.080s,PASSED
setText,Firefox 63.0,,2018-12-12 11:42:37,2018-12-12 11:42:38,0.408s,PASSED
setText,Firefox 63.0,,2018-12-12 11:42:38,2018-12-12 11:42:38,0.127s,PASSED
click,Firefox 63.0,,2018-12-12 11:42:38,2018-12-12 11:42:38,0.300s,PASSED
verifyElementPresent,Firefox 63.0,,2018-12-12 11:42:38,2018-12-12 11:42:46,7.408s,PASSED
click,Firefox 63.0,,2018-12-12 11:42:46,2018-12-12 11:42:46,0.647s,PASSED
click,Firefox 63.0,,2018-12-12 11:42:46,2018-12-12 11:42:47,0.740s,PASSED
delay,Firefox 63.0,,2018-12-12 11:42:47,2018-12-12 11:42:51,4.002s,PASSED
waitForElementClickable,Firefox 63.0,,2018-12-12 11:42:51,2018-12-12 11:42:51,0.040s,PASSED
scrollToElement,Firefox 63.0,,2018-12-12 11:42:51,2018-12-12 11:42:51,0.044s,PASSED
click,Firefox 63.0,,2018-12-12 11:42:51,2018-12-12 11:42:51,0.353s,PASSED
click,Firefox 63.0,,2018-12-12 11:42:51,2018-12-12 11:42:52,0.311s,PASSED
click,Firefox 63.0,,2018-12-12 11:42:52,2018-12-12 11:42:52,0.698s,PASSED
setText,Firefox 63.0,,2018-12-12 11:42:52,2018-12-12 11:42:53,0.497s,PASSED
setText,Firefox 63.0,,2018-12-12 11:42:53,2018-12-12 11:42:53,0.169s,PASSED
setText,Firefox 63.0,,2018-12-12 11:42:53,2018-12-12 11:42:53,0.157s,PASSED
setText,Firefox 63.0,,2018-12-12 11:42:53,2018-12-12 11:42:53,0.144s,PASSED
scrollToElement,Firefox 63.0,,2018-12-12 11:42:53,2018-12-12 11:42:53,0.034s,PASSED
uploadFiles.uploadFile,Firefox 63.0,,2018-12-12 11:42:53,2018-12-12 11:42:53,0.001s,NOT_RUN
Statement - java.lang.Thread.sleep(2000),Firefox 63.0,,2018-12-12 11:42:53,2018-12-12 11:42:53,0.001s,NOT_RUN
waitForElementClickable,Firefox 63.0,,2018-12-12 11:42:53,2018-12-12 11:42:53,0.001s,NOT_RUN
click,Firefox 63.0,,2018-12-12 11:42:53,2018-12-12 11:42:53,0.002s,NOT_RUN
delay,Firefox 63.0,,2018-12-12 11:42:53,2018-12-12 11:42:53,0.000s,NOT_RUN
click,Firefox 63.0,,2018-12-12 11:42:53,2018-12-12 11:42:54,0.335s,PASSED
setText,Firefox 63.0,,2018-12-12 11:42:54,2018-12-12 11:42:54,0.206s,PASSED
click,Firefox 63.0,,2018-12-12 11:42:54,2018-12-12 11:42:54,0.335s,PASSED
click,Firefox 63.0,,2018-12-12 11:42:54,2018-12-12 11:42:55,0.276s,PASSED
scrollToElement,Firefox 63.0,,2018-12-12 11:42:55,2018-12-12 11:42:55,0.038s,PASSED
delay,Firefox 63.0,,2018-12-12 11:42:55,2018-12-12 11:42:58,3.006s,PASSED
click,Firefox 63.0,,2018-12-12 11:42:58,2018-12-12 11:42:58,0.387s,PASSED
waitForElementPresent,Firefox 63.0,,2018-12-12 11:42:58,2018-12-12 11:43:00,1.818s,PASSED
delay,Firefox 63.0,,2018-12-12 11:43:00,2018-12-12 11:43:05,5.005s,PASSED
verifyElementText,Firefox 63.0,,2018-12-12 11:43:05,2018-12-12 11:43:05,0.039s,PASSED
verifyElementPresent,Firefox 63.0,,2018-12-12 11:43:05,2018-12-12 11:43:05,0.019s,PASSED
delay,Firefox 63.0,,2018-12-12 11:43:05,2018-12-12 11:43:08,3.072s,PASSED
closeBrowser,Firefox 63.0,,2018-12-12 11:43:08,2018-12-12 11:43:09,0.820s,PASSED
,,,,,,
Test Cases/Getcraft_Prod/Create_BriefUnselected(DRAFT),Firefox 63.0,,2018-12-12 11:43:09,2018-12-12 11:44:04,55.339s,PASSED
Statement - RN = <not implemented yet for class: org.codehaus.groovy.ast.expr.EmptyExpression>,Firefox 63.0,,2018-12-12 11:43:09,2018-12-12 11:43:09,0.000s,PASSED
Statement - RN = java.lang.Math.random() * 599,Firefox 63.0,,2018-12-12 11:43:09,2018-12-12 11:43:09,0.001s,PASSED
Statement - name_project = project_name + RN,Firefox 63.0,,2018-12-12 11:43:09,2018-12-12 11:43:09,0.001s,PASSED
openBrowser,Firefox 63.0,,2018-12-12 11:43:09,2018-12-12 11:43:11,2.294s,PASSED
maximizeWindow,Firefox 63.0,,2018-12-12 11:43:11,2018-12-12 11:43:15,3.538s,PASSED
navigateToUrl,Firefox 63.0,,2018-12-12 11:43:15,2018-12-12 11:43:23,7.919s,PASSED
"Statement - If (com.kms.katalon.core.webui.keyword.WebUiBuiltInKeywords.verifyElementVisible(com.kms.katalon.core.testobject.ObjectRepository.findTestObject(Object Repository/GETCRAFT/create_brief/Language_indo), OPTIONAL))",Firefox 63.0,,2018-12-12 11:43:23,2018-12-12 11:43:23,0.098s,PASSED
Statement - Else,Firefox 63.0,,2018-12-12 11:43:23,2018-12-12 11:43:26,3.075s,PASSED
setText,Firefox 63.0,,2018-12-12 11:43:26,2018-12-12 11:43:26,0.278s,PASSED
setText,Firefox 63.0,,2018-12-12 11:43:26,2018-12-12 11:43:26,0.136s,PASSED
click,Firefox 63.0,,2018-12-12 11:43:26,2018-12-12 11:43:27,0.298s,PASSED
verifyElementPresent,Firefox 63.0,,2018-12-12 11:43:27,2018-12-12 11:43:35,7.772s,PASSED
click,Firefox 63.0,,2018-12-12 11:43:35,2018-12-12 11:43:35,0.632s,PASSED
delay,Firefox 63.0,,2018-12-12 11:43:35,2018-12-12 11:43:40,5.053s,PASSED
click,Firefox 63.0,,2018-12-12 11:43:40,2018-12-12 11:43:41,0.358s,PASSED
click,Firefox 63.0,,2018-12-12 11:43:41,2018-12-12 11:43:41,0.310s,PASSED
waitForElementClickable,Firefox 63.0,,2018-12-12 11:43:41,2018-12-12 11:43:41,0.000s,NOT_RUN
click,Firefox 63.0,,2018-12-12 11:43:41,2018-12-12 11:43:41,0.266s,PASSED
click,Firefox 63.0,,2018-12-12 11:43:41,2018-12-12 11:43:41,0.266s,PASSED
scrollToElement,Firefox 63.0,,2018-12-12 11:43:41,2018-12-12 11:43:41,0.023s,PASSED
waitForElementClickable,Firefox 63.0,,2018-12-12 11:43:41,2018-12-12 11:43:41,0.058s,PASSED
delay,Firefox 63.0,,2018-12-12 11:43:41,2018-12-12 11:43:44,2.066s,PASSED
click,Firefox 63.0,,2018-12-12 11:43:44,2018-12-12 11:43:44,0.403s,PASSED
click,Firefox 63.0,,2018-12-12 11:43:44,2018-12-12 11:43:44,0.266s,PASSED
click,Firefox 63.0,,2018-12-12 11:43:44,2018-12-12 11:43:45,0.323s,PASSED
waitForElementClickable,Firefox 63.0,,2018-12-12 11:43:45,2018-12-12 11:43:45,0.025s,PASSED
delay,Firefox 63.0,,2018-12-12 11:43:45,2018-12-12 11:43:47,2.069s,PASSED
click,Firefox 63.0,,2018-12-12 11:43:47,2018-12-12 11:43:47,0.353s,PASSED
click,Firefox 63.0,,2018-12-12 11:43:47,2018-12-12 11:43:47,0.286s,PASSED
click,Firefox 63.0,,2018-12-12 11:43:47,2018-12-12 11:43:48,0.363s,PASSED
setText,Firefox 63.0,,2018-12-12 11:43:48,2018-12-12 11:43:48,0.421s,PASSED
setText,Firefox 63.0,,2018-12-12 11:43:48,2018-12-12 11:43:48,0.182s,PASSED
setText,Firefox 63.0,,2018-12-12 11:43:48,2018-12-12 11:43:48,0.152s,PASSED
setText,Firefox 63.0,,2018-12-12 11:43:48,2018-12-12 11:43:49,0.127s,PASSED
scrollToElement,Firefox 63.0,,2018-12-12 11:43:49,2018-12-12 11:43:49,0.032s,PASSED
uploadFiles.uploadFile,Firefox 63.0,,2018-12-12 11:43:49,2018-12-12 11:43:49,0.000s,NOT_RUN
Statement - java.lang.Thread.sleep(2000),Firefox 63.0,,2018-12-12 11:43:49,2018-12-12 11:43:49,0.001s,NOT_RUN
waitForElementClickable,Firefox 63.0,,2018-12-12 11:43:49,2018-12-12 11:43:49,0.000s,NOT_RUN
click,Firefox 63.0,,2018-12-12 11:43:49,2018-12-12 11:43:49,0.000s,NOT_RUN
delay,Firefox 63.0,,2018-12-12 11:43:49,2018-12-12 11:43:49,0.001s,NOT_RUN
click,Firefox 63.0,,2018-12-12 11:43:49,2018-12-12 11:43:49,0.264s,PASSED
setText,Firefox 63.0,,2018-12-12 11:43:49,2018-12-12 11:43:49,0.178s,PASSED
click,Firefox 63.0,,2018-12-12 11:43:49,2018-12-12 11:43:49,0.289s,PASSED
click,Firefox 63.0,,2018-12-12 11:43:49,2018-12-12 11:43:50,0.272s,PASSED
scrollToElement,Firefox 63.0,,2018-12-12 11:43:50,2018-12-12 11:43:50,0.027s,PASSED
delay,Firefox 63.0,,2018-12-12 11:43:50,2018-12-12 11:43:53,3.070s,PASSED
click,Firefox 63.0,,2018-12-12 11:43:53,2018-12-12 11:43:53,0.301s,PASSED
waitForElementPresent,Firefox 63.0,,2018-12-12 11:43:53,2018-12-12 11:43:55,2.403s,PASSED
delay,Firefox 63.0,,2018-12-12 11:43:55,2018-12-12 11:44:00,5.075s,PASSED
verifyElementText,Firefox 63.0,,2018-12-12 11:44:00,2018-12-12 11:44:00,0.037s,PASSED
verifyElementPresent,Firefox 63.0,,2018-12-12 11:44:00,2018-12-12 11:44:00,0.023s,PASSED
delay,Firefox 63.0,,2018-12-12 11:44:00,2018-12-12 11:44:04,3.071s,PASSED
closeBrowser,Firefox 63.0,,2018-12-12 11:44:04,2018-12-12 11:44:04,0.577s,PASSED
,,,,,,
Test Cases/Getcraft_Prod/Brief_phase2_selected_loginMultiple ,Firefox 63.0,,2018-12-12 11:44:04,2018-12-12 11:45:09,1m - 5.012s,PASSED
Statement - RN = <not implemented yet for class: org.codehaus.groovy.ast.expr.EmptyExpression>,Firefox 63.0,,2018-12-12 11:44:04,2018-12-12 11:44:04,0.000s,PASSED
Statement - RN = java.lang.Math.random() * 599,Firefox 63.0,,2018-12-12 11:44:04,2018-12-12 11:44:04,0.000s,PASSED
Statement - name_project = project_name + RN,Firefox 63.0,,2018-12-12 11:44:04,2018-12-12 11:44:04,0.000s,PASSED
openBrowser,Firefox 63.0,,2018-12-12 11:44:04,2018-12-12 11:44:07,2.242s,PASSED
maximizeWindow,Firefox 63.0,,2018-12-12 11:44:07,2018-12-12 11:44:10,3.565s,PASSED
navigateToUrl,Firefox 63.0,,2018-12-12 11:44:10,2018-12-12 11:44:23,12.400s,PASSED
"Statement - If (com.kms.katalon.core.webui.keyword.WebUiBuiltInKeywords.verifyElementVisible(com.kms.katalon.core.testobject.ObjectRepository.findTestObject(Object Repository/GETCRAFT/create_brief/Language_indo), OPTIONAL))",Firefox 63.0,,2018-12-12 11:44:23,2018-12-12 11:44:23,0.250s,PASSED
Statement - Else,Firefox 63.0,,2018-12-12 11:44:23,2018-12-12 11:44:26,3.073s,PASSED
click,Firefox 63.0,,2018-12-12 11:44:26,2018-12-12 11:44:26,0.503s,PASSED
delay,Firefox 63.0,,2018-12-12 11:44:26,2018-12-12 11:44:31,5.091s,PASSED
waitForElementClickable,Firefox 63.0,,2018-12-12 11:44:31,2018-12-12 11:44:31,0.037s,PASSED
scrollToElement,Firefox 63.0,,2018-12-12 11:44:31,2018-12-12 11:44:31,0.023s,PASSED
click,Firefox 63.0,,2018-12-12 11:44:31,2018-12-12 11:44:32,0.459s,PASSED
click,Firefox 63.0,,2018-12-12 11:44:32,2018-12-12 11:44:32,0.331s,PASSED
click,Firefox 63.0,,2018-12-12 11:44:32,2018-12-12 11:44:33,0.549s,PASSED
delay,Firefox 63.0,,2018-12-12 11:44:33,2018-12-12 11:44:35,2.076s,PASSED
setText,Firefox 63.0,,2018-12-12 11:44:35,2018-12-12 11:44:35,0.461s,PASSED
setText,Firefox 63.0,,2018-12-12 11:44:35,2018-12-12 11:44:36,0.173s,PASSED
setText,Firefox 63.0,,2018-12-12 11:44:36,2018-12-12 11:44:36,0.131s,PASSED
setText,Firefox 63.0,,2018-12-12 11:44:36,2018-12-12 11:44:36,0.109s,PASSED
scrollToElement,Firefox 63.0,,2018-12-12 11:44:36,2018-12-12 11:44:36,0.024s,PASSED
click,Firefox 63.0,,2018-12-12 11:44:36,2018-12-12 11:44:36,0.279s,PASSED
setText,Firefox 63.0,,2018-12-12 11:44:36,2018-12-12 11:44:36,0.180s,PASSED
click,Firefox 63.0,,2018-12-12 11:44:36,2018-12-12 11:44:37,0.265s,PASSED
click,Firefox 63.0,,2018-12-12 11:44:37,2018-12-12 11:44:37,0.270s,PASSED
scrollToElement,Firefox 63.0,,2018-12-12 11:44:37,2018-12-12 11:44:37,0.029s,PASSED
delay,Firefox 63.0,,2018-12-12 11:44:37,2018-12-12 11:44:40,3.072s,PASSED
click,Firefox 63.0,,2018-12-12 11:44:40,2018-12-12 11:44:40,0.305s,PASSED
scrollToElement,Firefox 63.0,,2018-12-12 11:44:40,2018-12-12 11:44:40,0.026s,PASSED
delay,Firefox 63.0,,2018-12-12 11:44:40,2018-12-12 11:44:43,3.070s,PASSED
click,Firefox 63.0,,2018-12-12 11:44:43,2018-12-12 11:44:44,0.289s,PASSED
setText,Firefox 63.0,,2018-12-12 11:44:44,2018-12-12 11:44:44,0.333s,PASSED
delay,Firefox 63.0,,2018-12-12 11:44:44,2018-12-12 11:44:47,3.057s,PASSED
setText,Firefox 63.0,,2018-12-12 11:44:47,2018-12-12 11:44:47,0.228s,PASSED
delay,Firefox 63.0,,2018-12-12 11:44:47,2018-12-12 11:44:52,5.072s,PASSED
click,Firefox 63.0,,2018-12-12 11:44:52,2018-12-12 11:44:53,0.280s,PASSED
waitForElementPresent,Firefox 63.0,,2018-12-12 11:44:53,2018-12-12 11:44:54,1.727s,PASSED
click,Firefox 63.0,,2018-12-12 11:44:54,2018-12-12 11:44:55,0.259s,PASSED
click,Firefox 63.0,,2018-12-12 11:44:55,2018-12-12 11:44:55,0.268s,PASSED
waitForElementPresent,Firefox 63.0,,2018-12-12 11:44:55,2018-12-12 11:45:02,7.456s,PASSED
delay,Firefox 63.0,,2018-12-12 11:45:02,2018-12-12 11:45:05,3.049s,PASSED
verifyElementText,Firefox 63.0,,2018-12-12 11:45:05,2018-12-12 11:45:05,0.098s,PASSED
verifyElementPresent,Firefox 63.0,,2018-12-12 11:45:05,2018-12-12 11:45:05,0.032s,PASSED
delay,Firefox 63.0,,2018-12-12 11:45:05,2018-12-12 11:45:09,3.068s,PASSED
closeBrowser,Firefox 63.0,,2018-12-12 11:45:09,2018-12-12 11:45:09,0.647s,PASSED
,,,,,,
Test Cases/Getcraft_Prod/OpenProject_Draft,Firefox 63.0,,2018-12-12 11:45:09,2018-12-12 11:45:40,30.707s,PASSED
Statement - RN = <not implemented yet for class: org.codehaus.groovy.ast.expr.EmptyExpression>,Firefox 63.0,,2018-12-12 11:45:09,2018-12-12 11:45:09,0.000s,PASSED
Statement - RN = java.lang.Math.random() * 599,Firefox 63.0,,2018-12-12 11:45:09,2018-12-12 11:45:09,0.001s,PASSED
Statement - name_project = project_name + RN,Firefox 63.0,,2018-12-12 11:45:09,2018-12-12 11:45:09,0.000s,PASSED
openBrowser,Firefox 63.0,,2018-12-12 11:45:09,2018-12-12 11:45:12,2.502s,PASSED
maximizeWindow,Firefox 63.0,,2018-12-12 11:45:12,2018-12-12 11:45:15,3.561s,PASSED
navigateToUrl,Firefox 63.0,,2018-12-12 11:45:15,2018-12-12 11:45:23,7.678s,PASSED
"Statement - If (com.kms.katalon.core.webui.keyword.WebUiBuiltInKeywords.verifyElementVisible(com.kms.katalon.core.testobject.ObjectRepository.findTestObject(Object Repository/GETCRAFT/create_brief/Language_indo), OPTIONAL))",Firefox 63.0,,2018-12-12 11:45:23,2018-12-12 11:45:23,0.090s,PASSED
Statement - Else,Firefox 63.0,,2018-12-12 11:45:23,2018-12-12 11:45:26,3.072s,PASSED
setText,Firefox 63.0,,2018-12-12 11:45:26,2018-12-12 11:45:26,0.246s,PASSED
setText,Firefox 63.0,,2018-12-12 11:45:26,2018-12-12 11:45:27,0.113s,PASSED
click,Firefox 63.0,,2018-12-12 11:45:27,2018-12-12 11:45:27,0.292s,PASSED
verifyElementPresent,Firefox 63.0,,2018-12-12 11:45:27,2018-12-12 11:45:33,6.345s,PASSED
click,Firefox 63.0,,2018-12-12 11:45:33,2018-12-12 11:45:34,0.325s,PASSED
click,Firefox 63.0,,2018-12-12 11:45:34,2018-12-12 11:45:35,1.563s,PASSED
delay,Firefox 63.0,,2018-12-12 11:45:35,2018-12-12 11:45:39,4.074s,PASSED
waitForElementPresent,Firefox 63.0,,2018-12-12 11:45:39,2018-12-12 11:45:39,0.093s,PASSED
verifyElementText,Firefox 63.0,,2018-12-12 11:45:39,2018-12-12 11:45:39,0.034s,PASSED
closeBrowser,Firefox 63.0,,2018-12-12 11:45:39,2018-12-12 11:45:40,0.588s,PASSED
