Suite/Test/Step Name,Browser,Description,Start time,End time,Duration,Status
FS login,Firefox 60.0,,2018-07-03 14:08:28,2018-07-03 14:09:03,34.939s,PASSED
,,,,,,
Test Cases/FORSTOK/Login,Firefox 60.0,,2018-07-03 14:08:29,2018-07-03 14:08:55,25.781s,PASSED
openBrowser,Firefox 60.0,,2018-07-03 14:08:29,2018-07-03 14:08:46,16.866s,PASSED
click,Firefox 60.0,,2018-07-03 14:08:46,2018-07-03 14:08:51,5.546s,PASSED
setText,Firefox 60.0,,2018-07-03 14:08:51,2018-07-03 14:08:52,0.172s,PASSED
setText,Firefox 60.0,,2018-07-03 14:08:52,2018-07-03 14:08:52,0.127s,PASSED
click,Firefox 60.0,,2018-07-03 14:08:52,2018-07-03 14:08:55,2.723s,PASSED
,,,,,,
Test Cases/FORSTOK/Print Order,Firefox 60.0,,2018-07-03 14:08:55,2018-07-03 14:09:01,6.511s,PASSED
click,Firefox 60.0,,2018-07-03 14:08:55,2018-07-03 14:09:01,6.255s,PASSED
