Suite/Test/Step Name,Browser,Description,Start time,End time,Duration,Status
GETCRAFT_STAGING,Firefox 63.0,,2018-12-11 11:15:26,2018-12-11 11:33:37,18m - 10.957s,FAILED
,,,,,,
Test Cases/GETCRAFT/Register_Creator,Firefox 63.0,,2018-12-11 11:15:27,2018-12-11 11:17:07,1m - 40.108s,PASSED
Statement - RN = <not implemented yet for class: org.codehaus.groovy.ast.expr.EmptyExpression>,Firefox 63.0,,2018-12-11 11:15:29,2018-12-11 11:15:29,0.030s,PASSED
Statement - RN = java.lang.Math.random() * 999,Firefox 63.0,,2018-12-11 11:15:29,2018-12-11 11:15:29,0.021s,PASSED
Statement - mailinator = email + RN,Firefox 63.0,,2018-12-11 11:15:29,2018-12-11 11:15:29,0.004s,PASSED
Statement - user = email + RN + domain,Firefox 63.0,,2018-12-11 11:15:29,2018-12-11 11:15:29,0.026s,PASSED
Statement - firstname = name + RN,Firefox 63.0,,2018-12-11 11:15:29,2018-12-11 11:15:29,0.014s,PASSED
Statement - lastname = name2 + RN,Firefox 63.0,,2018-12-11 11:15:29,2018-12-11 11:15:29,0.001s,PASSED
Statement - Phone = phonenumber + RN,Firefox 63.0,,2018-12-11 11:15:29,2018-12-11 11:15:29,0.002s,PASSED
Statement - println(user),Firefox 63.0,,2018-12-11 11:15:29,2018-12-11 11:15:29,0.156s,PASSED
openBrowser,Firefox 63.0,,2018-12-11 11:15:29,2018-12-11 11:15:38,9.344s,PASSED
maximizeWindow,Firefox 63.0,,2018-12-11 11:15:38,2018-12-11 11:15:42,3.663s,PASSED
navigateToUrl,Firefox 63.0,,2018-12-11 11:15:42,2018-12-11 11:15:53,11.482s,PASSED
waitForElementClickable,Firefox 63.0,,2018-12-11 11:15:53,2018-12-11 11:15:54,0.167s,PASSED
click,Firefox 63.0,,2018-12-11 11:15:54,2018-12-11 11:15:54,0.590s,PASSED
click,Firefox 63.0,,2018-12-11 11:15:54,2018-12-11 11:15:55,0.491s,PASSED
setText,Firefox 63.0,,2018-12-11 11:15:55,2018-12-11 11:15:55,0.322s,PASSED
setText,Firefox 63.0,,2018-12-11 11:15:55,2018-12-11 11:15:55,0.254s,PASSED
setText,Firefox 63.0,,2018-12-11 11:15:55,2018-12-11 11:15:55,0.213s,PASSED
setText,Firefox 63.0,,2018-12-11 11:15:55,2018-12-11 11:15:56,0.340s,PASSED
setText,Firefox 63.0,,2018-12-11 11:15:56,2018-12-11 11:15:56,0.200s,PASSED
click,Firefox 63.0,,2018-12-11 11:15:56,2018-12-11 11:15:56,0.377s,PASSED
click,Firefox 63.0,,2018-12-11 11:15:56,2018-12-11 11:15:57,0.426s,PASSED
setText,Firefox 63.0,,2018-12-11 11:15:57,2018-12-11 11:15:57,0.366s,PASSED
click,Firefox 63.0,,2018-12-11 11:15:57,2018-12-11 11:15:57,0.362s,PASSED
click,Firefox 63.0,,2018-12-11 11:15:57,2018-12-11 11:15:58,0.388s,PASSED
click,Firefox 63.0,,2018-12-11 11:15:58,2018-12-11 11:15:58,0.330s,PASSED
delay,Firefox 63.0,,2018-12-11 11:15:58,2018-12-11 11:16:03,5.097s,PASSED
click,Firefox 63.0,,2018-12-11 11:16:03,2018-12-11 11:16:05,1.254s,PASSED
waitForElementClickable,Firefox 63.0,,2018-12-11 11:16:05,2018-12-11 11:16:05,0.050s,PASSED
click,Firefox 63.0,,2018-12-11 11:16:05,2018-12-11 11:16:05,0.729s,PASSED
delay,Firefox 63.0,,2018-12-11 11:16:05,2018-12-11 11:16:11,6.006s,PASSED
click,Firefox 63.0,,2018-12-11 11:16:11,2018-12-11 11:16:12,0.384s,PASSED
click,Firefox 63.0,,2018-12-11 11:16:12,2018-12-11 11:16:12,0.347s,PASSED
delay,Firefox 63.0,,2018-12-11 11:16:12,2018-12-11 11:16:18,6.075s,PASSED
executeJavaScript,Firefox 63.0,,2018-12-11 11:16:18,2018-12-11 11:16:18,0.262s,PASSED
Statement - currentWindow = com.kms.katalon.core.webui.keyword.WebUiBuiltInKeywords.getWindowIndex(),Firefox 63.0,,2018-12-11 11:16:18,2018-12-11 11:16:18,0.029s,PASSED
switchToWindowIndex,Firefox 63.0,,2018-12-11 11:16:18,2018-12-11 11:16:18,0.044s,PASSED
navigateToUrl,Firefox 63.0,,2018-12-11 11:16:18,2018-12-11 11:16:23,4.546s,PASSED
setText,Firefox 63.0,,2018-12-11 11:16:23,2018-12-11 11:16:23,0.098s,PASSED
click,Firefox 63.0,,2018-12-11 11:16:23,2018-12-11 11:16:24,1.239s,PASSED
click,Firefox 63.0,,2018-12-11 11:16:24,2018-12-11 11:16:26,1.581s,PASSED
click,Firefox 63.0,,2018-12-11 11:16:26,2018-12-11 11:16:31,4.636s,PASSED
delay,Firefox 63.0,,2018-12-11 11:16:31,2018-12-11 11:16:39,8.075s,PASSED
closeBrowser,Firefox 63.0,,2018-12-11 11:16:39,2018-12-11 11:16:39,0.783s,PASSED
openBrowser,Firefox 63.0,,2018-12-11 11:16:39,2018-12-11 11:16:42,3.057s,PASSED
maximizeWindow,Firefox 63.0,,2018-12-11 11:16:42,2018-12-11 11:16:46,3.614s,PASSED
navigateToUrl,Firefox 63.0,,2018-12-11 11:16:46,2018-12-11 11:16:57,10.768s,PASSED
"Statement - If (com.kms.katalon.core.webui.keyword.WebUiBuiltInKeywords.verifyElementVisible(com.kms.katalon.core.testobject.ObjectRepository.findTestObject(Object Repository/GETCRAFT/create_brief/Language_indo), OPTIONAL))",Firefox 63.0,,2018-12-11 11:16:57,2018-12-11 11:16:57,0.159s,PASSED
Statement - Else,Firefox 63.0,,2018-12-11 11:16:57,2018-12-11 11:17:00,3.084s,PASSED
setText,Firefox 63.0,,2018-12-11 11:17:00,2018-12-11 11:17:00,0.309s,PASSED
setText,Firefox 63.0,,2018-12-11 11:17:00,2018-12-11 11:17:01,0.331s,PASSED
click,Firefox 63.0,,2018-12-11 11:17:01,2018-12-11 11:17:01,0.337s,PASSED
delay,Firefox 63.0,,2018-12-11 11:17:01,2018-12-11 11:17:06,5.061s,PASSED
verifyElementPresent,Firefox 63.0,,2018-12-11 11:17:06,2018-12-11 11:17:06,0.050s,PASSED
closeBrowser,Firefox 63.0,,2018-12-11 11:17:06,2018-12-11 11:17:07,0.776s,PASSED
,,,,,,
Test Cases/GETCRAFT/Register_Client,Firefox 63.0,,2018-12-11 11:17:07,2018-12-11 11:18:43,1m - 35.841s,PASSED
Statement - RN = <not implemented yet for class: org.codehaus.groovy.ast.expr.EmptyExpression>,Firefox 63.0,,2018-12-11 11:17:07,2018-12-11 11:17:07,0.001s,PASSED
Statement - RN = java.lang.Math.random() * 999,Firefox 63.0,,2018-12-11 11:17:07,2018-12-11 11:17:07,0.002s,PASSED
Statement - mailinator = email + RN,Firefox 63.0,,2018-12-11 11:17:07,2018-12-11 11:17:07,0.000s,PASSED
Statement - user = email + RN + domain,Firefox 63.0,,2018-12-11 11:17:07,2018-12-11 11:17:07,0.001s,PASSED
Statement - firstname = name + RN,Firefox 63.0,,2018-12-11 11:17:07,2018-12-11 11:17:07,0.000s,PASSED
Statement - lastname = name2 + RN,Firefox 63.0,,2018-12-11 11:17:07,2018-12-11 11:17:07,0.000s,PASSED
Statement - Phone = phonenumber + RN,Firefox 63.0,,2018-12-11 11:17:07,2018-12-11 11:17:07,0.001s,PASSED
Statement - println(user),Firefox 63.0,,2018-12-11 11:17:07,2018-12-11 11:17:07,0.002s,PASSED
openBrowser,Firefox 63.0,,2018-12-11 11:17:07,2018-12-11 11:17:11,3.610s,PASSED
maximizeWindow,Firefox 63.0,,2018-12-11 11:17:11,2018-12-11 11:17:15,3.592s,PASSED
navigateToUrl,Firefox 63.0,,2018-12-11 11:17:15,2018-12-11 11:17:21,6.013s,PASSED
waitForElementClickable,Firefox 63.0,,2018-12-11 11:17:21,2018-12-11 11:17:21,0.660s,PASSED
click,Firefox 63.0,,2018-12-11 11:17:21,2018-12-11 11:17:22,0.369s,PASSED
click,Firefox 63.0,,2018-12-11 11:17:22,2018-12-11 11:17:24,2.306s,PASSED
setText,Firefox 63.0,,2018-12-11 11:17:24,2018-12-11 11:17:24,0.307s,PASSED
setText,Firefox 63.0,,2018-12-11 11:17:24,2018-12-11 11:17:26,1.912s,PASSED
setText,Firefox 63.0,,2018-12-11 11:17:26,2018-12-11 11:17:27,0.319s,PASSED
setText,Firefox 63.0,,2018-12-11 11:17:27,2018-12-11 11:17:27,0.363s,PASSED
setText,Firefox 63.0,,2018-12-11 11:17:27,2018-12-11 11:17:27,0.200s,PASSED
click,Firefox 63.0,,2018-12-11 11:17:27,2018-12-11 11:17:27,0.339s,PASSED
click,Firefox 63.0,,2018-12-11 11:17:27,2018-12-11 11:17:28,0.387s,PASSED
setText,Firefox 63.0,,2018-12-11 11:17:28,2018-12-11 11:17:28,0.293s,PASSED
delay,Firefox 63.0,,2018-12-11 11:17:28,2018-12-11 11:17:33,5.077s,PASSED
click,Firefox 63.0,,2018-12-11 11:17:33,2018-12-11 11:17:34,0.357s,PASSED
click,Firefox 63.0,,2018-12-11 11:17:34,2018-12-11 11:17:34,0.375s,PASSED
delay,Firefox 63.0,,2018-12-11 11:17:34,2018-12-11 11:17:39,5.002s,PASSED
click,Firefox 63.0,,2018-12-11 11:17:39,2018-12-11 11:17:40,0.800s,PASSED
waitForElementClickable,Firefox 63.0,,2018-12-11 11:17:40,2018-12-11 11:17:40,0.062s,PASSED
click,Firefox 63.0,,2018-12-11 11:17:40,2018-12-11 11:17:41,1.075s,PASSED
delay,Firefox 63.0,,2018-12-11 11:17:41,2018-12-11 11:17:45,4.075s,PASSED
click,Firefox 63.0,,2018-12-11 11:17:45,2018-12-11 11:17:45,0.336s,PASSED
click,Firefox 63.0,,2018-12-11 11:17:45,2018-12-11 11:17:46,0.347s,PASSED
delay,Firefox 63.0,,2018-12-11 11:17:46,2018-12-11 11:17:52,6.005s,PASSED
executeJavaScript,Firefox 63.0,,2018-12-11 11:17:52,2018-12-11 11:17:52,0.292s,PASSED
Statement - currentWindow = com.kms.katalon.core.webui.keyword.WebUiBuiltInKeywords.getWindowIndex(),Firefox 63.0,,2018-12-11 11:17:52,2018-12-11 11:17:52,0.022s,PASSED
switchToWindowIndex,Firefox 63.0,,2018-12-11 11:17:52,2018-12-11 11:17:52,0.031s,PASSED
navigateToUrl,Firefox 63.0,,2018-12-11 11:17:52,2018-12-11 11:17:56,4.280s,PASSED
setText,Firefox 63.0,,2018-12-11 11:17:56,2018-12-11 11:17:56,0.088s,PASSED
click,Firefox 63.0,,2018-12-11 11:17:56,2018-12-11 11:17:58,1.170s,PASSED
click,Firefox 63.0,,2018-12-11 11:17:58,2018-12-11 11:18:03,5.773s,PASSED
waitForElementPresent,Firefox 63.0,,2018-12-11 11:18:03,2018-12-11 11:18:03,0.003s,NOT_RUN
verifyElementVisible,Firefox 63.0,,2018-12-11 11:18:03,2018-12-11 11:18:03,0.085s,PASSED
click,Firefox 63.0,,2018-12-11 11:18:03,2018-12-11 11:18:09,5.669s,PASSED
delay,Firefox 63.0,,2018-12-11 11:18:09,2018-12-11 11:18:18,9.005s,PASSED
closeBrowser,Firefox 63.0,,2018-12-11 11:18:18,2018-12-11 11:18:19,0.826s,PASSED
openBrowser,Firefox 63.0,,2018-12-11 11:18:19,2018-12-11 11:18:22,3.568s,PASSED
maximizeWindow,Firefox 63.0,,2018-12-11 11:18:22,2018-12-11 11:18:26,3.568s,PASSED
navigateToUrl,Firefox 63.0,,2018-12-11 11:18:26,2018-12-11 11:18:33,7.139s,PASSED
"Statement - If (com.kms.katalon.core.webui.keyword.WebUiBuiltInKeywords.verifyElementVisible(com.kms.katalon.core.testobject.ObjectRepository.findTestObject(Object Repository/GETCRAFT/create_brief/Language_indo), OPTIONAL))",Firefox 63.0,,2018-12-11 11:18:33,2018-12-11 11:18:33,0.152s,PASSED
Statement - Else,Firefox 63.0,,2018-12-11 11:18:33,2018-12-11 11:18:36,3.073s,PASSED
waitForElementClickable,Firefox 63.0,,2018-12-11 11:18:36,2018-12-11 11:18:36,0.052s,PASSED
setText,Firefox 63.0,,2018-12-11 11:18:36,2018-12-11 11:18:37,0.347s,PASSED
setText,Firefox 63.0,,2018-12-11 11:18:37,2018-12-11 11:18:37,0.317s,PASSED
click,Firefox 63.0,,2018-12-11 11:18:37,2018-12-11 11:18:37,0.383s,PASSED
verifyElementPresent,Firefox 63.0,,2018-12-11 11:18:37,2018-12-11 11:18:42,4.194s,PASSED
closeBrowser,Firefox 63.0,,2018-12-11 11:18:42,2018-12-11 11:18:43,1.182s,PASSED
,,,,,,
Test Cases/GETCRAFT/Create_BriefSelected(DRAFT),Firefox 63.0,,2018-12-11 11:18:43,2018-12-11 11:19:34,50.800s,PASSED
Statement - RN = <not implemented yet for class: org.codehaus.groovy.ast.expr.EmptyExpression>,Firefox 63.0,,2018-12-11 11:18:43,2018-12-11 11:18:43,0.001s,PASSED
Statement - RN = java.lang.Math.random() * 599,Firefox 63.0,,2018-12-11 11:18:43,2018-12-11 11:18:43,0.001s,PASSED
Statement - name_project = project_name + RN,Firefox 63.0,,2018-12-11 11:18:43,2018-12-11 11:18:43,0.001s,PASSED
openBrowser,Firefox 63.0,,2018-12-11 11:18:43,2018-12-11 11:18:47,3.434s,PASSED
maximizeWindow,Firefox 63.0,,2018-12-11 11:18:47,2018-12-11 11:18:50,3.594s,PASSED
navigateToUrl,Firefox 63.0,,2018-12-11 11:18:50,2018-12-11 11:18:59,8.829s,PASSED
"Statement - If (com.kms.katalon.core.webui.keyword.WebUiBuiltInKeywords.verifyElementVisible(com.kms.katalon.core.testobject.ObjectRepository.findTestObject(Object Repository/GETCRAFT/create_brief/Language_indo), OPTIONAL))",Firefox 63.0,,2018-12-11 11:18:59,2018-12-11 11:18:59,0.149s,PASSED
Statement - Else,Firefox 63.0,,2018-12-11 11:18:59,2018-12-11 11:19:02,3.075s,PASSED
setText,Firefox 63.0,,2018-12-11 11:19:02,2018-12-11 11:19:03,0.553s,PASSED
setText,Firefox 63.0,,2018-12-11 11:19:03,2018-12-11 11:19:03,0.090s,PASSED
click,Firefox 63.0,,2018-12-11 11:19:03,2018-12-11 11:19:03,0.342s,PASSED
verifyElementPresent,Firefox 63.0,,2018-12-11 11:19:03,2018-12-11 11:19:07,4.054s,PASSED
click,Firefox 63.0,,2018-12-11 11:19:07,2018-12-11 11:19:09,1.092s,PASSED
click,Firefox 63.0,,2018-12-11 11:19:09,2018-12-11 11:19:10,0.980s,PASSED
delay,Firefox 63.0,,2018-12-11 11:19:10,2018-12-11 11:19:14,4.077s,PASSED
waitForElementClickable,Firefox 63.0,,2018-12-11 11:19:14,2018-12-11 11:19:14,0.053s,PASSED
scrollToElement,Firefox 63.0,,2018-12-11 11:19:14,2018-12-11 11:19:14,0.085s,PASSED
click,Firefox 63.0,,2018-12-11 11:19:14,2018-12-11 11:19:14,0.645s,PASSED
click,Firefox 63.0,,2018-12-11 11:19:14,2018-12-11 11:19:15,0.386s,PASSED
click,Firefox 63.0,,2018-12-11 11:19:15,2018-12-11 11:19:16,0.807s,PASSED
setText,Firefox 63.0,,2018-12-11 11:19:16,2018-12-11 11:19:16,0.865s,PASSED
setText,Firefox 63.0,,2018-12-11 11:19:16,2018-12-11 11:19:17,0.307s,PASSED
setText,Firefox 63.0,,2018-12-11 11:19:17,2018-12-11 11:19:17,0.212s,PASSED
setText,Firefox 63.0,,2018-12-11 11:19:17,2018-12-11 11:19:17,0.209s,PASSED
scrollToElement,Firefox 63.0,,2018-12-11 11:19:17,2018-12-11 11:19:17,0.075s,PASSED
uploadFiles.uploadFile,Firefox 63.0,,2018-12-11 11:19:17,2018-12-11 11:19:17,0.001s,NOT_RUN
Statement - java.lang.Thread.sleep(2000),Firefox 63.0,,2018-12-11 11:19:17,2018-12-11 11:19:17,0.001s,NOT_RUN
waitForElementClickable,Firefox 63.0,,2018-12-11 11:19:17,2018-12-11 11:19:17,0.001s,NOT_RUN
click,Firefox 63.0,,2018-12-11 11:19:17,2018-12-11 11:19:17,0.001s,NOT_RUN
delay,Firefox 63.0,,2018-12-11 11:19:17,2018-12-11 11:19:17,0.000s,NOT_RUN
click,Firefox 63.0,,2018-12-11 11:19:17,2018-12-11 11:19:18,0.329s,PASSED
setText,Firefox 63.0,,2018-12-11 11:19:18,2018-12-11 11:19:18,0.311s,PASSED
click,Firefox 63.0,,2018-12-11 11:19:18,2018-12-11 11:19:18,0.334s,PASSED
click,Firefox 63.0,,2018-12-11 11:19:18,2018-12-11 11:19:19,0.329s,PASSED
scrollToElement,Firefox 63.0,,2018-12-11 11:19:19,2018-12-11 11:19:19,0.051s,PASSED
delay,Firefox 63.0,,2018-12-11 11:19:19,2018-12-11 11:19:22,3.077s,PASSED
click,Firefox 63.0,,2018-12-11 11:19:22,2018-12-11 11:19:22,0.345s,PASSED
waitForElementPresent,Firefox 63.0,,2018-12-11 11:19:22,2018-12-11 11:19:24,2.264s,PASSED
delay,Firefox 63.0,,2018-12-11 11:19:24,2018-12-11 11:19:29,5.078s,PASSED
verifyElementText,Firefox 63.0,,2018-12-11 11:19:29,2018-12-11 11:19:30,0.122s,PASSED
verifyElementPresent,Firefox 63.0,,2018-12-11 11:19:30,2018-12-11 11:19:30,0.095s,PASSED
delay,Firefox 63.0,,2018-12-11 11:19:30,2018-12-11 11:19:33,3.077s,PASSED
closeBrowser,Firefox 63.0,,2018-12-11 11:19:33,2018-12-11 11:19:34,0.952s,PASSED
,,,,,,
Test Cases/GETCRAFT/Create_BriefUnselected(DRAFT),Firefox 63.0,,2018-12-11 11:19:34,2018-12-11 11:20:32,58.155s,PASSED
Statement - RN = <not implemented yet for class: org.codehaus.groovy.ast.expr.EmptyExpression>,Firefox 63.0,,2018-12-11 11:19:34,2018-12-11 11:19:34,0.001s,PASSED
Statement - RN = java.lang.Math.random() * 599,Firefox 63.0,,2018-12-11 11:19:34,2018-12-11 11:19:34,0.000s,PASSED
Statement - name_project = project_name + RN,Firefox 63.0,,2018-12-11 11:19:34,2018-12-11 11:19:34,0.001s,PASSED
openBrowser,Firefox 63.0,,2018-12-11 11:19:34,2018-12-11 11:19:38,3.694s,PASSED
maximizeWindow,Firefox 63.0,,2018-12-11 11:19:38,2018-12-11 11:19:41,3.554s,PASSED
navigateToUrl,Firefox 63.0,,2018-12-11 11:19:41,2018-12-11 11:19:49,7.482s,PASSED
"Statement - If (com.kms.katalon.core.webui.keyword.WebUiBuiltInKeywords.verifyElementVisible(com.kms.katalon.core.testobject.ObjectRepository.findTestObject(Object Repository/GETCRAFT/create_brief/Language_indo), OPTIONAL))",Firefox 63.0,,2018-12-11 11:19:49,2018-12-11 11:19:49,0.152s,PASSED
Statement - Else,Firefox 63.0,,2018-12-11 11:19:49,2018-12-11 11:19:52,3.077s,PASSED
setText,Firefox 63.0,,2018-12-11 11:19:52,2018-12-11 11:19:52,0.537s,PASSED
setText,Firefox 63.0,,2018-12-11 11:19:52,2018-12-11 11:19:52,0.084s,PASSED
click,Firefox 63.0,,2018-12-11 11:19:52,2018-12-11 11:19:53,0.341s,PASSED
verifyElementPresent,Firefox 63.0,,2018-12-11 11:19:53,2018-12-11 11:19:57,4.213s,PASSED
click,Firefox 63.0,,2018-12-11 11:19:57,2018-12-11 11:19:59,1.986s,PASSED
delay,Firefox 63.0,,2018-12-11 11:19:59,2018-12-11 11:20:04,5.068s,PASSED
click,Firefox 63.0,,2018-12-11 11:20:04,2018-12-11 11:20:05,0.544s,PASSED
click,Firefox 63.0,,2018-12-11 11:20:05,2018-12-11 11:20:05,0.459s,PASSED
waitForElementClickable,Firefox 63.0,,2018-12-11 11:20:05,2018-12-11 11:20:05,0.001s,NOT_RUN
click,Firefox 63.0,,2018-12-11 11:20:05,2018-12-11 11:20:05,0.345s,PASSED
click,Firefox 63.0,,2018-12-11 11:20:05,2018-12-11 11:20:06,0.390s,PASSED
scrollToElement,Firefox 63.0,,2018-12-11 11:20:06,2018-12-11 11:20:06,0.044s,PASSED
waitForElementClickable,Firefox 63.0,,2018-12-11 11:20:06,2018-12-11 11:20:06,0.068s,PASSED
delay,Firefox 63.0,,2018-12-11 11:20:06,2018-12-11 11:20:08,2.074s,PASSED
click,Firefox 63.0,,2018-12-11 11:20:08,2018-12-11 11:20:08,0.408s,PASSED
click,Firefox 63.0,,2018-12-11 11:20:08,2018-12-11 11:20:09,0.330s,PASSED
click,Firefox 63.0,,2018-12-11 11:20:09,2018-12-11 11:20:09,0.374s,PASSED
waitForElementClickable,Firefox 63.0,,2018-12-11 11:20:09,2018-12-11 11:20:09,0.036s,PASSED
delay,Firefox 63.0,,2018-12-11 11:20:09,2018-12-11 11:20:11,2.076s,PASSED
click,Firefox 63.0,,2018-12-11 11:20:11,2018-12-11 11:20:12,0.530s,PASSED
click,Firefox 63.0,,2018-12-11 11:20:12,2018-12-11 11:20:12,0.388s,PASSED
click,Firefox 63.0,,2018-12-11 11:20:12,2018-12-11 11:20:13,0.405s,PASSED
setText,Firefox 63.0,,2018-12-11 11:20:13,2018-12-11 11:20:13,0.837s,PASSED
setText,Firefox 63.0,,2018-12-11 11:20:13,2018-12-11 11:20:14,0.360s,PASSED
setText,Firefox 63.0,,2018-12-11 11:20:14,2018-12-11 11:20:14,0.245s,PASSED
setText,Firefox 63.0,,2018-12-11 11:20:14,2018-12-11 11:20:14,0.252s,PASSED
scrollToElement,Firefox 63.0,,2018-12-11 11:20:14,2018-12-11 11:20:14,0.079s,PASSED
uploadFiles.uploadFile,Firefox 63.0,,2018-12-11 11:20:14,2018-12-11 11:20:14,0.002s,NOT_RUN
Statement - java.lang.Thread.sleep(2000),Firefox 63.0,,2018-12-11 11:20:14,2018-12-11 11:20:14,0.000s,NOT_RUN
waitForElementClickable,Firefox 63.0,,2018-12-11 11:20:14,2018-12-11 11:20:14,0.000s,NOT_RUN
click,Firefox 63.0,,2018-12-11 11:20:14,2018-12-11 11:20:14,0.001s,NOT_RUN
delay,Firefox 63.0,,2018-12-11 11:20:14,2018-12-11 11:20:14,0.000s,NOT_RUN
click,Firefox 63.0,,2018-12-11 11:20:14,2018-12-11 11:20:15,0.286s,PASSED
setText,Firefox 63.0,,2018-12-11 11:20:15,2018-12-11 11:20:15,0.359s,PASSED
click,Firefox 63.0,,2018-12-11 11:20:15,2018-12-11 11:20:15,0.348s,PASSED
click,Firefox 63.0,,2018-12-11 11:20:15,2018-12-11 11:20:16,0.341s,PASSED
scrollToElement,Firefox 63.0,,2018-12-11 11:20:16,2018-12-11 11:20:16,0.044s,PASSED
delay,Firefox 63.0,,2018-12-11 11:20:16,2018-12-11 11:20:19,3.075s,PASSED
click,Firefox 63.0,,2018-12-11 11:20:19,2018-12-11 11:20:19,0.612s,PASSED
waitForElementPresent,Firefox 63.0,,2018-12-11 11:20:19,2018-12-11 11:20:23,3.150s,PASSED
delay,Firefox 63.0,,2018-12-11 11:20:23,2018-12-11 11:20:28,5.073s,PASSED
verifyElementText,Firefox 63.0,,2018-12-11 11:20:28,2018-12-11 11:20:28,0.108s,PASSED
verifyElementPresent,Firefox 63.0,,2018-12-11 11:20:28,2018-12-11 11:20:28,0.136s,PASSED
delay,Firefox 63.0,,2018-12-11 11:20:28,2018-12-11 11:20:31,3.071s,PASSED
closeBrowser,Firefox 63.0,,2018-12-11 11:20:31,2018-12-11 11:20:32,0.848s,PASSED
,,,,,,
Test Cases/GETCRAFT/Create_BriefSelected(SENDtoCREATOR),Firefox 63.0,,2018-12-11 11:20:32,2018-12-11 11:21:25,53.454s,PASSED
Statement - RN = <not implemented yet for class: org.codehaus.groovy.ast.expr.EmptyExpression>,Firefox 63.0,,2018-12-11 11:20:32,2018-12-11 11:20:32,0.000s,PASSED
Statement - RN = java.lang.Math.random() * 599,Firefox 63.0,,2018-12-11 11:20:32,2018-12-11 11:20:32,0.001s,PASSED
Statement - name_project = project_name + RN,Firefox 63.0,,2018-12-11 11:20:32,2018-12-11 11:20:32,0.001s,PASSED
openBrowser,Firefox 63.0,,2018-12-11 11:20:32,2018-12-11 11:20:36,3.573s,PASSED
maximizeWindow,Firefox 63.0,,2018-12-11 11:20:36,2018-12-11 11:20:39,3.588s,PASSED
navigateToUrl,Firefox 63.0,,2018-12-11 11:20:39,2018-12-11 11:20:46,7.238s,PASSED
"Statement - If (com.kms.katalon.core.webui.keyword.WebUiBuiltInKeywords.verifyElementVisible(com.kms.katalon.core.testobject.ObjectRepository.findTestObject(Object Repository/GETCRAFT/create_brief/Language_indo), OPTIONAL))",Firefox 63.0,,2018-12-11 11:20:46,2018-12-11 11:20:47,0.720s,PASSED
Statement - Else,Firefox 63.0,,2018-12-11 11:20:47,2018-12-11 11:20:50,3.075s,PASSED
setText,Firefox 63.0,,2018-12-11 11:20:50,2018-12-11 11:20:51,0.437s,PASSED
setText,Firefox 63.0,,2018-12-11 11:20:51,2018-12-11 11:20:51,0.093s,PASSED
click,Firefox 63.0,,2018-12-11 11:20:51,2018-12-11 11:20:51,0.385s,PASSED
verifyElementPresent,Firefox 63.0,,2018-12-11 11:20:51,2018-12-11 11:20:55,4.073s,PASSED
click,Firefox 63.0,,2018-12-11 11:20:55,2018-12-11 11:20:57,1.241s,PASSED
click,Firefox 63.0,,2018-12-11 11:20:57,2018-12-11 11:20:58,1.036s,PASSED
delay,Firefox 63.0,,2018-12-11 11:20:58,2018-12-11 11:21:01,3.077s,PASSED
waitForElementClickable,Firefox 63.0,,2018-12-11 11:21:01,2018-12-11 11:21:01,0.211s,PASSED
scrollToElement,Firefox 63.0,,2018-12-11 11:21:01,2018-12-11 11:21:01,0.088s,PASSED
click,Firefox 63.0,,2018-12-11 11:21:01,2018-12-11 11:21:02,0.625s,PASSED
click,Firefox 63.0,,2018-12-11 11:21:02,2018-12-11 11:21:02,0.577s,PASSED
click,Firefox 63.0,,2018-12-11 11:21:02,2018-12-11 11:21:03,0.787s,PASSED
setText,Firefox 63.0,,2018-12-11 11:21:03,2018-12-11 11:21:04,0.814s,PASSED
setText,Firefox 63.0,,2018-12-11 11:21:04,2018-12-11 11:21:04,0.305s,PASSED
setText,Firefox 63.0,,2018-12-11 11:21:04,2018-12-11 11:21:04,0.190s,PASSED
setText,Firefox 63.0,,2018-12-11 11:21:04,2018-12-11 11:21:04,0.183s,PASSED
scrollToElement,Firefox 63.0,,2018-12-11 11:21:04,2018-12-11 11:21:04,0.026s,PASSED
uploadFiles.uploadFile,Firefox 63.0,,2018-12-11 11:21:04,2018-12-11 11:21:04,0.001s,NOT_RUN
Statement - java.lang.Thread.sleep(2000),Firefox 63.0,,2018-12-11 11:21:04,2018-12-11 11:21:04,0.001s,NOT_RUN
waitForElementClickable,Firefox 63.0,,2018-12-11 11:21:04,2018-12-11 11:21:04,0.001s,NOT_RUN
click,Firefox 63.0,,2018-12-11 11:21:04,2018-12-11 11:21:04,0.001s,NOT_RUN
delay,Firefox 63.0,,2018-12-11 11:21:04,2018-12-11 11:21:04,0.000s,NOT_RUN
click,Firefox 63.0,,2018-12-11 11:21:04,2018-12-11 11:21:05,0.299s,PASSED
setText,Firefox 63.0,,2018-12-11 11:21:05,2018-12-11 11:21:05,0.284s,PASSED
click,Firefox 63.0,,2018-12-11 11:21:05,2018-12-11 11:21:05,0.319s,PASSED
click,Firefox 63.0,,2018-12-11 11:21:05,2018-12-11 11:21:06,0.326s,PASSED
scrollToElement,Firefox 63.0,,2018-12-11 11:21:06,2018-12-11 11:21:06,0.043s,PASSED
delay,Firefox 63.0,,2018-12-11 11:21:06,2018-12-11 11:21:09,3.076s,PASSED
click,Firefox 63.0,,2018-12-11 11:21:09,2018-12-11 11:21:09,0.419s,PASSED
waitForElementClickable,Firefox 63.0,,2018-12-11 11:21:09,2018-12-11 11:21:11,1.366s,PASSED
click,Firefox 63.0,,2018-12-11 11:21:11,2018-12-11 11:21:11,0.525s,PASSED
delay,Firefox 63.0,,2018-12-11 11:21:11,2018-12-11 11:21:14,3.074s,PASSED
click,Firefox 63.0,,2018-12-11 11:21:14,2018-12-11 11:21:15,0.389s,PASSED
waitForElementPresent,Firefox 63.0,,2018-12-11 11:21:15,2018-12-11 11:21:16,1.296s,PASSED
delay,Firefox 63.0,,2018-12-11 11:21:16,2018-12-11 11:21:24,8.075s,PASSED
verifyElementText,Firefox 63.0,,2018-12-11 11:21:24,2018-12-11 11:21:24,0.226s,PASSED
verifyElementPresent,Firefox 63.0,,2018-12-11 11:21:24,2018-12-11 11:21:24,0.196s,PASSED
closeBrowser,Firefox 63.0,,2018-12-11 11:21:24,2018-12-11 11:21:25,0.906s,PASSED
,,,,,,
Test Cases/GETCRAFT/Create_BriefUnselected(SENDtoCREATOR),Firefox 63.0,,2018-12-11 11:21:25,2018-12-11 11:23:16,1m - 50.232s,FAILED
Statement - RN = <not implemented yet for class: org.codehaus.groovy.ast.expr.EmptyExpression>,Firefox 63.0,,2018-12-11 11:21:26,2018-12-11 11:21:26,0.001s,PASSED
Statement - RN = java.lang.Math.random() * 599,Firefox 63.0,,2018-12-11 11:21:26,2018-12-11 11:21:26,0.001s,PASSED
Statement - name_project = project_name + RN,Firefox 63.0,,2018-12-11 11:21:26,2018-12-11 11:21:26,0.000s,PASSED
openBrowser,Firefox 63.0,,2018-12-11 11:21:26,2018-12-11 11:21:29,3.497s,PASSED
maximizeWindow,Firefox 63.0,,2018-12-11 11:21:29,2018-12-11 11:21:33,3.597s,PASSED
navigateToUrl,Firefox 63.0,,2018-12-11 11:21:33,2018-12-11 11:21:43,9.940s,PASSED
"Statement - If (com.kms.katalon.core.webui.keyword.WebUiBuiltInKeywords.verifyElementVisible(com.kms.katalon.core.testobject.ObjectRepository.findTestObject(Object Repository/GETCRAFT/create_brief/Language_indo), OPTIONAL))",Firefox 63.0,,2018-12-11 11:21:43,2018-12-11 11:21:43,0.143s,PASSED
Statement - Else,Firefox 63.0,,2018-12-11 11:21:43,2018-12-11 11:21:46,3.077s,PASSED
setText,Firefox 63.0,,2018-12-11 11:21:46,2018-12-11 11:21:46,0.457s,PASSED
setText,Firefox 63.0,,2018-12-11 11:21:46,2018-12-11 11:21:46,0.090s,PASSED
click,Firefox 63.0,,2018-12-11 11:21:46,2018-12-11 11:21:47,0.292s,PASSED
verifyElementPresent,Firefox 63.0,,2018-12-11 11:21:47,2018-12-11 11:21:51,4.586s,PASSED
click,Firefox 63.0,,2018-12-11 11:21:51,2018-12-11 11:21:53,1.393s,PASSED
delay,Firefox 63.0,,2018-12-11 11:21:53,2018-12-11 11:22:00,7.004s,PASSED
click,Firefox 63.0,,2018-12-11 11:22:00,2018-12-11 11:22:00,0.350s,PASSED
delay,Firefox 63.0,,2018-12-11 11:22:00,2018-12-11 11:22:02,2.076s,PASSED
click,Firefox 63.0,,2018-12-11 11:22:02,2018-12-11 11:22:02,0.384s,PASSED
waitForElementClickable,Firefox 63.0,,2018-12-11 11:22:02,2018-12-11 11:22:02,0.000s,NOT_RUN
click,Firefox 63.0,,2018-12-11 11:22:02,2018-12-11 11:22:03,0.328s,PASSED
click,Firefox 63.0,,2018-12-11 11:22:03,2018-12-11 11:22:03,0.334s,PASSED
scrollToElement,Firefox 63.0,,2018-12-11 11:22:03,2018-12-11 11:22:03,0.031s,PASSED
waitForElementClickable,Firefox 63.0,,2018-12-11 11:22:03,2018-12-11 11:22:03,0.039s,PASSED
delay,Firefox 63.0,,2018-12-11 11:22:03,2018-12-11 11:22:05,2.062s,PASSED
click,Firefox 63.0,,2018-12-11 11:22:05,2018-12-11 11:22:06,0.451s,PASSED
click,Firefox 63.0,,2018-12-11 11:22:06,2018-12-11 11:22:06,0.321s,PASSED
click,Firefox 63.0,,2018-12-11 11:22:06,2018-12-11 11:22:06,0.378s,PASSED
waitForElementClickable,Firefox 63.0,,2018-12-11 11:22:06,2018-12-11 11:22:06,0.032s,PASSED
delay,Firefox 63.0,,2018-12-11 11:22:06,2018-12-11 11:22:08,2.073s,PASSED
click,Firefox 63.0,,2018-12-11 11:22:08,2018-12-11 11:22:09,0.502s,PASSED
click,Firefox 63.0,,2018-12-11 11:22:09,2018-12-11 11:22:09,0.400s,PASSED
click,Firefox 63.0,,2018-12-11 11:22:09,2018-12-11 11:22:10,0.346s,PASSED
setText,Firefox 63.0,,2018-12-11 11:22:10,2018-12-11 11:22:10,0.700s,PASSED
setText,Firefox 63.0,,2018-12-11 11:22:10,2018-12-11 11:22:11,0.323s,PASSED
setText,Firefox 63.0,,2018-12-11 11:22:11,2018-12-11 11:22:11,0.244s,PASSED
setText,Firefox 63.0,,2018-12-11 11:22:11,2018-12-11 11:22:11,0.198s,PASSED
scrollToElement,Firefox 63.0,,2018-12-11 11:22:11,2018-12-11 11:22:11,0.060s,PASSED
uploadFiles.uploadFile,Firefox 63.0,,2018-12-11 11:22:11,2018-12-11 11:22:11,0.001s,NOT_RUN
Statement - java.lang.Thread.sleep(2000),Firefox 63.0,,2018-12-11 11:22:11,2018-12-11 11:22:11,0.000s,NOT_RUN
waitForElementClickable,Firefox 63.0,,2018-12-11 11:22:11,2018-12-11 11:22:11,0.000s,NOT_RUN
click,Firefox 63.0,,2018-12-11 11:22:11,2018-12-11 11:22:11,0.001s,NOT_RUN
delay,Firefox 63.0,,2018-12-11 11:22:11,2018-12-11 11:22:11,0.000s,NOT_RUN
click,Firefox 63.0,,2018-12-11 11:22:11,2018-12-11 11:22:12,0.361s,PASSED
setText,Firefox 63.0,,2018-12-11 11:22:12,2018-12-11 11:22:12,0.318s,PASSED
click,Firefox 63.0,,2018-12-11 11:22:12,2018-12-11 11:22:12,0.320s,PASSED
click,Firefox 63.0,,2018-12-11 11:22:12,2018-12-11 11:22:13,0.341s,PASSED
scrollToElement,Firefox 63.0,,2018-12-11 11:22:13,2018-12-11 11:22:13,0.139s,PASSED
delay,Firefox 63.0,,2018-12-11 11:22:13,2018-12-11 11:22:16,3.076s,PASSED
click,Firefox 63.0,,2018-12-11 11:22:16,2018-12-11 11:22:16,0.334s,PASSED
waitForElementClickable,Firefox 63.0,,2018-12-11 11:22:16,2018-12-11 11:22:18,1.680s,PASSED
click,Firefox 63.0,,2018-12-11 11:22:18,2018-12-11 11:23:16,57.679s,FAILED
,,,,,,
Test Cases/GETCRAFT/Brief_phase2_selected_login ,Firefox 63.0,,2018-12-11 11:23:16,2018-12-11 11:24:17,1m - 1.488s,PASSED
Statement - RN = <not implemented yet for class: org.codehaus.groovy.ast.expr.EmptyExpression>,Firefox 63.0,,2018-12-11 11:23:16,2018-12-11 11:23:16,0.000s,PASSED
Statement - RN = java.lang.Math.random() * 599,Firefox 63.0,,2018-12-11 11:23:16,2018-12-11 11:23:16,0.001s,PASSED
Statement - name_project = project_name + RN,Firefox 63.0,,2018-12-11 11:23:16,2018-12-11 11:23:16,0.001s,PASSED
openBrowser,Firefox 63.0,,2018-12-11 11:23:16,2018-12-11 11:23:20,4.572s,PASSED
maximizeWindow,Firefox 63.0,,2018-12-11 11:23:20,2018-12-11 11:23:24,3.582s,PASSED
navigateToUrl,Firefox 63.0,,2018-12-11 11:23:24,2018-12-11 11:23:31,7.150s,PASSED
"Statement - If (com.kms.katalon.core.webui.keyword.WebUiBuiltInKeywords.verifyElementVisible(com.kms.katalon.core.testobject.ObjectRepository.findTestObject(Object Repository/GETCRAFT/create_brief/Language_indo), OPTIONAL))",Firefox 63.0,,2018-12-11 11:23:31,2018-12-11 11:23:31,0.137s,PASSED
Statement - Else,Firefox 63.0,,2018-12-11 11:23:31,2018-12-11 11:23:34,3.076s,PASSED
click,Firefox 63.0,,2018-12-11 11:23:34,2018-12-11 11:23:35,0.659s,PASSED
delay,Firefox 63.0,,2018-12-11 11:23:35,2018-12-11 11:23:40,5.073s,PASSED
waitForElementClickable,Firefox 63.0,,2018-12-11 11:23:40,2018-12-11 11:23:40,0.050s,PASSED
scrollToElement,Firefox 63.0,,2018-12-11 11:23:40,2018-12-11 11:23:40,0.032s,PASSED
click,Firefox 63.0,,2018-12-11 11:23:40,2018-12-11 11:23:40,0.414s,PASSED
click,Firefox 63.0,,2018-12-11 11:23:40,2018-12-11 11:23:41,0.375s,PASSED
click,Firefox 63.0,,2018-12-11 11:23:41,2018-12-11 11:23:42,0.762s,PASSED
delay,Firefox 63.0,,2018-12-11 11:23:42,2018-12-11 11:23:44,2.075s,PASSED
setText,Firefox 63.0,,2018-12-11 11:23:44,2018-12-11 11:23:45,1.027s,PASSED
setText,Firefox 63.0,,2018-12-11 11:23:45,2018-12-11 11:23:45,0.255s,PASSED
setText,Firefox 63.0,,2018-12-11 11:23:45,2018-12-11 11:23:45,0.251s,PASSED
setText,Firefox 63.0,,2018-12-11 11:23:45,2018-12-11 11:23:45,0.246s,PASSED
scrollToElement,Firefox 63.0,,2018-12-11 11:23:45,2018-12-11 11:23:45,0.036s,PASSED
click,Firefox 63.0,,2018-12-11 11:23:45,2018-12-11 11:23:46,0.326s,PASSED
setText,Firefox 63.0,,2018-12-11 11:23:46,2018-12-11 11:23:46,0.546s,PASSED
click,Firefox 63.0,,2018-12-11 11:23:46,2018-12-11 11:23:47,0.343s,PASSED
click,Firefox 63.0,,2018-12-11 11:23:47,2018-12-11 11:23:47,0.310s,PASSED
scrollToElement,Firefox 63.0,,2018-12-11 11:23:47,2018-12-11 11:23:47,0.038s,PASSED
delay,Firefox 63.0,,2018-12-11 11:23:47,2018-12-11 11:23:50,3.070s,PASSED
click,Firefox 63.0,,2018-12-11 11:23:50,2018-12-11 11:23:50,0.389s,PASSED
scrollToElement,Firefox 63.0,,2018-12-11 11:23:50,2018-12-11 11:23:51,0.034s,PASSED
delay,Firefox 63.0,,2018-12-11 11:23:51,2018-12-11 11:23:54,3.001s,PASSED
click,Firefox 63.0,,2018-12-11 11:23:54,2018-12-11 11:23:54,0.336s,PASSED
setText,Firefox 63.0,,2018-12-11 11:23:54,2018-12-11 11:23:55,0.749s,PASSED
delay,Firefox 63.0,,2018-12-11 11:23:55,2018-12-11 11:23:58,3.073s,PASSED
setText,Firefox 63.0,,2018-12-11 11:23:58,2018-12-11 11:23:58,0.108s,PASSED
delay,Firefox 63.0,,2018-12-11 11:23:58,2018-12-11 11:24:03,5.071s,PASSED
click,Firefox 63.0,,2018-12-11 11:24:03,2018-12-11 11:24:03,0.361s,PASSED
waitForElementPresent,Firefox 63.0,,2018-12-11 11:24:03,2018-12-11 11:24:10,6.377s,PASSED
delay,Firefox 63.0,,2018-12-11 11:24:10,2018-12-11 11:24:13,3.074s,PASSED
verifyElementText,Firefox 63.0,,2018-12-11 11:24:13,2018-12-11 11:24:13,0.153s,PASSED
verifyElementPresent,Firefox 63.0,,2018-12-11 11:24:13,2018-12-11 11:24:13,0.101s,PASSED
delay,Firefox 63.0,,2018-12-11 11:24:13,2018-12-11 11:24:16,3.071s,PASSED
closeBrowser,Firefox 63.0,,2018-12-11 11:24:16,2018-12-11 11:24:17,0.998s,PASSED
,,,,,,
Test Cases/GETCRAFT/Brief_phase2_unselected_login,Firefox 63.0,,2018-12-11 11:24:17,2018-12-11 11:26:22,2m - 4.886s,PASSED
Statement - RN = <not implemented yet for class: org.codehaus.groovy.ast.expr.EmptyExpression>,Firefox 63.0,,2018-12-11 11:24:17,2018-12-11 11:24:17,0.000s,PASSED
Statement - RN = java.lang.Math.random() * 599,Firefox 63.0,,2018-12-11 11:24:17,2018-12-11 11:24:17,0.001s,PASSED
Statement - name_project = project_name + RN,Firefox 63.0,,2018-12-11 11:24:17,2018-12-11 11:24:17,0.001s,PASSED
openBrowser,Firefox 63.0,,2018-12-11 11:24:17,2018-12-11 11:24:21,3.412s,PASSED
maximizeWindow,Firefox 63.0,,2018-12-11 11:24:21,2018-12-11 11:24:24,3.613s,PASSED
navigateToUrl,Firefox 63.0,,2018-12-11 11:24:24,2018-12-11 11:24:34,10.224s,PASSED
"Statement - If (com.kms.katalon.core.webui.keyword.WebUiBuiltInKeywords.verifyElementVisible(com.kms.katalon.core.testobject.ObjectRepository.findTestObject(Object Repository/GETCRAFT/create_brief/Language_indo), OPTIONAL))",Firefox 63.0,,2018-12-11 11:24:34,2018-12-11 11:24:35,0.142s,PASSED
Statement - Else,Firefox 63.0,,2018-12-11 11:24:35,2018-12-11 11:24:38,3.001s,PASSED
click,Firefox 63.0,,2018-12-11 11:24:38,2018-12-11 11:24:38,0.819s,PASSED
delay,Firefox 63.0,,2018-12-11 11:24:38,2018-12-11 11:24:40,2.078s,PASSED
click,Firefox 63.0,,2018-12-11 11:24:40,2018-12-11 11:24:41,0.366s,PASSED
click,Firefox 63.0,,2018-12-11 11:24:41,2018-12-11 11:24:41,0.388s,PASSED
waitForElementClickable,Firefox 63.0,,2018-12-11 11:24:41,2018-12-11 11:24:41,0.001s,NOT_RUN
click,Firefox 63.0,,2018-12-11 11:24:41,2018-12-11 11:24:42,0.367s,PASSED
click,Firefox 63.0,,2018-12-11 11:24:42,2018-12-11 11:24:42,0.371s,PASSED
scrollToElement,Firefox 63.0,,2018-12-11 11:24:42,2018-12-11 11:24:42,0.028s,PASSED
waitForElementClickable,Firefox 63.0,,2018-12-11 11:24:42,2018-12-11 11:24:42,0.059s,PASSED
delay,Firefox 63.0,,2018-12-11 11:24:42,2018-12-11 11:24:44,2.070s,PASSED
click,Firefox 63.0,,2018-12-11 11:24:44,2018-12-11 11:24:44,0.370s,PASSED
click,Firefox 63.0,,2018-12-11 11:24:44,2018-12-11 11:24:45,0.307s,PASSED
click,Firefox 63.0,,2018-12-11 11:24:45,2018-12-11 11:24:45,0.358s,PASSED
waitForElementClickable,Firefox 63.0,,2018-12-11 11:24:45,2018-12-11 11:24:45,0.031s,PASSED
delay,Firefox 63.0,,2018-12-11 11:24:45,2018-12-11 11:24:47,2.076s,PASSED
click,Firefox 63.0,,2018-12-11 11:24:47,2018-12-11 11:24:48,0.462s,PASSED
click,Firefox 63.0,,2018-12-11 11:24:48,2018-12-11 11:24:48,0.320s,PASSED
click,Firefox 63.0,,2018-12-11 11:24:48,2018-12-11 11:24:48,0.362s,PASSED
setText,Firefox 63.0,,2018-12-11 11:24:48,2018-12-11 11:24:49,0.806s,PASSED
setText,Firefox 63.0,,2018-12-11 11:24:49,2018-12-11 11:24:50,0.350s,PASSED
setText,Firefox 63.0,,2018-12-11 11:24:50,2018-12-11 11:24:50,0.270s,PASSED
setText,Firefox 63.0,,2018-12-11 11:24:50,2018-12-11 11:24:50,0.262s,PASSED
scrollToElement,Firefox 63.0,,2018-12-11 11:24:50,2018-12-11 11:24:50,0.044s,PASSED
click,Firefox 63.0,,2018-12-11 11:24:50,2018-12-11 11:24:50,0.295s,PASSED
setText,Firefox 63.0,,2018-12-11 11:24:50,2018-12-11 11:24:51,0.374s,PASSED
click,Firefox 63.0,,2018-12-11 11:24:51,2018-12-11 11:24:51,0.331s,PASSED
click,Firefox 63.0,,2018-12-11 11:24:51,2018-12-11 11:24:51,0.355s,PASSED
scrollToElement,Firefox 63.0,,2018-12-11 11:24:51,2018-12-11 11:24:52,0.038s,PASSED
delay,Firefox 63.0,,2018-12-11 11:24:52,2018-12-11 11:24:55,3.070s,PASSED
click,Firefox 63.0,,2018-12-11 11:24:55,2018-12-11 11:24:55,0.322s,PASSED
scrollToElement,Firefox 63.0,,2018-12-11 11:24:55,2018-12-11 11:24:56,1.413s,PASSED
delay,Firefox 63.0,,2018-12-11 11:24:56,2018-12-11 11:24:59,3.079s,PASSED
click,Firefox 63.0,,2018-12-11 11:24:59,2018-12-11 11:25:00,0.351s,PASSED
setText,Firefox 63.0,,2018-12-11 11:25:00,2018-12-11 11:25:00,0.728s,PASSED
delay,Firefox 63.0,,2018-12-11 11:25:00,2018-12-11 11:25:04,3.069s,PASSED
setText,Firefox 63.0,,2018-12-11 11:25:04,2018-12-11 11:25:04,0.083s,PASSED
delay,Firefox 63.0,,2018-12-11 11:25:04,2018-12-11 11:25:09,5.074s,PASSED
click,Firefox 63.0,,2018-12-11 11:25:09,2018-12-11 11:25:09,0.304s,PASSED
waitForElementPresent,Firefox 63.0,,2018-12-11 11:25:09,2018-12-11 11:26:15,1m - 5.845s,PASSED
delay,Firefox 63.0,,2018-12-11 11:26:15,2018-12-11 11:26:18,3.082s,PASSED
verifyElementText,Firefox 63.0,,2018-12-11 11:26:18,2018-12-11 11:26:18,0.129s,PASSED
verifyElementPresent,Firefox 63.0,,2018-12-11 11:26:18,2018-12-11 11:26:18,0.100s,PASSED
delay,Firefox 63.0,,2018-12-11 11:26:18,2018-12-11 11:26:21,3.076s,PASSED
closeBrowser,Firefox 63.0,,2018-12-11 11:26:21,2018-12-11 11:26:22,0.637s,PASSED
,,,,,,
Test Cases/GETCRAFT/Brief_phase2_unselected_loginMultiple,Firefox 63.0,,2018-12-11 11:26:22,2018-12-11 11:28:25,2m - 2.817s,PASSED
Statement - RN = <not implemented yet for class: org.codehaus.groovy.ast.expr.EmptyExpression>,Firefox 63.0,,2018-12-11 11:26:22,2018-12-11 11:26:22,0.000s,PASSED
Statement - RN = java.lang.Math.random() * 599,Firefox 63.0,,2018-12-11 11:26:22,2018-12-11 11:26:22,0.000s,PASSED
Statement - name_project = project_name + RN,Firefox 63.0,,2018-12-11 11:26:22,2018-12-11 11:26:22,0.000s,PASSED
openBrowser,Firefox 63.0,,2018-12-11 11:26:22,2018-12-11 11:26:25,3.198s,PASSED
maximizeWindow,Firefox 63.0,,2018-12-11 11:26:25,2018-12-11 11:26:29,3.517s,PASSED
navigateToUrl,Firefox 63.0,,2018-12-11 11:26:29,2018-12-11 11:26:38,8.926s,PASSED
"Statement - If (com.kms.katalon.core.webui.keyword.WebUiBuiltInKeywords.verifyElementVisible(com.kms.katalon.core.testobject.ObjectRepository.findTestObject(Object Repository/GETCRAFT/create_brief/Language_indo), OPTIONAL))",Firefox 63.0,,2018-12-11 11:26:38,2018-12-11 11:26:38,0.211s,PASSED
Statement - Else,Firefox 63.0,,2018-12-11 11:26:38,2018-12-11 11:26:41,3.078s,PASSED
click,Firefox 63.0,,2018-12-11 11:26:41,2018-12-11 11:26:42,0.769s,PASSED
delay,Firefox 63.0,,2018-12-11 11:26:42,2018-12-11 11:26:44,2.078s,PASSED
click,Firefox 63.0,,2018-12-11 11:26:44,2018-12-11 11:26:44,0.376s,PASSED
click,Firefox 63.0,,2018-12-11 11:26:44,2018-12-11 11:26:45,0.384s,PASSED
waitForElementClickable,Firefox 63.0,,2018-12-11 11:26:45,2018-12-11 11:26:45,0.001s,NOT_RUN
click,Firefox 63.0,,2018-12-11 11:26:45,2018-12-11 11:26:45,0.338s,PASSED
click,Firefox 63.0,,2018-12-11 11:26:45,2018-12-11 11:26:45,0.374s,PASSED
scrollToElement,Firefox 63.0,,2018-12-11 11:26:45,2018-12-11 11:26:45,0.038s,PASSED
waitForElementClickable,Firefox 63.0,,2018-12-11 11:26:45,2018-12-11 11:26:45,0.048s,PASSED
delay,Firefox 63.0,,2018-12-11 11:26:45,2018-12-11 11:26:48,2.055s,PASSED
click,Firefox 63.0,,2018-12-11 11:26:48,2018-12-11 11:26:48,0.438s,PASSED
click,Firefox 63.0,,2018-12-11 11:26:48,2018-12-11 11:26:48,0.303s,PASSED
click,Firefox 63.0,,2018-12-11 11:26:48,2018-12-11 11:26:49,0.292s,PASSED
waitForElementClickable,Firefox 63.0,,2018-12-11 11:26:49,2018-12-11 11:26:49,0.029s,PASSED
delay,Firefox 63.0,,2018-12-11 11:26:49,2018-12-11 11:26:51,2.074s,PASSED
click,Firefox 63.0,,2018-12-11 11:26:51,2018-12-11 11:26:51,0.405s,PASSED
click,Firefox 63.0,,2018-12-11 11:26:51,2018-12-11 11:26:51,0.323s,PASSED
click,Firefox 63.0,,2018-12-11 11:26:51,2018-12-11 11:26:52,0.340s,PASSED
setText,Firefox 63.0,,2018-12-11 11:26:52,2018-12-11 11:26:52,0.653s,PASSED
setText,Firefox 63.0,,2018-12-11 11:26:52,2018-12-11 11:26:53,0.345s,PASSED
setText,Firefox 63.0,,2018-12-11 11:26:53,2018-12-11 11:26:53,0.214s,PASSED
setText,Firefox 63.0,,2018-12-11 11:26:53,2018-12-11 11:26:53,0.202s,PASSED
scrollToElement,Firefox 63.0,,2018-12-11 11:26:53,2018-12-11 11:26:53,0.045s,PASSED
click,Firefox 63.0,,2018-12-11 11:26:53,2018-12-11 11:26:53,0.307s,PASSED
setText,Firefox 63.0,,2018-12-11 11:26:53,2018-12-11 11:26:54,0.299s,PASSED
click,Firefox 63.0,,2018-12-11 11:26:54,2018-12-11 11:26:54,0.284s,PASSED
click,Firefox 63.0,,2018-12-11 11:26:54,2018-12-11 11:26:54,0.337s,PASSED
scrollToElement,Firefox 63.0,,2018-12-11 11:26:54,2018-12-11 11:26:54,0.026s,PASSED
delay,Firefox 63.0,,2018-12-11 11:26:54,2018-12-11 11:26:58,3.075s,PASSED
click,Firefox 63.0,,2018-12-11 11:26:58,2018-12-11 11:26:58,0.300s,PASSED
scrollToElement,Firefox 63.0,,2018-12-11 11:26:58,2018-12-11 11:27:00,1.722s,PASSED
delay,Firefox 63.0,,2018-12-11 11:27:00,2018-12-11 11:27:03,3.076s,PASSED
click,Firefox 63.0,,2018-12-11 11:27:03,2018-12-11 11:27:03,0.372s,PASSED
setText,Firefox 63.0,,2018-12-11 11:27:03,2018-12-11 11:27:04,0.549s,PASSED
delay,Firefox 63.0,,2018-12-11 11:27:04,2018-12-11 11:27:07,3.077s,PASSED
setText,Firefox 63.0,,2018-12-11 11:27:07,2018-12-11 11:27:07,0.119s,PASSED
delay,Firefox 63.0,,2018-12-11 11:27:07,2018-12-11 11:27:12,5.063s,PASSED
click,Firefox 63.0,,2018-12-11 11:27:12,2018-12-11 11:27:12,0.389s,PASSED
waitForElementPresent,Firefox 63.0,,2018-12-11 11:27:12,2018-12-11 11:27:13,1.191s,PASSED
click,Firefox 63.0,,2018-12-11 11:27:13,2018-12-11 11:27:14,0.317s,PASSED
click,Firefox 63.0,,2018-12-11 11:27:14,2018-12-11 11:27:14,0.300s,PASSED
waitForElementPresent,Firefox 63.0,,2018-12-11 11:27:14,2018-12-11 11:28:17,1m - 3.361s,PASSED
delay,Firefox 63.0,,2018-12-11 11:28:17,2018-12-11 11:28:20,3.075s,PASSED
verifyElementText,Firefox 63.0,,2018-12-11 11:28:20,2018-12-11 11:28:21,0.217s,PASSED
verifyElementPresent,Firefox 63.0,,2018-12-11 11:28:21,2018-12-11 11:28:21,0.111s,PASSED
delay,Firefox 63.0,,2018-12-11 11:28:21,2018-12-11 11:28:24,3.075s,PASSED
closeBrowser,Firefox 63.0,,2018-12-11 11:28:24,2018-12-11 11:28:25,0.879s,PASSED
,,,,,,
Test Cases/GETCRAFT/SendTo_phase2_selected_login,Firefox 63.0,,2018-12-11 11:28:25,2018-12-11 11:29:37,1m - 12.006s,PASSED
Statement - RN = <not implemented yet for class: org.codehaus.groovy.ast.expr.EmptyExpression>,Firefox 63.0,,2018-12-11 11:28:25,2018-12-11 11:28:25,0.000s,PASSED
Statement - RN = java.lang.Math.random() * 599,Firefox 63.0,,2018-12-11 11:28:25,2018-12-11 11:28:25,0.000s,PASSED
Statement - name_project = project_name + RN,Firefox 63.0,,2018-12-11 11:28:25,2018-12-11 11:28:25,0.001s,PASSED
openBrowser,Firefox 63.0,,2018-12-11 11:28:25,2018-12-11 11:28:29,4.155s,PASSED
maximizeWindow,Firefox 63.0,,2018-12-11 11:28:29,2018-12-11 11:28:33,3.607s,PASSED
navigateToUrl,Firefox 63.0,,2018-12-11 11:28:33,2018-12-11 11:28:45,12.014s,PASSED
"Statement - If (com.kms.katalon.core.webui.keyword.WebUiBuiltInKeywords.verifyElementVisible(com.kms.katalon.core.testobject.ObjectRepository.findTestObject(Object Repository/GETCRAFT/create_brief/Language_indo), OPTIONAL))",Firefox 63.0,,2018-12-11 11:28:45,2018-12-11 11:28:45,0.192s,PASSED
Statement - Else,Firefox 63.0,,2018-12-11 11:28:45,2018-12-11 11:28:48,3.073s,PASSED
click,Firefox 63.0,,2018-12-11 11:28:48,2018-12-11 11:28:49,0.666s,PASSED
delay,Firefox 63.0,,2018-12-11 11:28:49,2018-12-11 11:28:53,4.076s,PASSED
waitForElementClickable,Firefox 63.0,,2018-12-11 11:28:53,2018-12-11 11:28:53,0.055s,PASSED
scrollToElement,Firefox 63.0,,2018-12-11 11:28:53,2018-12-11 11:28:53,0.032s,PASSED
click,Firefox 63.0,,2018-12-11 11:28:53,2018-12-11 11:28:53,0.640s,PASSED
click,Firefox 63.0,,2018-12-11 11:28:53,2018-12-11 11:28:54,0.446s,PASSED
click,Firefox 63.0,,2018-12-11 11:28:54,2018-12-11 11:28:55,0.788s,PASSED
delay,Firefox 63.0,,2018-12-11 11:28:55,2018-12-11 11:28:57,2.080s,PASSED
setText,Firefox 63.0,,2018-12-11 11:28:57,2018-12-11 11:28:58,0.914s,PASSED
setText,Firefox 63.0,,2018-12-11 11:28:58,2018-12-11 11:28:58,0.325s,PASSED
setText,Firefox 63.0,,2018-12-11 11:28:58,2018-12-11 11:28:58,0.209s,PASSED
setText,Firefox 63.0,,2018-12-11 11:28:58,2018-12-11 11:28:58,0.194s,PASSED
scrollToElement,Firefox 63.0,,2018-12-11 11:28:58,2018-12-11 11:28:58,0.040s,PASSED
click,Firefox 63.0,,2018-12-11 11:28:58,2018-12-11 11:28:59,0.319s,PASSED
setText,Firefox 63.0,,2018-12-11 11:28:59,2018-12-11 11:28:59,0.294s,PASSED
click,Firefox 63.0,,2018-12-11 11:28:59,2018-12-11 11:28:59,0.308s,PASSED
click,Firefox 63.0,,2018-12-11 11:28:59,2018-12-11 11:29:00,0.313s,PASSED
scrollToElement,Firefox 63.0,,2018-12-11 11:29:00,2018-12-11 11:29:00,0.037s,PASSED
delay,Firefox 63.0,,2018-12-11 11:29:00,2018-12-11 11:29:03,3.075s,PASSED
click,Firefox 63.0,,2018-12-11 11:29:03,2018-12-11 11:29:03,0.392s,PASSED
delay,Firefox 63.0,,2018-12-11 11:29:03,2018-12-11 11:29:06,3.075s,PASSED
scrollToElement,Firefox 63.0,,2018-12-11 11:29:06,2018-12-11 11:29:06,0.035s,PASSED
delay,Firefox 63.0,,2018-12-11 11:29:06,2018-12-11 11:29:09,3.072s,PASSED
click,Firefox 63.0,,2018-12-11 11:29:09,2018-12-11 11:29:10,0.330s,PASSED
setText,Firefox 63.0,,2018-12-11 11:29:10,2018-12-11 11:29:10,0.707s,PASSED
setText,Firefox 63.0,,2018-12-11 11:29:10,2018-12-11 11:29:10,0.099s,PASSED
delay,Firefox 63.0,,2018-12-11 11:29:10,2018-12-11 11:29:16,5.073s,PASSED
click,Firefox 63.0,,2018-12-11 11:29:16,2018-12-11 11:29:16,0.391s,PASSED
waitForElementPresent,Firefox 63.0,,2018-12-11 11:29:16,2018-12-11 11:29:21,4.998s,PASSED
click,Firefox 63.0,,2018-12-11 11:29:21,2018-12-11 11:29:23,1.612s,PASSED
waitForElementVisible,Firefox 63.0,,2018-12-11 11:29:23,2018-12-11 11:29:23,0.775s,PASSED
delay,Firefox 63.0,,2018-12-11 11:29:23,2018-12-11 11:29:28,5.007s,PASSED
click,Firefox 63.0,,2018-12-11 11:29:28,2018-12-11 11:29:29,0.588s,PASSED
waitForElementPresent,Firefox 63.0,,2018-12-11 11:29:29,2018-12-11 11:29:30,1.395s,PASSED
delay,Firefox 63.0,,2018-12-11 11:29:30,2018-12-11 11:29:35,5.071s,PASSED
verifyElementText,Firefox 63.0,,2018-12-11 11:29:35,2018-12-11 11:29:36,0.182s,PASSED
verifyElementPresent,Firefox 63.0,,2018-12-11 11:29:36,2018-12-11 11:29:36,0.187s,PASSED
closeBrowser,Firefox 63.0,,2018-12-11 11:29:36,2018-12-11 11:29:37,0.953s,PASSED
,,,,,,
Test Cases/GETCRAFT/SendTo_phase2_unselected_login,Firefox 63.0,,2018-12-11 11:29:37,2018-12-11 11:30:47,1m - 10.276s,PASSED
Statement - RN = <not implemented yet for class: org.codehaus.groovy.ast.expr.EmptyExpression>,Firefox 63.0,,2018-12-11 11:29:37,2018-12-11 11:29:37,0.000s,PASSED
Statement - RN = java.lang.Math.random() * 599,Firefox 63.0,,2018-12-11 11:29:37,2018-12-11 11:29:37,0.001s,PASSED
Statement - name_project = project_name + RN,Firefox 63.0,,2018-12-11 11:29:37,2018-12-11 11:29:37,0.000s,PASSED
openBrowser,Firefox 63.0,,2018-12-11 11:29:37,2018-12-11 11:29:40,3.554s,PASSED
maximizeWindow,Firefox 63.0,,2018-12-11 11:29:40,2018-12-11 11:29:44,3.534s,PASSED
navigateToUrl,Firefox 63.0,,2018-12-11 11:29:44,2018-12-11 11:29:54,9.935s,PASSED
"Statement - If (com.kms.katalon.core.webui.keyword.WebUiBuiltInKeywords.verifyElementVisible(com.kms.katalon.core.testobject.ObjectRepository.findTestObject(Object Repository/GETCRAFT/create_brief/Language_indo), OPTIONAL))",Firefox 63.0,,2018-12-11 11:29:54,2018-12-11 11:29:54,0.148s,PASSED
Statement - Else,Firefox 63.0,,2018-12-11 11:29:54,2018-12-11 11:29:57,3.075s,PASSED
click,Firefox 63.0,,2018-12-11 11:29:57,2018-12-11 11:29:58,0.747s,PASSED
delay,Firefox 63.0,,2018-12-11 11:29:58,2018-12-11 11:30:00,2.074s,PASSED
click,Firefox 63.0,,2018-12-11 11:30:00,2018-12-11 11:30:00,0.401s,PASSED
click,Firefox 63.0,,2018-12-11 11:30:00,2018-12-11 11:30:01,0.397s,PASSED
waitForElementClickable,Firefox 63.0,,2018-12-11 11:30:01,2018-12-11 11:30:01,0.001s,NOT_RUN
click,Firefox 63.0,,2018-12-11 11:30:01,2018-12-11 11:30:01,0.333s,PASSED
click,Firefox 63.0,,2018-12-11 11:30:01,2018-12-11 11:30:02,0.380s,PASSED
scrollToElement,Firefox 63.0,,2018-12-11 11:30:02,2018-12-11 11:30:02,0.032s,PASSED
waitForElementClickable,Firefox 63.0,,2018-12-11 11:30:02,2018-12-11 11:30:02,0.052s,PASSED
delay,Firefox 63.0,,2018-12-11 11:30:02,2018-12-11 11:30:04,2.071s,PASSED
click,Firefox 63.0,,2018-12-11 11:30:04,2018-12-11 11:30:04,0.413s,PASSED
click,Firefox 63.0,,2018-12-11 11:30:04,2018-12-11 11:30:04,0.305s,PASSED
click,Firefox 63.0,,2018-12-11 11:30:04,2018-12-11 11:30:05,0.325s,PASSED
waitForElementClickable,Firefox 63.0,,2018-12-11 11:30:05,2018-12-11 11:30:05,0.030s,PASSED
delay,Firefox 63.0,,2018-12-11 11:30:05,2018-12-11 11:30:07,2.075s,PASSED
click,Firefox 63.0,,2018-12-11 11:30:07,2018-12-11 11:30:07,0.528s,PASSED
click,Firefox 63.0,,2018-12-11 11:30:07,2018-12-11 11:30:08,0.357s,PASSED
click,Firefox 63.0,,2018-12-11 11:30:08,2018-12-11 11:30:08,0.391s,PASSED
setText,Firefox 63.0,,2018-12-11 11:30:08,2018-12-11 11:30:09,0.822s,PASSED
setText,Firefox 63.0,,2018-12-11 11:30:09,2018-12-11 11:30:09,0.348s,PASSED
setText,Firefox 63.0,,2018-12-11 11:30:09,2018-12-11 11:30:09,0.214s,PASSED
setText,Firefox 63.0,,2018-12-11 11:30:09,2018-12-11 11:30:10,0.265s,PASSED
scrollToElement,Firefox 63.0,,2018-12-11 11:30:10,2018-12-11 11:30:10,0.056s,PASSED
click,Firefox 63.0,,2018-12-11 11:30:10,2018-12-11 11:30:10,0.307s,PASSED
setText,Firefox 63.0,,2018-12-11 11:30:10,2018-12-11 11:30:10,0.358s,PASSED
click,Firefox 63.0,,2018-12-11 11:30:10,2018-12-11 11:30:11,0.305s,PASSED
click,Firefox 63.0,,2018-12-11 11:30:11,2018-12-11 11:30:11,0.312s,PASSED
scrollToElement,Firefox 63.0,,2018-12-11 11:30:11,2018-12-11 11:30:11,0.032s,PASSED
delay,Firefox 63.0,,2018-12-11 11:30:11,2018-12-11 11:30:14,3.074s,PASSED
click,Firefox 63.0,,2018-12-11 11:30:14,2018-12-11 11:30:15,0.576s,PASSED
delay,Firefox 63.0,,2018-12-11 11:30:15,2018-12-11 11:30:18,3.073s,PASSED
scrollToElement,Firefox 63.0,,2018-12-11 11:30:18,2018-12-11 11:30:18,0.056s,PASSED
delay,Firefox 63.0,,2018-12-11 11:30:18,2018-12-11 11:30:21,3.003s,PASSED
click,Firefox 63.0,,2018-12-11 11:30:21,2018-12-11 11:30:21,0.320s,PASSED
setText,Firefox 63.0,,2018-12-11 11:30:21,2018-12-11 11:30:22,0.706s,PASSED
setText,Firefox 63.0,,2018-12-11 11:30:22,2018-12-11 11:30:22,0.114s,PASSED
delay,Firefox 63.0,,2018-12-11 11:30:22,2018-12-11 11:30:27,5.004s,PASSED
click,Firefox 63.0,,2018-12-11 11:30:27,2018-12-11 11:30:27,0.314s,PASSED
waitForElementPresent,Firefox 63.0,,2018-12-11 11:30:27,2018-12-11 11:30:32,4.707s,PASSED
click,Firefox 63.0,,2018-12-11 11:30:32,2018-12-11 11:30:33,0.958s,PASSED
waitForElementVisible,Firefox 63.0,,2018-12-11 11:30:33,2018-12-11 11:30:34,1.163s,PASSED
delay,Firefox 63.0,,2018-12-11 11:30:34,2018-12-11 11:30:39,5.003s,PASSED
click,Firefox 63.0,,2018-12-11 11:30:39,2018-12-11 11:30:40,0.548s,PASSED
waitForElementPresent,Firefox 63.0,,2018-12-11 11:30:40,2018-12-11 11:30:41,1.238s,PASSED
delay,Firefox 63.0,,2018-12-11 11:30:41,2018-12-11 11:30:46,5.076s,PASSED
verifyElementText,Firefox 63.0,,2018-12-11 11:30:46,2018-12-11 11:30:46,0.095s,PASSED
verifyElementPresent,Firefox 63.0,,2018-12-11 11:30:46,2018-12-11 11:30:46,0.125s,PASSED
closeBrowser,Firefox 63.0,,2018-12-11 11:30:46,2018-12-11 11:30:47,0.719s,PASSED
,,,,,,
Test Cases/GETCRAFT/SendTo_phase2_selected_loginMultiple,Firefox 63.0,,2018-12-11 11:30:47,2018-12-11 11:31:59,1m - 11.863s,PASSED
Statement - RN = <not implemented yet for class: org.codehaus.groovy.ast.expr.EmptyExpression>,Firefox 63.0,,2018-12-11 11:30:47,2018-12-11 11:30:47,0.001s,PASSED
Statement - RN = java.lang.Math.random() * 599,Firefox 63.0,,2018-12-11 11:30:47,2018-12-11 11:30:47,0.000s,PASSED
Statement - name_project = project_name + RN,Firefox 63.0,,2018-12-11 11:30:47,2018-12-11 11:30:47,0.000s,PASSED
openBrowser,Firefox 63.0,,2018-12-11 11:30:47,2018-12-11 11:30:50,3.042s,PASSED
maximizeWindow,Firefox 63.0,,2018-12-11 11:30:50,2018-12-11 11:30:54,3.597s,PASSED
navigateToUrl,Firefox 63.0,,2018-12-11 11:30:54,2018-12-11 11:31:06,11.983s,PASSED
"Statement - If (com.kms.katalon.core.webui.keyword.WebUiBuiltInKeywords.verifyElementVisible(com.kms.katalon.core.testobject.ObjectRepository.findTestObject(Object Repository/GETCRAFT/create_brief/Language_indo), OPTIONAL))",Firefox 63.0,,2018-12-11 11:31:06,2018-12-11 11:31:06,0.150s,PASSED
Statement - Else,Firefox 63.0,,2018-12-11 11:31:06,2018-12-11 11:31:09,3.077s,PASSED
click,Firefox 63.0,,2018-12-11 11:31:09,2018-12-11 11:31:10,0.553s,PASSED
delay,Firefox 63.0,,2018-12-11 11:31:10,2018-12-11 11:31:14,4.072s,PASSED
waitForElementClickable,Firefox 63.0,,2018-12-11 11:31:14,2018-12-11 11:31:14,0.035s,PASSED
scrollToElement,Firefox 63.0,,2018-12-11 11:31:14,2018-12-11 11:31:14,0.025s,PASSED
click,Firefox 63.0,,2018-12-11 11:31:14,2018-12-11 11:31:15,0.926s,PASSED
click,Firefox 63.0,,2018-12-11 11:31:15,2018-12-11 11:31:15,0.386s,PASSED
click,Firefox 63.0,,2018-12-11 11:31:15,2018-12-11 11:31:16,0.668s,PASSED
delay,Firefox 63.0,,2018-12-11 11:31:16,2018-12-11 11:31:18,2.058s,PASSED
setText,Firefox 63.0,,2018-12-11 11:31:18,2018-12-11 11:31:18,0.621s,PASSED
setText,Firefox 63.0,,2018-12-11 11:31:18,2018-12-11 11:31:19,0.247s,PASSED
setText,Firefox 63.0,,2018-12-11 11:31:19,2018-12-11 11:31:19,0.181s,PASSED
setText,Firefox 63.0,,2018-12-11 11:31:19,2018-12-11 11:31:19,0.137s,PASSED
scrollToElement,Firefox 63.0,,2018-12-11 11:31:19,2018-12-11 11:31:19,0.023s,PASSED
click,Firefox 63.0,,2018-12-11 11:31:19,2018-12-11 11:31:19,0.282s,PASSED
setText,Firefox 63.0,,2018-12-11 11:31:19,2018-12-11 11:31:19,0.225s,PASSED
click,Firefox 63.0,,2018-12-11 11:31:19,2018-12-11 11:31:20,0.300s,PASSED
click,Firefox 63.0,,2018-12-11 11:31:20,2018-12-11 11:31:20,0.284s,PASSED
scrollToElement,Firefox 63.0,,2018-12-11 11:31:20,2018-12-11 11:31:20,0.027s,PASSED
delay,Firefox 63.0,,2018-12-11 11:31:20,2018-12-11 11:31:23,3.002s,PASSED
click,Firefox 63.0,,2018-12-11 11:31:23,2018-12-11 11:31:23,0.371s,PASSED
delay,Firefox 63.0,,2018-12-11 11:31:23,2018-12-11 11:31:26,3.002s,PASSED
scrollToElement,Firefox 63.0,,2018-12-11 11:31:26,2018-12-11 11:31:26,0.032s,PASSED
delay,Firefox 63.0,,2018-12-11 11:31:26,2018-12-11 11:31:30,3.071s,PASSED
click,Firefox 63.0,,2018-12-11 11:31:30,2018-12-11 11:31:30,0.286s,PASSED
setText,Firefox 63.0,,2018-12-11 11:31:30,2018-12-11 11:31:30,0.488s,PASSED
delay,Firefox 63.0,,2018-12-11 11:31:30,2018-12-11 11:31:33,3.076s,PASSED
setText,Firefox 63.0,,2018-12-11 11:31:33,2018-12-11 11:31:33,0.063s,PASSED
delay,Firefox 63.0,,2018-12-11 11:31:33,2018-12-11 11:31:38,5.001s,PASSED
click,Firefox 63.0,,2018-12-11 11:31:38,2018-12-11 11:31:39,0.318s,PASSED
waitForElementPresent,Firefox 63.0,,2018-12-11 11:31:39,2018-12-11 11:31:40,1.182s,PASSED
click,Firefox 63.0,,2018-12-11 11:31:40,2018-12-11 11:31:40,0.275s,PASSED
click,Firefox 63.0,,2018-12-11 11:31:40,2018-12-11 11:31:41,0.336s,PASSED
waitForElementPresent,Firefox 63.0,,2018-12-11 11:31:41,2018-12-11 11:31:44,3.763s,PASSED
click,Firefox 63.0,,2018-12-11 11:31:44,2018-12-11 11:31:46,1.412s,PASSED
waitForElementVisible,Firefox 63.0,,2018-12-11 11:31:46,2018-12-11 11:31:46,0.353s,PASSED
delay,Firefox 63.0,,2018-12-11 11:31:46,2018-12-11 11:31:51,5.077s,PASSED
click,Firefox 63.0,,2018-12-11 11:31:51,2018-12-11 11:31:52,0.505s,PASSED
waitForElementPresent,Firefox 63.0,,2018-12-11 11:31:52,2018-12-11 11:31:53,1.171s,PASSED
delay,Firefox 63.0,,2018-12-11 11:31:53,2018-12-11 11:31:58,5.078s,PASSED
verifyElementText,Firefox 63.0,,2018-12-11 11:31:58,2018-12-11 11:31:58,0.094s,PASSED
verifyElementPresent,Firefox 63.0,,2018-12-11 11:31:58,2018-12-11 11:31:58,0.051s,PASSED
closeBrowser,Firefox 63.0,,2018-12-11 11:31:58,2018-12-11 11:31:59,0.771s,PASSED
,,,,,,
Test Cases/GETCRAFT/OpenProject_Draft,Firefox 63.0,,2018-12-11 11:31:59,2018-12-11 11:32:31,31.974s,PASSED
Statement - RN = <not implemented yet for class: org.codehaus.groovy.ast.expr.EmptyExpression>,Firefox 63.0,,2018-12-11 11:31:59,2018-12-11 11:31:59,0.000s,PASSED
Statement - RN = java.lang.Math.random() * 599,Firefox 63.0,,2018-12-11 11:31:59,2018-12-11 11:31:59,0.001s,PASSED
Statement - name_project = project_name + RN,Firefox 63.0,,2018-12-11 11:31:59,2018-12-11 11:31:59,0.001s,PASSED
openBrowser,Firefox 63.0,,2018-12-11 11:31:59,2018-12-11 11:32:02,3.161s,PASSED
maximizeWindow,Firefox 63.0,,2018-12-11 11:32:02,2018-12-11 11:32:06,3.579s,PASSED
navigateToUrl,Firefox 63.0,,2018-12-11 11:32:06,2018-12-11 11:32:15,9.473s,PASSED
"Statement - If (com.kms.katalon.core.webui.keyword.WebUiBuiltInKeywords.verifyElementVisible(com.kms.katalon.core.testobject.ObjectRepository.findTestObject(Object Repository/GETCRAFT/create_brief/Language_indo), OPTIONAL))",Firefox 63.0,,2018-12-11 11:32:15,2018-12-11 11:32:15,0.092s,PASSED
Statement - Else,Firefox 63.0,,2018-12-11 11:32:15,2018-12-11 11:32:18,3.072s,PASSED
setText,Firefox 63.0,,2018-12-11 11:32:18,2018-12-11 11:32:19,0.297s,PASSED
setText,Firefox 63.0,,2018-12-11 11:32:19,2018-12-11 11:32:19,0.071s,PASSED
click,Firefox 63.0,,2018-12-11 11:32:19,2018-12-11 11:32:19,0.443s,PASSED
verifyElementPresent,Firefox 63.0,,2018-12-11 11:32:19,2018-12-11 11:32:23,4.235s,PASSED
click,Firefox 63.0,,2018-12-11 11:32:24,2018-12-11 11:32:24,0.759s,PASSED
click,Firefox 63.0,,2018-12-11 11:32:24,2018-12-11 11:32:26,1.748s,PASSED
delay,Firefox 63.0,,2018-12-11 11:32:26,2018-12-11 11:32:30,4.067s,PASSED
waitForElementPresent,Firefox 63.0,,2018-12-11 11:32:30,2018-12-11 11:32:30,0.058s,PASSED
verifyElementText,Firefox 63.0,,2018-12-11 11:32:30,2018-12-11 11:32:30,0.024s,PASSED
closeBrowser,Firefox 63.0,,2018-12-11 11:32:30,2018-12-11 11:32:31,0.694s,PASSED
,,,,,,
Test Cases/GETCRAFT/OpenProject_InvitationSend,Firefox 63.0,,2018-12-11 11:32:31,2018-12-11 11:32:58,26.964s,PASSED
Statement - RN = <not implemented yet for class: org.codehaus.groovy.ast.expr.EmptyExpression>,Firefox 63.0,,2018-12-11 11:32:31,2018-12-11 11:32:31,0.000s,PASSED
Statement - RN = java.lang.Math.random() * 599,Firefox 63.0,,2018-12-11 11:32:31,2018-12-11 11:32:31,0.001s,PASSED
Statement - name_project = project_name + RN,Firefox 63.0,,2018-12-11 11:32:31,2018-12-11 11:32:31,0.000s,PASSED
openBrowser,Firefox 63.0,,2018-12-11 11:32:31,2018-12-11 11:32:33,2.375s,PASSED
maximizeWindow,Firefox 63.0,,2018-12-11 11:32:33,2018-12-11 11:32:37,3.539s,PASSED
navigateToUrl,Firefox 63.0,,2018-12-11 11:32:37,2018-12-11 11:32:43,6.156s,PASSED
"Statement - If (com.kms.katalon.core.webui.keyword.WebUiBuiltInKeywords.verifyElementVisible(com.kms.katalon.core.testobject.ObjectRepository.findTestObject(Object Repository/GETCRAFT/create_brief/Language_indo), OPTIONAL))",Firefox 63.0,,2018-12-11 11:32:43,2018-12-11 11:32:43,0.158s,PASSED
Statement - Else,Firefox 63.0,,2018-12-11 11:32:43,2018-12-11 11:32:46,3.074s,PASSED
setText,Firefox 63.0,,2018-12-11 11:32:46,2018-12-11 11:32:47,0.275s,PASSED
setText,Firefox 63.0,,2018-12-11 11:32:47,2018-12-11 11:32:47,0.056s,PASSED
click,Firefox 63.0,,2018-12-11 11:32:47,2018-12-11 11:32:47,0.297s,PASSED
verifyElementPresent,Firefox 63.0,,2018-12-11 11:32:47,2018-12-11 11:32:51,3.769s,PASSED
click,Firefox 63.0,,2018-12-11 11:32:51,2018-12-11 11:32:51,0.652s,PASSED
click,Firefox 63.0,,2018-12-11 11:32:51,2018-12-11 11:32:54,2.376s,PASSED
delay,Firefox 63.0,,2018-12-11 11:32:54,2018-12-11 11:32:58,4.007s,PASSED
waitForElementPresent,Firefox 63.0,,2018-12-11 11:32:58,2018-12-11 11:32:58,0.068s,PASSED
closeBrowser,Firefox 63.0,,2018-12-11 11:32:58,2018-12-11 11:32:58,0.001s,NOT_RUN
,,,,,,
Test Cases/GETCRAFT/Change_Workspace,Firefox 63.0,,2018-12-11 11:32:58,2018-12-11 11:33:37,39.123s,PASSED
Statement - RN = <not implemented yet for class: org.codehaus.groovy.ast.expr.EmptyExpression>,Firefox 63.0,,2018-12-11 11:32:58,2018-12-11 11:32:58,0.001s,PASSED
Statement - RN = java.lang.Math.random() * 599,Firefox 63.0,,2018-12-11 11:32:58,2018-12-11 11:32:58,0.000s,PASSED
Statement - name_project = project_name + RN,Firefox 63.0,,2018-12-11 11:32:58,2018-12-11 11:32:58,0.000s,PASSED
openBrowser,Firefox 63.0,,2018-12-11 11:32:58,2018-12-11 11:33:02,3.951s,PASSED
maximizeWindow,Firefox 63.0,,2018-12-11 11:33:02,2018-12-11 11:33:06,3.579s,PASSED
navigateToUrl,Firefox 63.0,,2018-12-11 11:33:06,2018-12-11 11:33:19,13.489s,PASSED
"Statement - If (com.kms.katalon.core.webui.keyword.WebUiBuiltInKeywords.verifyElementVisible(com.kms.katalon.core.testobject.ObjectRepository.findTestObject(Object Repository/GETCRAFT/create_brief/Language_indo), OPTIONAL))",Firefox 63.0,,2018-12-11 11:33:19,2018-12-11 11:33:19,0.093s,PASSED
Statement - Else,Firefox 63.0,,2018-12-11 11:33:19,2018-12-11 11:33:22,3.073s,PASSED
setText,Firefox 63.0,,2018-12-11 11:33:22,2018-12-11 11:33:23,0.262s,PASSED
setText,Firefox 63.0,,2018-12-11 11:33:23,2018-12-11 11:33:23,0.070s,PASSED
click,Firefox 63.0,,2018-12-11 11:33:23,2018-12-11 11:33:23,0.284s,PASSED
verifyElementPresent,Firefox 63.0,,2018-12-11 11:33:23,2018-12-11 11:33:27,4.349s,PASSED
click,Firefox 63.0,,2018-12-11 11:33:27,2018-12-11 11:33:28,0.427s,PASSED
Statement - text = com.kms.katalon.core.webui.keyword.WebUiBuiltInKeywords.getText(com.kms.katalon.core.testobject.ObjectRepository.findTestObject(GETCRAFT/general/select_workspace)),Firefox 63.0,,2018-12-11 11:33:28,2018-12-11 11:33:28,0.127s,PASSED
click,Firefox 63.0,,2018-12-11 11:33:28,2018-12-11 11:33:28,0.300s,PASSED
delay,Firefox 63.0,,2018-12-11 11:33:28,2018-12-11 11:33:33,5.090s,PASSED
verifyElementText,Firefox 63.0,,2018-12-11 11:33:33,2018-12-11 11:33:33,0.068s,PASSED
delay,Firefox 63.0,,2018-12-11 11:33:33,2018-12-11 11:33:36,3.074s,PASSED
closeBrowser,Firefox 63.0,,2018-12-11 11:33:36,2018-12-11 11:33:37,0.649s,PASSED
