Suite/Test/Step Name,Browser,Description,Start time,End time,Duration,Status
GetCraft All Module,Firefox 61.0,,2018-09-07 10:53:55,2018-09-07 10:57:37,3m - 41.939s,FAILED
,,,,,,
Test Cases/GETCRAFT/Register_Client,Firefox 61.0,,2018-09-07 10:53:56,2018-09-07 10:55:10,1m - 13.871s,PASSED
Statement - RN = <not implemented yet for class: org.codehaus.groovy.ast.expr.EmptyExpression>,Firefox 61.0,,2018-09-07 10:53:56,2018-09-07 10:53:56,0.002s,PASSED
Statement - RN = java.lang.Math.random() * 500,Firefox 61.0,,2018-09-07 10:53:56,2018-09-07 10:53:57,0.011s,PASSED
Statement - mailinator = email + RN,Firefox 61.0,,2018-09-07 10:53:57,2018-09-07 10:53:57,0.004s,PASSED
Statement - user = email + RN + domain,Firefox 61.0,,2018-09-07 10:53:57,2018-09-07 10:53:57,0.002s,PASSED
Statement - firstname = name + RN,Firefox 61.0,,2018-09-07 10:53:57,2018-09-07 10:53:57,0.000s,PASSED
Statement - lastname = name2 + RN,Firefox 61.0,,2018-09-07 10:53:57,2018-09-07 10:53:57,0.002s,PASSED
Statement - Phone = phonenumber + RN,Firefox 61.0,,2018-09-07 10:53:57,2018-09-07 10:53:57,0.001s,PASSED
Statement - println(user),Firefox 61.0,,2018-09-07 10:53:57,2018-09-07 10:53:57,0.024s,PASSED
openBrowser,Firefox 61.0,,2018-09-07 10:53:57,2018-09-07 10:54:03,5.982s,PASSED
maximizeWindow,Firefox 61.0,,2018-09-07 10:54:03,2018-09-07 10:54:06,3.591s,PASSED
navigateToUrl,Firefox 61.0,,2018-09-07 10:54:06,2018-09-07 10:54:11,5.332s,PASSED
waitForElementClickable,Firefox 61.0,,2018-09-07 10:54:11,2018-09-07 10:54:13,1.499s,PASSED
click,Firefox 61.0,,2018-09-07 10:54:13,2018-09-07 10:54:13,0.470s,PASSED
click,Firefox 61.0,,2018-09-07 10:54:13,2018-09-07 10:54:14,0.377s,PASSED
setText,Firefox 61.0,,2018-09-07 10:54:14,2018-09-07 10:54:14,0.312s,PASSED
setText,Firefox 61.0,,2018-09-07 10:54:14,2018-09-07 10:54:14,0.183s,PASSED
setText,Firefox 61.0,,2018-09-07 10:54:14,2018-09-07 10:54:14,0.163s,PASSED
setText,Firefox 61.0,,2018-09-07 10:54:14,2018-09-07 10:54:15,0.600s,PASSED
setText,Firefox 61.0,,2018-09-07 10:54:15,2018-09-07 10:54:15,0.418s,PASSED
click,Firefox 61.0,,2018-09-07 10:54:15,2018-09-07 10:54:16,0.347s,PASSED
click,Firefox 61.0,,2018-09-07 10:54:16,2018-09-07 10:54:16,0.372s,PASSED
click,Firefox 61.0,,2018-09-07 10:54:16,2018-09-07 10:54:17,0.404s,PASSED
setText,Firefox 61.0,,2018-09-07 10:54:17,2018-09-07 10:54:17,0.190s,PASSED
click,Firefox 61.0,,2018-09-07 10:54:17,2018-09-07 10:54:17,0.606s,PASSED
click,Firefox 61.0,,2018-09-07 10:54:17,2018-09-07 10:54:18,0.268s,PASSED
click,Firefox 61.0,,2018-09-07 10:54:18,2018-09-07 10:54:18,0.275s,PASSED
delay,Firefox 61.0,,2018-09-07 10:54:18,2018-09-07 10:54:23,5.017s,PASSED
click,Firefox 61.0,,2018-09-07 10:54:23,2018-09-07 10:54:24,0.552s,PASSED
waitForElementClickable,Firefox 61.0,,2018-09-07 10:54:24,2018-09-07 10:54:24,0.043s,PASSED
click,Firefox 61.0,,2018-09-07 10:54:24,2018-09-07 10:54:24,0.605s,PASSED
delay,Firefox 61.0,,2018-09-07 10:54:24,2018-09-07 10:54:30,6.063s,PASSED
click,Firefox 61.0,,2018-09-07 10:54:30,2018-09-07 10:54:31,0.345s,PASSED
delay,Firefox 61.0,,2018-09-07 10:54:31,2018-09-07 10:54:34,3.073s,PASSED
executeJavaScript,Firefox 61.0,,2018-09-07 10:54:34,2018-09-07 10:54:34,0.143s,PASSED
Statement - currentWindow = com.kms.katalon.core.webui.keyword.WebUiBuiltInKeywords.getWindowIndex(),Firefox 61.0,,2018-09-07 10:54:34,2018-09-07 10:54:34,0.028s,PASSED
switchToWindowIndex,Firefox 61.0,,2018-09-07 10:54:34,2018-09-07 10:54:34,0.031s,PASSED
navigateToUrl,Firefox 61.0,,2018-09-07 10:54:34,2018-09-07 10:54:35,1.017s,PASSED
setText,Firefox 61.0,,2018-09-07 10:54:35,2018-09-07 10:54:35,0.092s,PASSED
click,Firefox 61.0,,2018-09-07 10:54:35,2018-09-07 10:54:36,1.164s,PASSED
click,Firefox 61.0,,2018-09-07 10:54:36,2018-09-07 10:54:37,0.635s,PASSED
click,Firefox 61.0,,2018-09-07 10:54:37,2018-09-07 10:54:38,0.965s,PASSED
delay,Firefox 61.0,,2018-09-07 10:54:38,2018-09-07 10:54:47,9.079s,PASSED
closeBrowser,Firefox 61.0,,2018-09-07 10:54:47,2018-09-07 10:54:47,0.372s,PASSED
openBrowser,Firefox 61.0,,2018-09-07 10:54:47,2018-09-07 10:54:50,2.451s,PASSED
maximizeWindow,Firefox 61.0,,2018-09-07 10:54:50,2018-09-07 10:54:53,3.546s,PASSED
navigateToUrl,Firefox 61.0,,2018-09-07 10:54:53,2018-09-07 10:54:59,5.550s,PASSED
waitForElementClickable,Firefox 61.0,,2018-09-07 10:54:59,2018-09-07 10:55:01,2.348s,PASSED
setText,Firefox 61.0,,2018-09-07 10:55:01,2018-09-07 10:55:02,0.973s,PASSED
setText,Firefox 61.0,,2018-09-07 10:55:02,2018-09-07 10:55:02,0.279s,PASSED
click,Firefox 61.0,,2018-09-07 10:55:02,2018-09-07 10:55:03,0.280s,PASSED
verifyElementPresent,Firefox 61.0,,2018-09-07 10:55:03,2018-09-07 10:55:10,6.934s,PASSED
closeBrowser,Firefox 61.0,,2018-09-07 10:55:10,2018-09-07 10:55:10,0.002s,NOT_RUN
,,,,,,
Test Cases/GETCRAFT/Register_Creator,Firefox 61.0,,2018-09-07 10:55:10,2018-09-07 10:56:09,59.506s,PASSED
Statement - RN = <not implemented yet for class: org.codehaus.groovy.ast.expr.EmptyExpression>,Firefox 61.0,,2018-09-07 10:55:10,2018-09-07 10:55:10,0.001s,PASSED
Statement - RN = java.lang.Math.random() * 500,Firefox 61.0,,2018-09-07 10:55:10,2018-09-07 10:55:10,0.001s,PASSED
Statement - mailinator = email + RN,Firefox 61.0,,2018-09-07 10:55:10,2018-09-07 10:55:10,0.001s,PASSED
Statement - user = email + RN + domain,Firefox 61.0,,2018-09-07 10:55:10,2018-09-07 10:55:10,0.000s,PASSED
Statement - firstname = name + RN,Firefox 61.0,,2018-09-07 10:55:10,2018-09-07 10:55:10,0.001s,PASSED
Statement - lastname = name2 + RN,Firefox 61.0,,2018-09-07 10:55:10,2018-09-07 10:55:10,0.001s,PASSED
Statement - Phone = phonenumber + RN,Firefox 61.0,,2018-09-07 10:55:10,2018-09-07 10:55:10,0.001s,PASSED
Statement - println(user),Firefox 61.0,,2018-09-07 10:55:10,2018-09-07 10:55:10,0.000s,PASSED
openBrowser,Firefox 61.0,,2018-09-07 10:55:10,2018-09-07 10:55:12,2.216s,PASSED
maximizeWindow,Firefox 61.0,,2018-09-07 10:55:12,2018-09-07 10:55:16,3.617s,PASSED
navigateToUrl,Firefox 61.0,,2018-09-07 10:55:16,2018-09-07 10:55:22,6.086s,PASSED
click,Firefox 61.0,,2018-09-07 10:55:22,2018-09-07 10:55:22,0.403s,PASSED
click,Firefox 61.0,,2018-09-07 10:55:22,2018-09-07 10:55:23,0.447s,PASSED
setText,Firefox 61.0,,2018-09-07 10:55:23,2018-09-07 10:55:23,0.143s,PASSED
setText,Firefox 61.0,,2018-09-07 10:55:23,2018-09-07 10:55:23,0.118s,PASSED
setText,Firefox 61.0,,2018-09-07 10:55:23,2018-09-07 10:55:23,0.143s,PASSED
setText,Firefox 61.0,,2018-09-07 10:55:23,2018-09-07 10:55:23,0.211s,PASSED
setText,Firefox 61.0,,2018-09-07 10:55:23,2018-09-07 10:55:23,0.111s,PASSED
click,Firefox 61.0,,2018-09-07 10:55:23,2018-09-07 10:55:24,0.281s,PASSED
click,Firefox 61.0,,2018-09-07 10:55:24,2018-09-07 10:55:24,0.260s,PASSED
click,Firefox 61.0,,2018-09-07 10:55:24,2018-09-07 10:55:24,0.289s,PASSED
setText,Firefox 61.0,,2018-09-07 10:55:24,2018-09-07 10:55:24,0.178s,PASSED
click,Firefox 61.0,,2018-09-07 10:55:24,2018-09-07 10:55:25,0.258s,PASSED
click,Firefox 61.0,,2018-09-07 10:55:25,2018-09-07 10:55:25,0.328s,PASSED
click,Firefox 61.0,,2018-09-07 10:55:25,2018-09-07 10:55:25,0.277s,PASSED
delay,Firefox 61.0,,2018-09-07 10:55:25,2018-09-07 10:55:30,5.029s,PASSED
click,Firefox 61.0,,2018-09-07 10:55:30,2018-09-07 10:55:31,0.502s,PASSED
waitForElementClickable,Firefox 61.0,,2018-09-07 10:55:31,2018-09-07 10:55:31,0.032s,PASSED
click,Firefox 61.0,,2018-09-07 10:55:31,2018-09-07 10:55:31,0.480s,PASSED
delay,Firefox 61.0,,2018-09-07 10:55:31,2018-09-07 10:55:36,5.073s,PASSED
click,Firefox 61.0,,2018-09-07 10:55:36,2018-09-07 10:55:37,0.321s,PASSED
executeJavaScript,Firefox 61.0,,2018-09-07 10:55:37,2018-09-07 10:55:37,0.132s,PASSED
Statement - currentWindow = com.kms.katalon.core.webui.keyword.WebUiBuiltInKeywords.getWindowIndex(),Firefox 61.0,,2018-09-07 10:55:37,2018-09-07 10:55:37,0.017s,PASSED
switchToWindowIndex,Firefox 61.0,,2018-09-07 10:55:37,2018-09-07 10:55:37,0.022s,PASSED
navigateToUrl,Firefox 61.0,,2018-09-07 10:55:37,2018-09-07 10:55:38,1.247s,PASSED
setText,Firefox 61.0,,2018-09-07 10:55:38,2018-09-07 10:55:38,0.079s,PASSED
click,Firefox 61.0,,2018-09-07 10:55:38,2018-09-07 10:55:40,1.823s,PASSED
click,Firefox 61.0,,2018-09-07 10:55:40,2018-09-07 10:55:41,0.616s,PASSED
click,Firefox 61.0,,2018-09-07 10:55:41,2018-09-07 10:55:42,1.009s,PASSED
delay,Firefox 61.0,,2018-09-07 10:55:42,2018-09-07 10:55:50,8.071s,PASSED
closeBrowser,Firefox 61.0,,2018-09-07 10:55:50,2018-09-07 10:55:50,0.365s,PASSED
openBrowser,Firefox 61.0,,2018-09-07 10:55:50,2018-09-07 10:55:52,2.216s,PASSED
maximizeWindow,Firefox 61.0,,2018-09-07 10:55:52,2018-09-07 10:55:56,3.603s,PASSED
navigateToUrl,Firefox 61.0,,2018-09-07 10:55:56,2018-09-07 10:55:59,3.563s,PASSED
setText,Firefox 61.0,,2018-09-07 10:55:59,2018-09-07 10:56:02,2.658s,PASSED
setText,Firefox 61.0,,2018-09-07 10:56:02,2018-09-07 10:56:02,0.226s,PASSED
click,Firefox 61.0,,2018-09-07 10:56:02,2018-09-07 10:56:03,0.258s,PASSED
delay,Firefox 61.0,,2018-09-07 10:56:03,2018-09-07 10:56:08,5.069s,PASSED
verifyElementPresent,Firefox 61.0,,2018-09-07 10:56:08,2018-09-07 10:56:09,1.198s,PASSED
closeBrowser,Firefox 61.0,,2018-09-07 10:56:09,2018-09-07 10:56:09,0.235s,PASSED
,,,,,,
Test Cases/GETCRAFT/Create_BriefSelected(DRAFT),Firefox 61.0,,2018-09-07 10:56:09,2018-09-07 10:56:46,37.332s,FAILED
Statement - RN = <not implemented yet for class: org.codehaus.groovy.ast.expr.EmptyExpression>,Firefox 61.0,,2018-09-07 10:56:09,2018-09-07 10:56:09,0.002s,PASSED
Statement - RN = java.lang.Math.random() * 500,Firefox 61.0,,2018-09-07 10:56:09,2018-09-07 10:56:09,0.001s,PASSED
Statement - name_project = project_name + RN,Firefox 61.0,,2018-09-07 10:56:09,2018-09-07 10:56:09,0.000s,PASSED
openBrowser,Firefox 61.0,,2018-09-07 10:56:09,2018-09-07 10:56:11,2.006s,PASSED
maximizeWindow,Firefox 61.0,,2018-09-07 10:56:11,2018-09-07 10:56:15,3.582s,PASSED
navigateToUrl,Firefox 61.0,,2018-09-07 10:56:15,2018-09-07 10:56:22,7.337s,PASSED
"Statement - If (com.kms.katalon.core.webui.keyword.WebUiBuiltInKeywords.verifyElementVisible(com.kms.katalon.core.testobject.ObjectRepository.findTestObject(Object Repository/GETCRAFT/create_brief/Language_indo), OPTIONAL))",Firefox 61.0,,2018-09-07 10:56:22,2018-09-07 10:56:28,5.530s,PASSED
setText,Firefox 61.0,,2018-09-07 10:56:28,2018-09-07 10:56:28,0.491s,PASSED
setText,Firefox 61.0,,2018-09-07 10:56:28,2018-09-07 10:56:28,0.112s,PASSED
click,Firefox 61.0,,2018-09-07 10:56:28,2018-09-07 10:56:29,0.273s,PASSED
verifyElementPresent,Firefox 61.0,,2018-09-07 10:56:29,2018-09-07 10:56:33,4.704s,PASSED
click,Firefox 61.0,,2018-09-07 10:56:33,2018-09-07 10:56:34,0.346s,PASSED
click,Firefox 61.0,,2018-09-07 10:56:34,2018-09-07 10:56:34,0.599s,PASSED
delay,Firefox 61.0,,2018-09-07 10:56:34,2018-09-07 10:56:37,3.055s,PASSED
waitForElementClickable,Firefox 61.0,,2018-09-07 10:56:37,2018-09-07 10:56:37,0.150s,PASSED
scrollToElement,Firefox 61.0,,2018-09-07 10:56:37,2018-09-07 10:56:37,0.078s,PASSED
click,Firefox 61.0,,2018-09-07 10:56:37,2018-09-07 10:56:38,0.479s,PASSED
setText,Firefox 61.0,,2018-09-07 10:56:38,2018-09-07 10:56:38,0.001s,NOT_RUN
click,Firefox 61.0,,2018-09-07 10:56:38,2018-09-07 10:56:38,0.001s,NOT_RUN
waitForElementPresent,Firefox 61.0,,2018-09-07 10:56:38,2018-09-07 10:56:38,0.001s,NOT_RUN
waitForElementNotClickable,Firefox 61.0,,2018-09-07 10:56:38,2018-09-07 10:56:38,0.001s,NOT_RUN
click,Firefox 61.0,,2018-09-07 10:56:38,2018-09-07 10:56:38,0.340s,PASSED
click,Firefox 61.0,,2018-09-07 10:56:38,2018-09-07 10:56:39,0.613s,PASSED
setText,Firefox 61.0,,2018-09-07 10:56:39,2018-09-07 10:56:39,0.440s,PASSED
setText,Firefox 61.0,,2018-09-07 10:56:39,2018-09-07 10:56:40,0.193s,PASSED
setText,Firefox 61.0,,2018-09-07 10:56:40,2018-09-07 10:56:40,0.431s,PASSED
setText,Firefox 61.0,,2018-09-07 10:56:40,2018-09-07 10:56:40,0.284s,PASSED
scrollToElement,Firefox 61.0,,2018-09-07 10:56:40,2018-09-07 10:56:40,0.064s,PASSED
uploadFiles.uploadFile,Firefox 61.0,,2018-09-07 10:56:40,2018-09-07 10:56:40,0.001s,NOT_RUN
Statement - java.lang.Thread.sleep(2000),Firefox 61.0,,2018-09-07 10:56:40,2018-09-07 10:56:40,0.000s,NOT_RUN
waitForElementClickable,Firefox 61.0,,2018-09-07 10:56:40,2018-09-07 10:56:40,0.001s,NOT_RUN
click,Firefox 61.0,,2018-09-07 10:56:40,2018-09-07 10:56:40,0.000s,NOT_RUN
delay,Firefox 61.0,,2018-09-07 10:56:40,2018-09-07 10:56:40,0.001s,NOT_RUN
click,Firefox 61.0,,2018-09-07 10:56:40,2018-09-07 10:56:41,0.325s,PASSED
setText,Firefox 61.0,,2018-09-07 10:56:41,2018-09-07 10:56:41,0.311s,PASSED
click,Firefox 61.0,,2018-09-07 10:56:41,2018-09-07 10:56:41,0.279s,PASSED
click,Firefox 61.0,,2018-09-07 10:56:41,2018-09-07 10:56:42,0.289s,PASSED
scrollToElement,Firefox 61.0,,2018-09-07 10:56:42,2018-09-07 10:56:42,0.025s,PASSED
delay,Firefox 61.0,,2018-09-07 10:56:42,2018-09-07 10:56:45,3.072s,PASSED
click,Firefox 61.0,,2018-09-07 10:56:45,2018-09-07 10:56:45,0.343s,PASSED
waitForElementPresent,Firefox 61.0,,2018-09-07 10:56:45,2018-09-07 10:56:46,1.224s,PASSED
verifyElementText,Firefox 61.0,,2018-09-07 10:56:46,2018-09-07 10:56:46,0.162s,FAILED
,,,,,,
Test Cases/GETCRAFT/Create_BriefSelected(SENDtoCREATOR),Firefox 61.0,,2018-09-07 10:56:46,2018-09-07 10:57:37,50.576s,PASSED
Statement - RN = <not implemented yet for class: org.codehaus.groovy.ast.expr.EmptyExpression>,Firefox 61.0,,2018-09-07 10:56:47,2018-09-07 10:56:47,0.001s,PASSED
Statement - RN = java.lang.Math.random() * 500,Firefox 61.0,,2018-09-07 10:56:47,2018-09-07 10:56:47,0.001s,PASSED
Statement - name_project = project_name + RN,Firefox 61.0,,2018-09-07 10:56:47,2018-09-07 10:56:47,0.001s,PASSED
openBrowser,Firefox 61.0,,2018-09-07 10:56:47,2018-09-07 10:56:49,2.403s,PASSED
maximizeWindow,Firefox 61.0,,2018-09-07 10:56:49,2018-09-07 10:56:53,3.592s,PASSED
navigateToUrl,Firefox 61.0,,2018-09-07 10:56:53,2018-09-07 10:57:04,11.814s,PASSED
"Statement - If (com.kms.katalon.core.webui.keyword.WebUiBuiltInKeywords.verifyElementVisible(com.kms.katalon.core.testobject.ObjectRepository.findTestObject(Object Repository/GETCRAFT/create_brief/Language_indo), OPTIONAL))",Firefox 61.0,,2018-09-07 10:57:04,2018-09-07 10:57:10,5.423s,PASSED
setText,Firefox 61.0,,2018-09-07 10:57:10,2018-09-07 10:57:10,0.355s,PASSED
setText,Firefox 61.0,,2018-09-07 10:57:10,2018-09-07 10:57:10,0.135s,PASSED
click,Firefox 61.0,,2018-09-07 10:57:10,2018-09-07 10:57:11,0.299s,PASSED
verifyElementPresent,Firefox 61.0,,2018-09-07 10:57:11,2018-09-07 10:57:15,4.125s,PASSED
click,Firefox 61.0,,2018-09-07 10:57:15,2018-09-07 10:57:15,0.302s,PASSED
click,Firefox 61.0,,2018-09-07 10:57:15,2018-09-07 10:57:16,1.041s,PASSED
delay,Firefox 61.0,,2018-09-07 10:57:16,2018-09-07 10:57:19,3.076s,PASSED
waitForElementClickable,Firefox 61.0,,2018-09-07 10:57:19,2018-09-07 10:57:19,0.038s,PASSED
scrollToElement,Firefox 61.0,,2018-09-07 10:57:19,2018-09-07 10:57:19,0.033s,PASSED
click,Firefox 61.0,,2018-09-07 10:57:19,2018-09-07 10:57:20,0.454s,PASSED
click,Firefox 61.0,,2018-09-07 10:57:20,2018-09-07 10:57:20,0.389s,PASSED
click,Firefox 61.0,,2018-09-07 10:57:20,2018-09-07 10:57:21,0.883s,PASSED
setText,Firefox 61.0,,2018-09-07 10:57:21,2018-09-07 10:57:21,0.424s,PASSED
setText,Firefox 61.0,,2018-09-07 10:57:21,2018-09-07 10:57:21,0.160s,PASSED
setText,Firefox 61.0,,2018-09-07 10:57:21,2018-09-07 10:57:22,0.362s,PASSED
setText,Firefox 61.0,,2018-09-07 10:57:22,2018-09-07 10:57:22,0.373s,PASSED
scrollToElement,Firefox 61.0,,2018-09-07 10:57:22,2018-09-07 10:57:22,0.026s,PASSED
uploadFiles.uploadFile,Firefox 61.0,,2018-09-07 10:57:22,2018-09-07 10:57:22,0.001s,NOT_RUN
Statement - java.lang.Thread.sleep(2000),Firefox 61.0,,2018-09-07 10:57:22,2018-09-07 10:57:22,0.000s,NOT_RUN
waitForElementClickable,Firefox 61.0,,2018-09-07 10:57:22,2018-09-07 10:57:22,0.000s,NOT_RUN
click,Firefox 61.0,,2018-09-07 10:57:22,2018-09-07 10:57:22,0.000s,NOT_RUN
delay,Firefox 61.0,,2018-09-07 10:57:22,2018-09-07 10:57:22,0.001s,NOT_RUN
click,Firefox 61.0,,2018-09-07 10:57:22,2018-09-07 10:57:23,0.309s,PASSED
setText,Firefox 61.0,,2018-09-07 10:57:23,2018-09-07 10:57:23,0.212s,PASSED
click,Firefox 61.0,,2018-09-07 10:57:23,2018-09-07 10:57:23,0.262s,PASSED
click,Firefox 61.0,,2018-09-07 10:57:23,2018-09-07 10:57:23,0.277s,PASSED
scrollToElement,Firefox 61.0,,2018-09-07 10:57:23,2018-09-07 10:57:23,0.024s,PASSED
delay,Firefox 61.0,,2018-09-07 10:57:23,2018-09-07 10:57:26,3.002s,PASSED
click,Firefox 61.0,,2018-09-07 10:57:26,2018-09-07 10:57:27,0.296s,PASSED
click,Firefox 61.0,,2018-09-07 10:57:27,2018-09-07 10:57:27,0.299s,PASSED
waitForElementClickable,Firefox 61.0,,2018-09-07 10:57:27,2018-09-07 10:57:29,1.775s,PASSED
click,Firefox 61.0,,2018-09-07 10:57:29,2018-09-07 10:57:29,0.321s,PASSED
delay,Firefox 61.0,,2018-09-07 10:57:29,2018-09-07 10:57:32,3.001s,PASSED
click,Firefox 61.0,,2018-09-07 10:57:32,2018-09-07 10:57:32,0.346s,PASSED
waitForElementPresent,Firefox 61.0,,2018-09-07 10:57:32,2018-09-07 10:57:34,1.177s,PASSED
verifyElementText,Firefox 61.0,,2018-09-07 10:57:34,2018-09-07 10:57:34,0.039s,PASSED
verifyElementPresent,Firefox 61.0,,2018-09-07 10:57:34,2018-09-07 10:57:34,0.024s,PASSED
delay,Firefox 61.0,,2018-09-07 10:57:34,2018-09-07 10:57:37,3.079s,PASSED
closeBrowser,Firefox 61.0,,2018-09-07 10:57:37,2018-09-07 10:57:37,0.259s,PASSED
