Suite/Test/Step Name,Browser,Description,Start time,End time,Duration,Status
GetCraft All Module,Firefox 61.0,,2018-09-05 14:23:30,2018-09-05 14:30:44,7m - 14.655s,FAILED
,,,,,,
Test Cases/GETCRAFT/Register_Client,Firefox 61.0,,2018-09-05 14:23:30,2018-09-05 14:24:49,1m - 19.353s,FAILED
Statement - RN = <not implemented yet for class: org.codehaus.groovy.ast.expr.EmptyExpression>,Firefox 61.0,,2018-09-05 14:23:31,2018-09-05 14:23:31,0.002s,PASSED
Statement - RN = java.lang.Math.random() * 500,Firefox 61.0,,2018-09-05 14:23:31,2018-09-05 14:23:31,0.014s,PASSED
Statement - mailinator = email + RN,Firefox 61.0,,2018-09-05 14:23:31,2018-09-05 14:23:31,0.002s,PASSED
Statement - user = email + RN + domain,Firefox 61.0,,2018-09-05 14:23:31,2018-09-05 14:23:31,0.001s,PASSED
Statement - firstname = name + RN,Firefox 61.0,,2018-09-05 14:23:31,2018-09-05 14:23:31,0.001s,PASSED
Statement - lastname = name2 + RN,Firefox 61.0,,2018-09-05 14:23:31,2018-09-05 14:23:31,0.001s,PASSED
Statement - Phone = phonenumber + RN,Firefox 61.0,,2018-09-05 14:23:31,2018-09-05 14:23:31,0.001s,PASSED
Statement - println(user),Firefox 61.0,,2018-09-05 14:23:31,2018-09-05 14:23:31,0.007s,PASSED
openBrowser,Firefox 61.0,,2018-09-05 14:23:31,2018-09-05 14:23:36,5.302s,PASSED
maximizeWindow,Firefox 61.0,,2018-09-05 14:23:36,2018-09-05 14:23:40,3.569s,PASSED
navigateToUrl,Firefox 61.0,,2018-09-05 14:23:40,2018-09-05 14:23:46,6.090s,PASSED
waitForElementClickable,Firefox 61.0,,2018-09-05 14:23:46,2018-09-05 14:23:46,0.673s,PASSED
click,Firefox 61.0,,2018-09-05 14:23:46,2018-09-05 14:23:47,0.393s,PASSED
click,Firefox 61.0,,2018-09-05 14:23:47,2018-09-05 14:23:47,0.450s,PASSED
setText,Firefox 61.0,,2018-09-05 14:23:47,2018-09-05 14:23:48,0.408s,PASSED
setText,Firefox 61.0,,2018-09-05 14:23:48,2018-09-05 14:23:48,0.306s,PASSED
setText,Firefox 61.0,,2018-09-05 14:23:48,2018-09-05 14:23:48,0.153s,PASSED
setText,Firefox 61.0,,2018-09-05 14:23:48,2018-09-05 14:23:49,1.003s,PASSED
setText,Firefox 61.0,,2018-09-05 14:23:49,2018-09-05 14:23:49,0.193s,PASSED
click,Firefox 61.0,,2018-09-05 14:23:49,2018-09-05 14:23:50,0.280s,PASSED
click,Firefox 61.0,,2018-09-05 14:23:50,2018-09-05 14:23:50,0.300s,PASSED
click,Firefox 61.0,,2018-09-05 14:23:50,2018-09-05 14:23:50,0.425s,PASSED
setText,Firefox 61.0,,2018-09-05 14:23:50,2018-09-05 14:23:51,0.237s,PASSED
click,Firefox 61.0,,2018-09-05 14:23:51,2018-09-05 14:23:51,0.275s,PASSED
click,Firefox 61.0,,2018-09-05 14:23:51,2018-09-05 14:23:52,0.643s,PASSED
click,Firefox 61.0,,2018-09-05 14:23:52,2018-09-05 14:23:52,0.359s,PASSED
delay,Firefox 61.0,,2018-09-05 14:23:52,2018-09-05 14:23:57,5.092s,PASSED
click,Firefox 61.0,,2018-09-05 14:23:57,2018-09-05 14:23:58,0.579s,PASSED
waitForElementClickable,Firefox 61.0,,2018-09-05 14:23:58,2018-09-05 14:23:58,0.036s,PASSED
click,Firefox 61.0,,2018-09-05 14:23:58,2018-09-05 14:23:58,0.593s,PASSED
delay,Firefox 61.0,,2018-09-05 14:23:58,2018-09-05 14:24:04,6.075s,PASSED
click,Firefox 61.0,,2018-09-05 14:24:04,2018-09-05 14:24:05,0.304s,PASSED
delay,Firefox 61.0,,2018-09-05 14:24:05,2018-09-05 14:24:08,3.074s,PASSED
executeJavaScript,Firefox 61.0,,2018-09-05 14:24:08,2018-09-05 14:24:08,0.153s,PASSED
Statement - currentWindow = com.kms.katalon.core.webui.keyword.WebUiBuiltInKeywords.getWindowIndex(),Firefox 61.0,,2018-09-05 14:24:08,2018-09-05 14:24:08,0.025s,PASSED
switchToWindowIndex,Firefox 61.0,,2018-09-05 14:24:08,2018-09-05 14:24:08,0.025s,PASSED
navigateToUrl,Firefox 61.0,,2018-09-05 14:24:08,2018-09-05 14:24:12,4.348s,PASSED
setText,Firefox 61.0,,2018-09-05 14:24:12,2018-09-05 14:24:12,0.097s,PASSED
click,Firefox 61.0,,2018-09-05 14:24:12,2018-09-05 14:24:15,2.565s,PASSED
click,Firefox 61.0,,2018-09-05 14:24:15,2018-09-05 14:24:15,0.045s,PASSED
click,Firefox 61.0,,2018-09-05 14:24:15,2018-09-05 14:24:49,34.600s,FAILED
,,,,,,
Test Cases/GETCRAFT/Register_Creator,Firefox 61.0,,2018-09-05 14:24:49,2018-09-05 14:28:12,3m - 22.540s,FAILED
Statement - RN = <not implemented yet for class: org.codehaus.groovy.ast.expr.EmptyExpression>,Firefox 61.0,,2018-09-05 14:24:50,2018-09-05 14:24:50,0.001s,PASSED
Statement - RN = java.lang.Math.random() * 500,Firefox 61.0,,2018-09-05 14:24:50,2018-09-05 14:24:50,0.002s,PASSED
Statement - mailinator = email + RN,Firefox 61.0,,2018-09-05 14:24:50,2018-09-05 14:24:50,0.001s,PASSED
Statement - user = email + RN + domain,Firefox 61.0,,2018-09-05 14:24:50,2018-09-05 14:24:50,0.001s,PASSED
Statement - firstname = name + RN,Firefox 61.0,,2018-09-05 14:24:50,2018-09-05 14:24:50,0.000s,PASSED
Statement - lastname = name2 + RN,Firefox 61.0,,2018-09-05 14:24:50,2018-09-05 14:24:50,0.000s,PASSED
Statement - Phone = phonenumber + RN,Firefox 61.0,,2018-09-05 14:24:50,2018-09-05 14:24:50,0.001s,PASSED
Statement - println(user),Firefox 61.0,,2018-09-05 14:24:50,2018-09-05 14:24:50,0.001s,PASSED
openBrowser,Firefox 61.0,,2018-09-05 14:24:50,2018-09-05 14:24:52,2.579s,PASSED
maximizeWindow,Firefox 61.0,,2018-09-05 14:24:52,2018-09-05 14:24:56,3.584s,PASSED
navigateToUrl,Firefox 61.0,,2018-09-05 14:24:56,2018-09-05 14:25:04,8.246s,PASSED
click,Firefox 61.0,,2018-09-05 14:25:04,2018-09-05 14:25:05,0.360s,PASSED
click,Firefox 61.0,,2018-09-05 14:25:05,2018-09-05 14:25:05,0.323s,PASSED
setText,Firefox 61.0,,2018-09-05 14:25:05,2018-09-05 14:25:05,0.162s,PASSED
setText,Firefox 61.0,,2018-09-05 14:25:05,2018-09-05 14:25:05,0.428s,PASSED
setText,Firefox 61.0,,2018-09-05 14:25:05,2018-09-05 14:25:06,0.139s,PASSED
setText,Firefox 61.0,,2018-09-05 14:25:06,2018-09-05 14:25:06,0.205s,PASSED
setText,Firefox 61.0,,2018-09-05 14:25:06,2018-09-05 14:25:06,0.150s,PASSED
click,Firefox 61.0,,2018-09-05 14:25:06,2018-09-05 14:25:06,0.293s,PASSED
click,Firefox 61.0,,2018-09-05 14:25:06,2018-09-05 14:25:07,0.328s,PASSED
click,Firefox 61.0,,2018-09-05 14:25:07,2018-09-05 14:25:07,0.255s,PASSED
setText,Firefox 61.0,,2018-09-05 14:25:07,2018-09-05 14:25:07,0.176s,PASSED
click,Firefox 61.0,,2018-09-05 14:25:07,2018-09-05 14:25:07,0.274s,PASSED
click,Firefox 61.0,,2018-09-05 14:25:07,2018-09-05 14:25:07,0.258s,PASSED
click,Firefox 61.0,,2018-09-05 14:25:07,2018-09-05 14:25:08,0.267s,PASSED
delay,Firefox 61.0,,2018-09-05 14:25:08,2018-09-05 14:25:13,5.035s,PASSED
click,Firefox 61.0,,2018-09-05 14:25:13,2018-09-05 14:25:13,0.569s,PASSED
waitForElementClickable,Firefox 61.0,,2018-09-05 14:25:13,2018-09-05 14:25:13,0.030s,PASSED
click,Firefox 61.0,,2018-09-05 14:25:13,2018-09-05 14:25:14,0.533s,PASSED
delay,Firefox 61.0,,2018-09-05 14:25:14,2018-09-05 14:25:19,5.071s,PASSED
click,Firefox 61.0,,2018-09-05 14:25:19,2018-09-05 14:25:19,0.317s,PASSED
executeJavaScript,Firefox 61.0,,2018-09-05 14:25:19,2018-09-05 14:25:19,0.147s,PASSED
Statement - currentWindow = com.kms.katalon.core.webui.keyword.WebUiBuiltInKeywords.getWindowIndex(),Firefox 61.0,,2018-09-05 14:25:19,2018-09-05 14:25:20,0.031s,PASSED
switchToWindowIndex,Firefox 61.0,,2018-09-05 14:25:20,2018-09-05 14:25:20,0.020s,PASSED
navigateToUrl,Firefox 61.0,,2018-09-05 14:25:20,2018-09-05 14:25:23,3.433s,PASSED
setText,Firefox 61.0,,2018-09-05 14:25:23,2018-09-05 14:25:23,0.058s,PASSED
click,Firefox 61.0,,2018-09-05 14:25:23,2018-09-05 14:25:25,1.777s,PASSED
click,Firefox 61.0,,2018-09-05 14:25:25,2018-09-05 14:25:25,0.041s,PASSED
click,Firefox 61.0,,2018-09-05 14:25:25,2018-09-05 14:25:26,0.895s,PASSED
delay,Firefox 61.0,,2018-09-05 14:25:26,2018-09-05 14:25:34,8.075s,PASSED
closeBrowser,Firefox 61.0,,2018-09-05 14:25:34,2018-09-05 14:25:34,0.322s,PASSED
openBrowser,Firefox 61.0,,2018-09-05 14:25:34,2018-09-05 14:25:36,2.112s,PASSED
maximizeWindow,Firefox 61.0,,2018-09-05 14:25:36,2018-09-05 14:25:40,3.615s,PASSED
navigateToUrl,Firefox 61.0,,2018-09-05 14:25:40,2018-09-05 14:25:49,9.095s,PASSED
setText,Firefox 61.0,,2018-09-05 14:25:49,2018-09-05 14:25:49,0.186s,PASSED
setText,Firefox 61.0,,2018-09-05 14:25:49,2018-09-05 14:25:49,0.244s,PASSED
click,Firefox 61.0,,2018-09-05 14:25:49,2018-09-05 14:25:50,0.486s,PASSED
delay,Firefox 61.0,,2018-09-05 14:25:50,2018-09-05 14:25:55,5.069s,PASSED
verifyElementPresent,Firefox 61.0,,2018-09-05 14:25:55,2018-09-05 14:28:12,2m - 17.090s,FAILED
,,,,,,
Test Cases/GETCRAFT/Create_BriefSelected(DRAFT),Firefox 61.0,,2018-09-05 14:28:12,2018-09-05 14:29:27,1m - 15.186s,FAILED
Statement - RN = <not implemented yet for class: org.codehaus.groovy.ast.expr.EmptyExpression>,Firefox 61.0,,2018-09-05 14:28:12,2018-09-05 14:28:12,0.000s,PASSED
Statement - RN = java.lang.Math.random() * 500,Firefox 61.0,,2018-09-05 14:28:12,2018-09-05 14:28:12,0.001s,PASSED
Statement - name_project = project_name + RN,Firefox 61.0,,2018-09-05 14:28:12,2018-09-05 14:28:12,0.001s,PASSED
callTestCase,Firefox 61.0,,2018-09-05 14:28:12,2018-09-05 14:29:27,1m - 14.978s,FAILED
,,,,,,
Test Cases/GETCRAFT/Create_BriefSelected(SENDtoCREATOR),Firefox 61.0,,2018-09-05 14:29:27,2018-09-05 14:30:44,1m - 16.629s,FAILED
Statement - RN = <not implemented yet for class: org.codehaus.groovy.ast.expr.EmptyExpression>,Firefox 61.0,,2018-09-05 14:29:27,2018-09-05 14:29:27,0.000s,PASSED
Statement - RN = java.lang.Math.random() * 500,Firefox 61.0,,2018-09-05 14:29:27,2018-09-05 14:29:27,0.000s,PASSED
Statement - name_project = project_name + RN,Firefox 61.0,,2018-09-05 14:29:27,2018-09-05 14:29:27,0.001s,PASSED
callTestCase,Firefox 61.0,,2018-09-05 14:29:27,2018-09-05 14:30:44,1m - 16.412s,FAILED
