Suite/Test/Step Name,Browser,Description,Start time,End time,Duration,Status
login,Chrome 67.0.3396.99,,2018-07-12 16:20:44,2018-07-12 16:21:52,1m - 8.293s,PASSED
,,,,,,
Test Cases/FORSTOK/Fullfill JD,Chrome 67.0.3396.99,,2018-07-12 16:20:44,2018-07-12 16:21:52,1m - 7.549s,PASSED
openBrowser,Chrome 67.0.3396.99,,2018-07-12 16:20:45,2018-07-12 16:20:51,5.828s,PASSED
maximizeWindow,Chrome 67.0.3396.99,,2018-07-12 16:20:51,2018-07-12 16:20:52,1.164s,PASSED
navigateToUrl,Chrome 67.0.3396.99,,2018-07-12 16:20:52,2018-07-12 16:20:57,5.128s,PASSED
click,Chrome 67.0.3396.99,,2018-07-12 16:20:57,2018-07-12 16:21:05,7.405s,PASSED
setText,Chrome 67.0.3396.99,,2018-07-12 16:21:05,2018-07-12 16:21:06,1.304s,PASSED
setText,Chrome 67.0.3396.99,,2018-07-12 16:21:06,2018-07-12 16:21:06,0.351s,PASSED
click,Chrome 67.0.3396.99,,2018-07-12 16:21:06,2018-07-12 16:21:23,16.699s,PASSED
click,Chrome 67.0.3396.99,,2018-07-12 16:21:23,2018-07-12 16:21:29,6.330s,PASSED
waitForPageLoad,Chrome 67.0.3396.99,,2018-07-12 16:21:29,2018-07-12 16:21:29,0.246s,PASSED
click,Chrome 67.0.3396.99,,2018-07-12 16:21:29,2018-07-12 16:21:30,0.181s,PASSED
click,Chrome 67.0.3396.99,,2018-07-12 16:21:30,2018-07-12 16:21:30,0.126s,PASSED
click,Chrome 67.0.3396.99,,2018-07-12 16:21:30,2018-07-12 16:21:30,0.286s,PASSED
click,Chrome 67.0.3396.99,,2018-07-12 16:21:30,2018-07-12 16:21:30,0.262s,PASSED
click,Chrome 67.0.3396.99,,2018-07-12 16:21:30,2018-07-12 16:21:30,0.101s,PASSED
click,Chrome 67.0.3396.99,,2018-07-12 16:21:30,2018-07-12 16:21:31,0.121s,PASSED
click,Chrome 67.0.3396.99,,2018-07-12 16:21:31,2018-07-12 16:21:32,1.490s,PASSED
Statement - orderID = com.kms.katalon.core.webui.keyword.WebUiBuiltInKeywords.getText(com.kms.katalon.core.testobject.ObjectRepository.findTestObject(FORSTOK/get order id)),Chrome 67.0.3396.99,,2018-07-12 16:21:32,2018-07-12 16:21:33,0.687s,PASSED
Statement - println(orderID),Chrome 67.0.3396.99,,2018-07-12 16:21:33,2018-07-12 16:21:33,0.004s,PASSED
click,Chrome 67.0.3396.99,,2018-07-12 16:21:33,2018-07-12 16:21:33,0.194s,PASSED
click,Chrome 67.0.3396.99,,2018-07-12 16:21:33,2018-07-12 16:21:33,0.249s,PASSED
selectOptionByValue,Chrome 67.0.3396.99,,2018-07-12 16:21:33,2018-07-12 16:21:33,0.000s,NOT_RUN
click,Chrome 67.0.3396.99,,2018-07-12 16:21:33,2018-07-12 16:21:34,0.409s,PASSED
waitForElementNotPresent,Chrome 67.0.3396.99,,2018-07-12 16:21:34,2018-07-12 16:21:43,8.839s,PASSED
setText,Chrome 67.0.3396.99,,2018-07-12 16:21:43,2018-07-12 16:21:43,0.499s,PASSED
verifyElementText,Chrome 67.0.3396.99,,2018-07-12 16:21:43,2018-07-12 16:21:43,0.060s,PASSED
delay,Chrome 67.0.3396.99,,2018-07-12 16:21:43,2018-07-12 16:21:49,6.017s,PASSED
closeBrowser,Chrome 67.0.3396.99,,2018-07-12 16:21:49,2018-07-12 16:21:52,2.792s,PASSED
