Suite/Test/Step Name,Browser,Description,Start time,End time,Duration,Status
Getcraft_HQ,Firefox 62.0,,2018-10-18 15:07:07,2018-10-18 15:28:02,20m - 55.107s,FAILED
,,,,,,
Test Cases/GETCRAFT/Register_Client,Firefox 62.0,,2018-10-18 15:07:07,2018-10-18 15:09:47,2m - 39.787s,PASSED
Statement - RN = <not implemented yet for class: org.codehaus.groovy.ast.expr.EmptyExpression>,Firefox 62.0,,2018-10-18 15:07:08,2018-10-18 15:07:08,0.001s,PASSED
Statement - RN = java.lang.Math.random() * 999,Firefox 62.0,,2018-10-18 15:07:08,2018-10-18 15:07:08,0.013s,PASSED
Statement - mailinator = email + RN,Firefox 62.0,,2018-10-18 15:07:08,2018-10-18 15:07:08,0.006s,PASSED
Statement - user = email + RN + domain,Firefox 62.0,,2018-10-18 15:07:08,2018-10-18 15:07:08,0.001s,PASSED
Statement - firstname = name + RN,Firefox 62.0,,2018-10-18 15:07:08,2018-10-18 15:07:08,0.001s,PASSED
Statement - lastname = name2 + RN,Firefox 62.0,,2018-10-18 15:07:08,2018-10-18 15:07:08,0.002s,PASSED
Statement - Phone = phonenumber + RN,Firefox 62.0,,2018-10-18 15:07:08,2018-10-18 15:07:08,0.001s,PASSED
Statement - println(user),Firefox 62.0,,2018-10-18 15:07:08,2018-10-18 15:07:08,0.009s,PASSED
openBrowser,Firefox 62.0,,2018-10-18 15:07:08,2018-10-18 15:07:12,4.851s,PASSED
maximizeWindow,Firefox 62.0,,2018-10-18 15:07:12,2018-10-18 15:07:16,3.527s,PASSED
navigateToUrl,Firefox 62.0,,2018-10-18 15:07:16,2018-10-18 15:07:22,6.064s,PASSED
waitForElementClickable,Firefox 62.0,,2018-10-18 15:07:22,2018-10-18 15:07:26,3.575s,PASSED
click,Firefox 62.0,,2018-10-18 15:07:26,2018-10-18 15:07:28,2.164s,PASSED
click,Firefox 62.0,,2018-10-18 15:07:28,2018-10-18 15:07:28,0.687s,PASSED
setText,Firefox 62.0,,2018-10-18 15:07:28,2018-10-18 15:07:29,0.201s,PASSED
setText,Firefox 62.0,,2018-10-18 15:07:29,2018-10-18 15:07:29,0.164s,PASSED
setText,Firefox 62.0,,2018-10-18 15:07:29,2018-10-18 15:07:29,0.453s,PASSED
setText,Firefox 62.0,,2018-10-18 15:07:29,2018-10-18 15:07:29,0.208s,PASSED
setText,Firefox 62.0,,2018-10-18 15:07:29,2018-10-18 15:07:30,0.118s,PASSED
click,Firefox 62.0,,2018-10-18 15:07:30,2018-10-18 15:07:30,0.311s,PASSED
click,Firefox 62.0,,2018-10-18 15:07:30,2018-10-18 15:07:30,0.307s,PASSED
setText,Firefox 62.0,,2018-10-18 15:07:30,2018-10-18 15:07:31,0.421s,PASSED
click,Firefox 62.0,,2018-10-18 15:07:31,2018-10-18 15:07:31,0.293s,PASSED
click,Firefox 62.0,,2018-10-18 15:07:31,2018-10-18 15:07:31,0.294s,PASSED
click,Firefox 62.0,,2018-10-18 15:07:31,2018-10-18 15:07:31,0.272s,PASSED
delay,Firefox 62.0,,2018-10-18 15:07:31,2018-10-18 15:07:37,5.017s,PASSED
click,Firefox 62.0,,2018-10-18 15:07:37,2018-10-18 15:07:37,0.539s,PASSED
waitForElementClickable,Firefox 62.0,,2018-10-18 15:07:37,2018-10-18 15:07:37,0.027s,PASSED
click,Firefox 62.0,,2018-10-18 15:07:37,2018-10-18 15:07:38,0.496s,PASSED
delay,Firefox 62.0,,2018-10-18 15:07:38,2018-10-18 15:07:44,6.005s,PASSED
click,Firefox 62.0,,2018-10-18 15:07:44,2018-10-18 15:07:44,0.261s,PASSED
click,Firefox 62.0,,2018-10-18 15:07:44,2018-10-18 15:07:44,0.255s,PASSED
delay,Firefox 62.0,,2018-10-18 15:07:44,2018-10-18 15:07:50,6.005s,PASSED
executeJavaScript,Firefox 62.0,,2018-10-18 15:07:50,2018-10-18 15:07:50,0.164s,PASSED
Statement - currentWindow = com.kms.katalon.core.webui.keyword.WebUiBuiltInKeywords.getWindowIndex(),Firefox 62.0,,2018-10-18 15:07:50,2018-10-18 15:07:50,0.023s,PASSED
switchToWindowIndex,Firefox 62.0,,2018-10-18 15:07:50,2018-10-18 15:07:50,0.032s,PASSED
navigateToUrl,Firefox 62.0,,2018-10-18 15:07:50,2018-10-18 15:07:55,4.377s,PASSED
setText,Firefox 62.0,,2018-10-18 15:07:55,2018-10-18 15:07:55,0.070s,PASSED
click,Firefox 62.0,,2018-10-18 15:07:55,2018-10-18 15:07:56,1.163s,PASSED
click,Firefox 62.0,,2018-10-18 15:07:56,2018-10-18 15:09:14,1m - 17.795s,PASSED
waitForElementPresent,Firefox 62.0,,2018-10-18 15:09:14,2018-10-18 15:09:14,0.009s,NOT_RUN
verifyElementVisible,Firefox 62.0,,2018-10-18 15:09:14,2018-10-18 15:09:14,0.109s,PASSED
click,Firefox 62.0,,2018-10-18 15:09:14,2018-10-18 15:09:18,3.818s,PASSED
delay,Firefox 62.0,,2018-10-18 15:09:18,2018-10-18 15:09:27,9.020s,PASSED
closeBrowser,Firefox 62.0,,2018-10-18 15:09:27,2018-10-18 15:09:27,0.335s,PASSED
openBrowser,Firefox 62.0,,2018-10-18 15:09:27,2018-10-18 15:09:30,3.398s,PASSED
maximizeWindow,Firefox 62.0,,2018-10-18 15:09:30,2018-10-18 15:09:34,3.524s,PASSED
navigateToUrl,Firefox 62.0,,2018-10-18 15:09:34,2018-10-18 15:09:39,4.793s,PASSED
waitForElementClickable,Firefox 62.0,,2018-10-18 15:09:39,2018-10-18 15:09:40,1.169s,PASSED
setText,Firefox 62.0,,2018-10-18 15:09:40,2018-10-18 15:09:40,0.286s,PASSED
setText,Firefox 62.0,,2018-10-18 15:09:40,2018-10-18 15:09:41,0.435s,PASSED
click,Firefox 62.0,,2018-10-18 15:09:41,2018-10-18 15:09:41,0.498s,PASSED
verifyElementPresent,Firefox 62.0,,2018-10-18 15:09:41,2018-10-18 15:09:47,5.587s,PASSED
closeBrowser,Firefox 62.0,,2018-10-18 15:09:47,2018-10-18 15:09:47,0.002s,NOT_RUN
,,,,,,
Test Cases/GETCRAFT/Register_Creator,Firefox 62.0,,2018-10-18 15:09:47,2018-10-18 15:12:18,2m - 31.517s,PASSED
Statement - RN = <not implemented yet for class: org.codehaus.groovy.ast.expr.EmptyExpression>,Firefox 62.0,,2018-10-18 15:09:47,2018-10-18 15:09:47,0.000s,PASSED
Statement - RN = java.lang.Math.random() * 999,Firefox 62.0,,2018-10-18 15:09:47,2018-10-18 15:09:47,0.000s,PASSED
Statement - mailinator = email + RN,Firefox 62.0,,2018-10-18 15:09:47,2018-10-18 15:09:47,0.000s,PASSED
Statement - user = email + RN + domain,Firefox 62.0,,2018-10-18 15:09:47,2018-10-18 15:09:47,0.001s,PASSED
Statement - firstname = name + RN,Firefox 62.0,,2018-10-18 15:09:47,2018-10-18 15:09:47,0.000s,PASSED
Statement - lastname = name2 + RN,Firefox 62.0,,2018-10-18 15:09:47,2018-10-18 15:09:47,0.001s,PASSED
Statement - Phone = phonenumber + RN,Firefox 62.0,,2018-10-18 15:09:47,2018-10-18 15:09:47,0.000s,PASSED
Statement - println(user),Firefox 62.0,,2018-10-18 15:09:47,2018-10-18 15:09:47,0.000s,PASSED
openBrowser,Firefox 62.0,,2018-10-18 15:09:47,2018-10-18 15:09:50,2.937s,PASSED
maximizeWindow,Firefox 62.0,,2018-10-18 15:09:50,2018-10-18 15:09:54,3.510s,PASSED
navigateToUrl,Firefox 62.0,,2018-10-18 15:09:54,2018-10-18 15:10:04,10.392s,PASSED
waitForElementClickable,Firefox 62.0,,2018-10-18 15:10:04,2018-10-18 15:10:04,0.073s,PASSED
click,Firefox 62.0,,2018-10-18 15:10:04,2018-10-18 15:10:05,0.389s,PASSED
click,Firefox 62.0,,2018-10-18 15:10:05,2018-10-18 15:10:05,0.744s,PASSED
setText,Firefox 62.0,,2018-10-18 15:10:05,2018-10-18 15:10:06,0.283s,PASSED
setText,Firefox 62.0,,2018-10-18 15:10:06,2018-10-18 15:10:06,0.172s,PASSED
setText,Firefox 62.0,,2018-10-18 15:10:06,2018-10-18 15:10:06,0.165s,PASSED
setText,Firefox 62.0,,2018-10-18 15:10:06,2018-10-18 15:10:06,0.287s,PASSED
setText,Firefox 62.0,,2018-10-18 15:10:06,2018-10-18 15:10:06,0.151s,PASSED
click,Firefox 62.0,,2018-10-18 15:10:06,2018-10-18 15:10:07,0.307s,PASSED
click,Firefox 62.0,,2018-10-18 15:10:07,2018-10-18 15:10:07,0.387s,PASSED
setText,Firefox 62.0,,2018-10-18 15:10:07,2018-10-18 15:10:07,0.183s,PASSED
click,Firefox 62.0,,2018-10-18 15:10:07,2018-10-18 15:10:08,0.297s,PASSED
click,Firefox 62.0,,2018-10-18 15:10:08,2018-10-18 15:10:08,0.269s,PASSED
click,Firefox 62.0,,2018-10-18 15:10:08,2018-10-18 15:10:08,0.267s,PASSED
delay,Firefox 62.0,,2018-10-18 15:10:08,2018-10-18 15:10:13,5.002s,PASSED
click,Firefox 62.0,,2018-10-18 15:10:13,2018-10-18 15:10:14,0.587s,PASSED
waitForElementClickable,Firefox 62.0,,2018-10-18 15:10:14,2018-10-18 15:10:14,0.033s,PASSED
click,Firefox 62.0,,2018-10-18 15:10:14,2018-10-18 15:10:14,0.547s,PASSED
delay,Firefox 62.0,,2018-10-18 15:10:14,2018-10-18 15:10:20,6.007s,PASSED
click,Firefox 62.0,,2018-10-18 15:10:20,2018-10-18 15:10:21,0.347s,PASSED
click,Firefox 62.0,,2018-10-18 15:10:21,2018-10-18 15:10:21,0.269s,PASSED
delay,Firefox 62.0,,2018-10-18 15:10:21,2018-10-18 15:10:27,6.007s,PASSED
executeJavaScript,Firefox 62.0,,2018-10-18 15:10:27,2018-10-18 15:10:27,0.259s,PASSED
Statement - currentWindow = com.kms.katalon.core.webui.keyword.WebUiBuiltInKeywords.getWindowIndex(),Firefox 62.0,,2018-10-18 15:10:27,2018-10-18 15:10:27,0.020s,PASSED
switchToWindowIndex,Firefox 62.0,,2018-10-18 15:10:27,2018-10-18 15:10:27,0.026s,PASSED
navigateToUrl,Firefox 62.0,,2018-10-18 15:10:27,2018-10-18 15:10:31,3.806s,PASSED
setText,Firefox 62.0,,2018-10-18 15:10:31,2018-10-18 15:10:31,0.097s,PASSED
click,Firefox 62.0,,2018-10-18 15:10:31,2018-10-18 15:10:32,0.944s,PASSED
click,Firefox 62.0,,2018-10-18 15:10:32,2018-10-18 15:11:49,1m - 16.980s,PASSED
click,Firefox 62.0,,2018-10-18 15:11:49,2018-10-18 15:11:52,3.415s,PASSED
delay,Firefox 62.0,,2018-10-18 15:11:52,2018-10-18 15:12:00,8.019s,PASSED
closeBrowser,Firefox 62.0,,2018-10-18 15:12:00,2018-10-18 15:12:01,0.387s,PASSED
openBrowser,Firefox 62.0,,2018-10-18 15:12:01,2018-10-18 15:12:03,2.567s,PASSED
maximizeWindow,Firefox 62.0,,2018-10-18 15:12:03,2018-10-18 15:12:07,3.522s,PASSED
navigateToUrl,Firefox 62.0,,2018-10-18 15:12:07,2018-10-18 15:12:11,4.369s,PASSED
setText,Firefox 62.0,,2018-10-18 15:12:11,2018-10-18 15:12:12,0.770s,PASSED
setText,Firefox 62.0,,2018-10-18 15:12:12,2018-10-18 15:12:12,0.307s,PASSED
click,Firefox 62.0,,2018-10-18 15:12:12,2018-10-18 15:12:13,0.592s,PASSED
delay,Firefox 62.0,,2018-10-18 15:12:13,2018-10-18 15:12:18,5.006s,PASSED
verifyElementPresent,Firefox 62.0,,2018-10-18 15:12:18,2018-10-18 15:12:18,0.125s,PASSED
closeBrowser,Firefox 62.0,,2018-10-18 15:12:18,2018-10-18 15:12:18,0.176s,PASSED
,,,,,,
Test Cases/GETCRAFT/Create_BriefUnselected(DRAFT),Firefox 62.0,,2018-10-18 15:12:18,2018-10-18 15:15:24,3m - 6.043s,FAILED
Statement - RN = <not implemented yet for class: org.codehaus.groovy.ast.expr.EmptyExpression>,Firefox 62.0,,2018-10-18 15:12:19,2018-10-18 15:12:19,0.001s,PASSED
Statement - RN = java.lang.Math.random() * 599,Firefox 62.0,,2018-10-18 15:12:19,2018-10-18 15:12:19,0.001s,PASSED
Statement - name_project = project_name + RN,Firefox 62.0,,2018-10-18 15:12:19,2018-10-18 15:12:19,0.000s,PASSED
openBrowser,Firefox 62.0,,2018-10-18 15:12:19,2018-10-18 15:12:21,2.670s,PASSED
maximizeWindow,Firefox 62.0,,2018-10-18 15:12:21,2018-10-18 15:12:25,3.567s,PASSED
navigateToUrl,Firefox 62.0,,2018-10-18 15:12:25,2018-10-18 15:12:32,7.394s,PASSED
"Statement - If (com.kms.katalon.core.webui.keyword.WebUiBuiltInKeywords.verifyElementVisible(com.kms.katalon.core.testobject.ObjectRepository.findTestObject(Object Repository/GETCRAFT/create_brief/Language_indo), OPTIONAL))",Firefox 62.0,,2018-10-18 15:12:32,2018-10-18 15:12:39,6.566s,PASSED
setText,Firefox 62.0,,2018-10-18 15:12:39,2018-10-18 15:12:39,0.290s,PASSED
setText,Firefox 62.0,,2018-10-18 15:12:39,2018-10-18 15:12:39,0.134s,PASSED
click,Firefox 62.0,,2018-10-18 15:12:39,2018-10-18 15:12:40,0.253s,PASSED
verifyElementPresent,Firefox 62.0,,2018-10-18 15:12:40,2018-10-18 15:12:44,4.727s,PASSED
click,Firefox 62.0,,2018-10-18 15:12:44,2018-10-18 15:12:45,0.334s,PASSED
click,Firefox 62.0,,2018-10-18 15:12:45,2018-10-18 15:12:46,0.940s,PASSED
waitForElementClickable,Firefox 62.0,,2018-10-18 15:12:46,2018-10-18 15:14:51,2m - 5.036s,PASSED
delay,Firefox 62.0,,2018-10-18 15:14:51,2018-10-18 15:14:53,2.006s,PASSED
click,Firefox 62.0,,2018-10-18 15:14:53,2018-10-18 15:15:24,31.641s,FAILED
,,,,,,
Test Cases/GETCRAFT/Create_BriefUnselected(SENDtoCREATOR),Firefox 62.0,,2018-10-18 15:15:24,2018-10-18 15:18:29,3m - 4.582s,FAILED
Statement - RN = <not implemented yet for class: org.codehaus.groovy.ast.expr.EmptyExpression>,Firefox 62.0,,2018-10-18 15:15:25,2018-10-18 15:15:25,0.001s,PASSED
Statement - RN = java.lang.Math.random() * 599,Firefox 62.0,,2018-10-18 15:15:25,2018-10-18 15:15:25,0.001s,PASSED
Statement - name_project = project_name + RN,Firefox 62.0,,2018-10-18 15:15:25,2018-10-18 15:15:25,0.000s,PASSED
openBrowser,Firefox 62.0,,2018-10-18 15:15:25,2018-10-18 15:15:27,2.764s,PASSED
maximizeWindow,Firefox 62.0,,2018-10-18 15:15:27,2018-10-18 15:15:31,3.580s,PASSED
navigateToUrl,Firefox 62.0,,2018-10-18 15:15:31,2018-10-18 15:15:37,5.911s,PASSED
"Statement - If (com.kms.katalon.core.webui.keyword.WebUiBuiltInKeywords.verifyElementVisible(com.kms.katalon.core.testobject.ObjectRepository.findTestObject(Object Repository/GETCRAFT/create_brief/Language_indo), OPTIONAL))",Firefox 62.0,,2018-10-18 15:15:37,2018-10-18 15:15:43,5.957s,PASSED
setText,Firefox 62.0,,2018-10-18 15:15:43,2018-10-18 15:15:43,0.228s,PASSED
setText,Firefox 62.0,,2018-10-18 15:15:43,2018-10-18 15:15:43,0.051s,PASSED
click,Firefox 62.0,,2018-10-18 15:15:43,2018-10-18 15:15:43,0.248s,PASSED
verifyElementPresent,Firefox 62.0,,2018-10-18 15:15:43,2018-10-18 15:15:48,4.342s,PASSED
click,Firefox 62.0,,2018-10-18 15:15:48,2018-10-18 15:15:48,0.288s,PASSED
click,Firefox 62.0,,2018-10-18 15:15:48,2018-10-18 15:15:49,0.975s,PASSED
waitForElementClickable,Firefox 62.0,,2018-10-18 15:15:49,2018-10-18 15:17:55,2m - 5.857s,PASSED
delay,Firefox 62.0,,2018-10-18 15:17:55,2018-10-18 15:17:57,2.007s,PASSED
click,Firefox 62.0,,2018-10-18 15:17:57,2018-10-18 15:18:29,31.946s,FAILED
,,,,,,
Test Cases/GETCRAFT/Create_BriefSelected(DRAFT),Firefox 62.0,,2018-10-18 15:18:29,2018-10-18 15:19:39,1m - 9.876s,FAILED
Statement - RN = <not implemented yet for class: org.codehaus.groovy.ast.expr.EmptyExpression>,Firefox 62.0,,2018-10-18 15:18:29,2018-10-18 15:18:29,0.001s,PASSED
Statement - RN = java.lang.Math.random() * 599,Firefox 62.0,,2018-10-18 15:18:29,2018-10-18 15:18:29,0.001s,PASSED
Statement - name_project = project_name + RN,Firefox 62.0,,2018-10-18 15:18:29,2018-10-18 15:18:29,0.000s,PASSED
openBrowser,Firefox 62.0,,2018-10-18 15:18:29,2018-10-18 15:18:32,3.102s,PASSED
maximizeWindow,Firefox 62.0,,2018-10-18 15:18:32,2018-10-18 15:18:36,3.519s,PASSED
navigateToUrl,Firefox 62.0,,2018-10-18 15:18:36,2018-10-18 15:18:47,11.524s,PASSED
"Statement - If (com.kms.katalon.core.webui.keyword.WebUiBuiltInKeywords.verifyElementVisible(com.kms.katalon.core.testobject.ObjectRepository.findTestObject(Object Repository/GETCRAFT/create_brief/Language_indo), OPTIONAL))",Firefox 62.0,,2018-10-18 15:18:47,2018-10-18 15:18:53,5.856s,PASSED
setText,Firefox 62.0,,2018-10-18 15:18:53,2018-10-18 15:18:53,0.287s,PASSED
setText,Firefox 62.0,,2018-10-18 15:18:53,2018-10-18 15:18:54,0.118s,PASSED
click,Firefox 62.0,,2018-10-18 15:18:54,2018-10-18 15:18:54,0.248s,PASSED
verifyElementPresent,Firefox 62.0,,2018-10-18 15:18:54,2018-10-18 15:19:00,6.493s,PASSED
click,Firefox 62.0,,2018-10-18 15:19:00,2018-10-18 15:19:01,0.270s,PASSED
click,Firefox 62.0,,2018-10-18 15:19:01,2018-10-18 15:19:01,0.453s,PASSED
delay,Firefox 62.0,,2018-10-18 15:19:01,2018-10-18 15:19:05,4.006s,PASSED
waitForElementClickable,Firefox 62.0,,2018-10-18 15:19:05,2018-10-18 15:19:05,0.034s,PASSED
scrollToElement,Firefox 62.0,,2018-10-18 15:19:05,2018-10-18 15:19:05,0.070s,PASSED
click,Firefox 62.0,,2018-10-18 15:19:05,2018-10-18 15:19:06,0.468s,PASSED
click,Firefox 62.0,,2018-10-18 15:19:06,2018-10-18 15:19:06,0.329s,PASSED
click,Firefox 62.0,,2018-10-18 15:19:06,2018-10-18 15:19:39,32.817s,FAILED
,,,,,,
Test Cases/GETCRAFT/Create_BriefSelected(SENDtoCREATOR),Firefox 62.0,,2018-10-18 15:19:39,2018-10-18 15:20:40,1m - 1.364s,FAILED
Statement - RN = <not implemented yet for class: org.codehaus.groovy.ast.expr.EmptyExpression>,Firefox 62.0,,2018-10-18 15:19:39,2018-10-18 15:19:39,0.001s,PASSED
Statement - RN = java.lang.Math.random() * 599,Firefox 62.0,,2018-10-18 15:19:39,2018-10-18 15:19:39,0.001s,PASSED
Statement - name_project = project_name + RN,Firefox 62.0,,2018-10-18 15:19:39,2018-10-18 15:19:39,0.001s,PASSED
openBrowser,Firefox 62.0,,2018-10-18 15:19:39,2018-10-18 15:19:42,2.701s,PASSED
maximizeWindow,Firefox 62.0,,2018-10-18 15:19:42,2018-10-18 15:19:45,3.515s,PASSED
navigateToUrl,Firefox 62.0,,2018-10-18 15:19:45,2018-10-18 15:19:51,5.830s,PASSED
"Statement - If (com.kms.katalon.core.webui.keyword.WebUiBuiltInKeywords.verifyElementVisible(com.kms.katalon.core.testobject.ObjectRepository.findTestObject(Object Repository/GETCRAFT/create_brief/Language_indo), OPTIONAL))",Firefox 62.0,,2018-10-18 15:19:51,2018-10-18 15:19:57,5.569s,PASSED
setText,Firefox 62.0,,2018-10-18 15:19:57,2018-10-18 15:19:57,0.249s,PASSED
setText,Firefox 62.0,,2018-10-18 15:19:57,2018-10-18 15:19:57,0.057s,PASSED
click,Firefox 62.0,,2018-10-18 15:19:57,2018-10-18 15:19:57,0.254s,PASSED
verifyElementPresent,Firefox 62.0,,2018-10-18 15:19:57,2018-10-18 15:20:02,5.277s,PASSED
click,Firefox 62.0,,2018-10-18 15:20:02,2018-10-18 15:20:03,0.304s,PASSED
click,Firefox 62.0,,2018-10-18 15:20:03,2018-10-18 15:20:04,1.002s,PASSED
delay,Firefox 62.0,,2018-10-18 15:20:04,2018-10-18 15:20:07,3.003s,PASSED
waitForElementClickable,Firefox 62.0,,2018-10-18 15:20:07,2018-10-18 15:20:07,0.038s,PASSED
scrollToElement,Firefox 62.0,,2018-10-18 15:20:07,2018-10-18 15:20:07,0.029s,PASSED
click,Firefox 62.0,,2018-10-18 15:20:07,2018-10-18 15:20:07,0.407s,PASSED
click,Firefox 62.0,,2018-10-18 15:20:07,2018-10-18 15:20:08,0.374s,PASSED
click,Firefox 62.0,,2018-10-18 15:20:08,2018-10-18 15:20:40,32.472s,FAILED
,,,,,,
Test Cases/GETCRAFT/Brief_phase2_unselected_login,Firefox 62.0,,2018-10-18 15:20:40,2018-10-18 15:22:12,1m - 32.060s,PASSED
Statement - RN = <not implemented yet for class: org.codehaus.groovy.ast.expr.EmptyExpression>,Firefox 62.0,,2018-10-18 15:20:40,2018-10-18 15:20:40,0.000s,PASSED
Statement - RN = java.lang.Math.random() * 599,Firefox 62.0,,2018-10-18 15:20:40,2018-10-18 15:20:40,0.000s,PASSED
Statement - name_project = project_name + RN,Firefox 62.0,,2018-10-18 15:20:40,2018-10-18 15:20:40,0.000s,PASSED
openBrowser,Firefox 62.0,,2018-10-18 15:20:40,2018-10-18 15:20:43,2.600s,PASSED
maximizeWindow,Firefox 62.0,,2018-10-18 15:20:43,2018-10-18 15:20:46,3.511s,PASSED
navigateToUrl,Firefox 62.0,,2018-10-18 15:20:46,2018-10-18 15:20:54,7.075s,PASSED
"Statement - If (com.kms.katalon.core.webui.keyword.WebUiBuiltInKeywords.verifyElementVisible(com.kms.katalon.core.testobject.ObjectRepository.findTestObject(Object Repository/GETCRAFT/create_brief/Language_indo), OPTIONAL))",Firefox 62.0,,2018-10-18 15:20:54,2018-10-18 15:21:00,6.014s,PASSED
click,Firefox 62.0,,2018-10-18 15:21:00,2018-10-18 15:21:00,0.770s,PASSED
delay,Firefox 62.0,,2018-10-18 15:21:00,2018-10-18 15:21:02,2.005s,PASSED
click,Firefox 62.0,,2018-10-18 15:21:02,2018-10-18 15:21:03,0.303s,PASSED
click,Firefox 62.0,,2018-10-18 15:21:03,2018-10-18 15:21:03,0.321s,PASSED
waitForElementClickable,Firefox 62.0,,2018-10-18 15:21:03,2018-10-18 15:21:03,0.002s,NOT_RUN
click,Firefox 62.0,,2018-10-18 15:21:03,2018-10-18 15:21:03,0.310s,PASSED
click,Firefox 62.0,,2018-10-18 15:21:03,2018-10-18 15:21:04,0.292s,PASSED
scrollToElement,Firefox 62.0,,2018-10-18 15:21:04,2018-10-18 15:21:04,0.050s,PASSED
waitForElementClickable,Firefox 62.0,,2018-10-18 15:21:04,2018-10-18 15:21:04,0.048s,PASSED
delay,Firefox 62.0,,2018-10-18 15:21:04,2018-10-18 15:21:06,2.001s,PASSED
click,Firefox 62.0,,2018-10-18 15:21:06,2018-10-18 15:21:06,0.292s,PASSED
click,Firefox 62.0,,2018-10-18 15:21:06,2018-10-18 15:21:06,0.251s,PASSED
click,Firefox 62.0,,2018-10-18 15:21:06,2018-10-18 15:21:06,0.250s,PASSED
waitForElementClickable,Firefox 62.0,,2018-10-18 15:21:06,2018-10-18 15:21:06,0.015s,PASSED
delay,Firefox 62.0,,2018-10-18 15:21:06,2018-10-18 15:21:08,2.001s,PASSED
click,Firefox 62.0,,2018-10-18 15:21:08,2018-10-18 15:21:09,0.311s,PASSED
click,Firefox 62.0,,2018-10-18 15:21:09,2018-10-18 15:21:09,0.282s,PASSED
click,Firefox 62.0,,2018-10-18 15:21:09,2018-10-18 15:21:09,0.270s,PASSED
setText,Firefox 62.0,,2018-10-18 15:21:09,2018-10-18 15:21:10,0.417s,PASSED
setText,Firefox 62.0,,2018-10-18 15:21:10,2018-10-18 15:21:10,0.201s,PASSED
setText,Firefox 62.0,,2018-10-18 15:21:10,2018-10-18 15:21:10,0.140s,PASSED
setText,Firefox 62.0,,2018-10-18 15:21:10,2018-10-18 15:21:10,0.115s,PASSED
scrollToElement,Firefox 62.0,,2018-10-18 15:21:10,2018-10-18 15:21:10,0.042s,PASSED
click,Firefox 62.0,,2018-10-18 15:21:10,2018-10-18 15:21:11,0.251s,PASSED
setText,Firefox 62.0,,2018-10-18 15:21:11,2018-10-18 15:21:11,0.191s,PASSED
click,Firefox 62.0,,2018-10-18 15:21:11,2018-10-18 15:21:11,0.249s,PASSED
click,Firefox 62.0,,2018-10-18 15:21:11,2018-10-18 15:21:11,0.263s,PASSED
scrollToElement,Firefox 62.0,,2018-10-18 15:21:11,2018-10-18 15:21:11,0.014s,PASSED
delay,Firefox 62.0,,2018-10-18 15:21:11,2018-10-18 15:21:14,3.005s,PASSED
click,Firefox 62.0,,2018-10-18 15:21:14,2018-10-18 15:21:14,0.246s,PASSED
scrollToElement,Firefox 62.0,,2018-10-18 15:21:14,2018-10-18 15:21:16,1.140s,PASSED
delay,Firefox 62.0,,2018-10-18 15:21:16,2018-10-18 15:21:19,3.008s,PASSED
click,Firefox 62.0,,2018-10-18 15:21:19,2018-10-18 15:21:19,0.265s,PASSED
setText,Firefox 62.0,,2018-10-18 15:21:19,2018-10-18 15:21:19,0.425s,PASSED
setText,Firefox 62.0,,2018-10-18 15:21:19,2018-10-18 15:21:20,0.256s,PASSED
delay,Firefox 62.0,,2018-10-18 15:21:20,2018-10-18 15:21:25,5.006s,PASSED
click,Firefox 62.0,,2018-10-18 15:21:25,2018-10-18 15:21:25,0.261s,PASSED
waitForElementPresent,Firefox 62.0,,2018-10-18 15:21:25,2018-10-18 15:22:06,41.005s,PASSED
delay,Firefox 62.0,,2018-10-18 15:22:06,2018-10-18 15:22:09,3.004s,PASSED
verifyElementText,Firefox 62.0,,2018-10-18 15:22:09,2018-10-18 15:22:09,0.062s,PASSED
verifyElementPresent,Firefox 62.0,,2018-10-18 15:22:09,2018-10-18 15:22:09,0.039s,PASSED
delay,Firefox 62.0,,2018-10-18 15:22:09,2018-10-18 15:22:12,3.006s,PASSED
closeBrowser,Firefox 62.0,,2018-10-18 15:22:12,2018-10-18 15:22:12,0.218s,PASSED
,,,,,,
Test Cases/GETCRAFT/Brief_phase2_selected_login ,Firefox 62.0,,2018-10-18 15:22:12,2018-10-18 15:23:11,58.337s,FAILED
Statement - RN = <not implemented yet for class: org.codehaus.groovy.ast.expr.EmptyExpression>,Firefox 62.0,,2018-10-18 15:22:12,2018-10-18 15:22:12,0.001s,PASSED
Statement - RN = java.lang.Math.random() * 599,Firefox 62.0,,2018-10-18 15:22:12,2018-10-18 15:22:12,0.001s,PASSED
Statement - name_project = project_name + RN,Firefox 62.0,,2018-10-18 15:22:12,2018-10-18 15:22:12,0.001s,PASSED
openBrowser,Firefox 62.0,,2018-10-18 15:22:12,2018-10-18 15:22:15,2.736s,PASSED
maximizeWindow,Firefox 62.0,,2018-10-18 15:22:15,2018-10-18 15:22:19,3.520s,PASSED
navigateToUrl,Firefox 62.0,,2018-10-18 15:22:19,2018-10-18 15:22:25,6.571s,PASSED
"Statement - If (com.kms.katalon.core.webui.keyword.WebUiBuiltInKeywords.verifyElementVisible(com.kms.katalon.core.testobject.ObjectRepository.findTestObject(Object Repository/GETCRAFT/create_brief/Language_indo), OPTIONAL))",Firefox 62.0,,2018-10-18 15:22:25,2018-10-18 15:22:32,6.336s,PASSED
click,Firefox 62.0,,2018-10-18 15:22:32,2018-10-18 15:22:32,0.460s,PASSED
delay,Firefox 62.0,,2018-10-18 15:22:32,2018-10-18 15:22:37,5.003s,PASSED
waitForElementClickable,Firefox 62.0,,2018-10-18 15:22:37,2018-10-18 15:22:37,0.025s,PASSED
scrollToElement,Firefox 62.0,,2018-10-18 15:22:37,2018-10-18 15:22:37,0.018s,PASSED
click,Firefox 62.0,,2018-10-18 15:22:37,2018-10-18 15:22:37,0.336s,PASSED
click,Firefox 62.0,,2018-10-18 15:22:37,2018-10-18 15:22:38,0.285s,PASSED
click,Firefox 62.0,,2018-10-18 15:22:38,2018-10-18 15:23:11,32.851s,FAILED
,,,,,,
Test Cases/GETCRAFT/Brief_phase2_unselected_loginMultiple,Firefox 62.0,,2018-10-18 15:23:11,2018-10-18 15:24:42,1m - 31.209s,PASSED
Statement - RN = <not implemented yet for class: org.codehaus.groovy.ast.expr.EmptyExpression>,Firefox 62.0,,2018-10-18 15:23:11,2018-10-18 15:23:11,0.001s,PASSED
Statement - RN = java.lang.Math.random() * 599,Firefox 62.0,,2018-10-18 15:23:11,2018-10-18 15:23:11,0.000s,PASSED
Statement - name_project = project_name + RN,Firefox 62.0,,2018-10-18 15:23:11,2018-10-18 15:23:11,0.000s,PASSED
openBrowser,Firefox 62.0,,2018-10-18 15:23:11,2018-10-18 15:23:13,2.514s,PASSED
maximizeWindow,Firefox 62.0,,2018-10-18 15:23:13,2018-10-18 15:23:17,3.511s,PASSED
navigateToUrl,Firefox 62.0,,2018-10-18 15:23:17,2018-10-18 15:23:26,9.287s,PASSED
"Statement - If (com.kms.katalon.core.webui.keyword.WebUiBuiltInKeywords.verifyElementVisible(com.kms.katalon.core.testobject.ObjectRepository.findTestObject(Object Repository/GETCRAFT/create_brief/Language_indo), OPTIONAL))",Firefox 62.0,,2018-10-18 15:23:26,2018-10-18 15:23:34,7.886s,PASSED
click,Firefox 62.0,,2018-10-18 15:23:34,2018-10-18 15:23:35,0.789s,PASSED
delay,Firefox 62.0,,2018-10-18 15:23:35,2018-10-18 15:23:37,2.008s,PASSED
click,Firefox 62.0,,2018-10-18 15:23:37,2018-10-18 15:23:37,0.370s,PASSED
click,Firefox 62.0,,2018-10-18 15:23:37,2018-10-18 15:23:37,0.325s,PASSED
waitForElementClickable,Firefox 62.0,,2018-10-18 15:23:37,2018-10-18 15:23:37,0.002s,NOT_RUN
click,Firefox 62.0,,2018-10-18 15:23:37,2018-10-18 15:23:38,0.321s,PASSED
click,Firefox 62.0,,2018-10-18 15:23:38,2018-10-18 15:23:38,0.300s,PASSED
scrollToElement,Firefox 62.0,,2018-10-18 15:23:38,2018-10-18 15:23:38,0.032s,PASSED
waitForElementClickable,Firefox 62.0,,2018-10-18 15:23:38,2018-10-18 15:23:38,0.046s,PASSED
delay,Firefox 62.0,,2018-10-18 15:23:38,2018-10-18 15:23:40,2.006s,PASSED
click,Firefox 62.0,,2018-10-18 15:23:40,2018-10-18 15:23:40,0.295s,PASSED
click,Firefox 62.0,,2018-10-18 15:23:40,2018-10-18 15:23:41,0.264s,PASSED
click,Firefox 62.0,,2018-10-18 15:23:41,2018-10-18 15:23:41,0.250s,PASSED
waitForElementClickable,Firefox 62.0,,2018-10-18 15:23:41,2018-10-18 15:23:41,0.016s,PASSED
delay,Firefox 62.0,,2018-10-18 15:23:41,2018-10-18 15:23:43,2.002s,PASSED
click,Firefox 62.0,,2018-10-18 15:23:43,2018-10-18 15:23:43,0.426s,PASSED
click,Firefox 62.0,,2018-10-18 15:23:43,2018-10-18 15:23:44,0.299s,PASSED
click,Firefox 62.0,,2018-10-18 15:23:44,2018-10-18 15:23:44,0.264s,PASSED
setText,Firefox 62.0,,2018-10-18 15:23:44,2018-10-18 15:23:44,0.407s,PASSED
setText,Firefox 62.0,,2018-10-18 15:23:44,2018-10-18 15:23:45,0.247s,PASSED
setText,Firefox 62.0,,2018-10-18 15:23:45,2018-10-18 15:23:45,0.130s,PASSED
setText,Firefox 62.0,,2018-10-18 15:23:45,2018-10-18 15:23:45,0.133s,PASSED
scrollToElement,Firefox 62.0,,2018-10-18 15:23:45,2018-10-18 15:23:45,0.030s,PASSED
click,Firefox 62.0,,2018-10-18 15:23:45,2018-10-18 15:23:45,0.237s,PASSED
setText,Firefox 62.0,,2018-10-18 15:23:45,2018-10-18 15:23:45,0.185s,PASSED
click,Firefox 62.0,,2018-10-18 15:23:45,2018-10-18 15:23:46,0.248s,PASSED
click,Firefox 62.0,,2018-10-18 15:23:46,2018-10-18 15:23:46,0.253s,PASSED
scrollToElement,Firefox 62.0,,2018-10-18 15:23:46,2018-10-18 15:23:46,0.020s,PASSED
delay,Firefox 62.0,,2018-10-18 15:23:46,2018-10-18 15:23:49,3.003s,PASSED
click,Firefox 62.0,,2018-10-18 15:23:49,2018-10-18 15:23:49,0.249s,PASSED
scrollToElement,Firefox 62.0,,2018-10-18 15:23:49,2018-10-18 15:23:50,1.053s,PASSED
delay,Firefox 62.0,,2018-10-18 15:23:50,2018-10-18 15:23:53,3.005s,PASSED
click,Firefox 62.0,,2018-10-18 15:23:53,2018-10-18 15:23:53,0.264s,PASSED
setText,Firefox 62.0,,2018-10-18 15:23:53,2018-10-18 15:23:54,0.310s,PASSED
setText,Firefox 62.0,,2018-10-18 15:23:54,2018-10-18 15:23:54,0.069s,PASSED
delay,Firefox 62.0,,2018-10-18 15:23:54,2018-10-18 15:23:59,5.004s,PASSED
click,Firefox 62.0,,2018-10-18 15:23:59,2018-10-18 15:23:59,0.253s,PASSED
waitForElementPresent,Firefox 62.0,,2018-10-18 15:23:59,2018-10-18 15:24:01,1.542s,PASSED
click,Firefox 62.0,,2018-10-18 15:24:01,2018-10-18 15:24:01,0.242s,PASSED
click,Firefox 62.0,,2018-10-18 15:24:01,2018-10-18 15:24:01,0.257s,PASSED
waitForElementPresent,Firefox 62.0,,2018-10-18 15:24:01,2018-10-18 15:24:35,34.283s,PASSED
delay,Firefox 62.0,,2018-10-18 15:24:35,2018-10-18 15:24:38,3.011s,PASSED
verifyElementText,Firefox 62.0,,2018-10-18 15:24:38,2018-10-18 15:24:38,0.065s,PASSED
verifyElementPresent,Firefox 62.0,,2018-10-18 15:24:38,2018-10-18 15:24:38,0.022s,PASSED
delay,Firefox 62.0,,2018-10-18 15:24:38,2018-10-18 15:24:41,3.005s,PASSED
closeBrowser,Firefox 62.0,,2018-10-18 15:24:41,2018-10-18 15:24:42,0.283s,PASSED
,,,,,,
Test Cases/GETCRAFT/SendTo_phase2_unselected_login,Firefox 62.0,,2018-10-18 15:24:42,2018-10-18 15:25:49,1m - 6.862s,PASSED
Statement - RN = <not implemented yet for class: org.codehaus.groovy.ast.expr.EmptyExpression>,Firefox 62.0,,2018-10-18 15:24:42,2018-10-18 15:24:42,0.000s,PASSED
Statement - RN = java.lang.Math.random() * 599,Firefox 62.0,,2018-10-18 15:24:42,2018-10-18 15:24:42,0.001s,PASSED
Statement - name_project = project_name + RN,Firefox 62.0,,2018-10-18 15:24:42,2018-10-18 15:24:42,0.000s,PASSED
openBrowser,Firefox 62.0,,2018-10-18 15:24:42,2018-10-18 15:24:44,2.303s,PASSED
maximizeWindow,Firefox 62.0,,2018-10-18 15:24:44,2018-10-18 15:24:48,3.515s,PASSED
navigateToUrl,Firefox 62.0,,2018-10-18 15:24:48,2018-10-18 15:24:54,6.132s,PASSED
"Statement - If (com.kms.katalon.core.webui.keyword.WebUiBuiltInKeywords.verifyElementVisible(com.kms.katalon.core.testobject.ObjectRepository.findTestObject(Object Repository/GETCRAFT/create_brief/Language_indo), OPTIONAL))",Firefox 62.0,,2018-10-18 15:24:54,2018-10-18 15:25:01,6.478s,PASSED
click,Firefox 62.0,,2018-10-18 15:25:01,2018-10-18 15:25:01,0.765s,PASSED
delay,Firefox 62.0,,2018-10-18 15:25:01,2018-10-18 15:25:03,2.005s,PASSED
click,Firefox 62.0,,2018-10-18 15:25:03,2018-10-18 15:25:04,0.378s,PASSED
click,Firefox 62.0,,2018-10-18 15:25:04,2018-10-18 15:25:04,0.291s,PASSED
waitForElementClickable,Firefox 62.0,,2018-10-18 15:25:04,2018-10-18 15:25:04,0.000s,NOT_RUN
click,Firefox 62.0,,2018-10-18 15:25:04,2018-10-18 15:25:04,0.291s,PASSED
click,Firefox 62.0,,2018-10-18 15:25:04,2018-10-18 15:25:05,0.282s,PASSED
scrollToElement,Firefox 62.0,,2018-10-18 15:25:05,2018-10-18 15:25:05,0.019s,PASSED
waitForElementClickable,Firefox 62.0,,2018-10-18 15:25:05,2018-10-18 15:25:05,0.027s,PASSED
delay,Firefox 62.0,,2018-10-18 15:25:05,2018-10-18 15:25:07,2.002s,PASSED
click,Firefox 62.0,,2018-10-18 15:25:07,2018-10-18 15:25:07,0.291s,PASSED
click,Firefox 62.0,,2018-10-18 15:25:07,2018-10-18 15:25:07,0.252s,PASSED
click,Firefox 62.0,,2018-10-18 15:25:07,2018-10-18 15:25:07,0.268s,PASSED
waitForElementClickable,Firefox 62.0,,2018-10-18 15:25:07,2018-10-18 15:25:07,0.022s,PASSED
delay,Firefox 62.0,,2018-10-18 15:25:07,2018-10-18 15:25:09,2.003s,PASSED
click,Firefox 62.0,,2018-10-18 15:25:09,2018-10-18 15:25:10,0.385s,PASSED
click,Firefox 62.0,,2018-10-18 15:25:10,2018-10-18 15:25:10,0.268s,PASSED
click,Firefox 62.0,,2018-10-18 15:25:10,2018-10-18 15:25:10,0.262s,PASSED
setText,Firefox 62.0,,2018-10-18 15:25:10,2018-10-18 15:25:11,0.414s,PASSED
setText,Firefox 62.0,,2018-10-18 15:25:11,2018-10-18 15:25:11,0.174s,PASSED
setText,Firefox 62.0,,2018-10-18 15:25:11,2018-10-18 15:25:11,0.146s,PASSED
setText,Firefox 62.0,,2018-10-18 15:25:11,2018-10-18 15:25:11,0.120s,PASSED
scrollToElement,Firefox 62.0,,2018-10-18 15:25:11,2018-10-18 15:25:11,0.029s,PASSED
click,Firefox 62.0,,2018-10-18 15:25:11,2018-10-18 15:25:11,0.247s,PASSED
setText,Firefox 62.0,,2018-10-18 15:25:11,2018-10-18 15:25:12,0.206s,PASSED
click,Firefox 62.0,,2018-10-18 15:25:12,2018-10-18 15:25:12,0.250s,PASSED
click,Firefox 62.0,,2018-10-18 15:25:12,2018-10-18 15:25:12,0.264s,PASSED
scrollToElement,Firefox 62.0,,2018-10-18 15:25:12,2018-10-18 15:25:12,0.024s,PASSED
delay,Firefox 62.0,,2018-10-18 15:25:12,2018-10-18 15:25:15,3.004s,PASSED
click,Firefox 62.0,,2018-10-18 15:25:15,2018-10-18 15:25:15,0.268s,PASSED
click,Firefox 62.0,,2018-10-18 15:25:15,2018-10-18 15:25:16,0.795s,PASSED
delay,Firefox 62.0,,2018-10-18 15:25:16,2018-10-18 15:25:19,3.004s,PASSED
scrollToElement,Firefox 62.0,,2018-10-18 15:25:19,2018-10-18 15:25:19,0.019s,PASSED
delay,Firefox 62.0,,2018-10-18 15:25:19,2018-10-18 15:25:22,3.003s,PASSED
click,Firefox 62.0,,2018-10-18 15:25:22,2018-10-18 15:25:23,0.265s,PASSED
setText,Firefox 62.0,,2018-10-18 15:25:23,2018-10-18 15:25:23,0.411s,PASSED
setText,Firefox 62.0,,2018-10-18 15:25:23,2018-10-18 15:25:23,0.068s,PASSED
delay,Firefox 62.0,,2018-10-18 15:25:23,2018-10-18 15:25:28,5.007s,PASSED
click,Firefox 62.0,,2018-10-18 15:25:28,2018-10-18 15:25:28,0.262s,PASSED
waitForElementPresent,Firefox 62.0,,2018-10-18 15:25:28,2018-10-18 15:25:35,6.488s,PASSED
click,Firefox 62.0,,2018-10-18 15:25:35,2018-10-18 15:25:35,0.271s,PASSED
waitForElementVisible,Firefox 62.0,,2018-10-18 15:25:35,2018-10-18 15:25:35,0.199s,PASSED
delay,Firefox 62.0,,2018-10-18 15:25:35,2018-10-18 15:25:40,5.001s,PASSED
click,Firefox 62.0,,2018-10-18 15:25:40,2018-10-18 15:25:41,0.675s,PASSED
waitForElementPresent,Firefox 62.0,,2018-10-18 15:25:41,2018-10-18 15:25:43,2.047s,PASSED
delay,Firefox 62.0,,2018-10-18 15:25:43,2018-10-18 15:25:48,5.007s,PASSED
verifyElementText,Firefox 62.0,,2018-10-18 15:25:48,2018-10-18 15:25:48,0.310s,PASSED
verifyElementPresent,Firefox 62.0,,2018-10-18 15:25:48,2018-10-18 15:25:48,0.024s,PASSED
closeBrowser,Firefox 62.0,,2018-10-18 15:25:48,2018-10-18 15:25:49,0.252s,PASSED
,,,,,,
Test Cases/GETCRAFT/SendTo_phase2_selected_login,Firefox 62.0,,2018-10-18 15:25:49,2018-10-18 15:26:56,1m - 7.743s,FAILED
Statement - RN = <not implemented yet for class: org.codehaus.groovy.ast.expr.EmptyExpression>,Firefox 62.0,,2018-10-18 15:25:49,2018-10-18 15:25:49,0.001s,PASSED
Statement - RN = java.lang.Math.random() * 599,Firefox 62.0,,2018-10-18 15:25:49,2018-10-18 15:25:49,0.001s,PASSED
Statement - name_project = project_name + RN,Firefox 62.0,,2018-10-18 15:25:49,2018-10-18 15:25:49,0.000s,PASSED
openBrowser,Firefox 62.0,,2018-10-18 15:25:49,2018-10-18 15:25:51,2.396s,PASSED
maximizeWindow,Firefox 62.0,,2018-10-18 15:25:51,2018-10-18 15:25:55,3.517s,PASSED
navigateToUrl,Firefox 62.0,,2018-10-18 15:25:55,2018-10-18 15:26:00,5.710s,PASSED
"Statement - If (com.kms.katalon.core.webui.keyword.WebUiBuiltInKeywords.verifyElementVisible(com.kms.katalon.core.testobject.ObjectRepository.findTestObject(Object Repository/GETCRAFT/create_brief/Language_indo), OPTIONAL))",Firefox 62.0,,2018-10-18 15:26:00,2018-10-18 15:26:18,17.550s,PASSED
click,Firefox 62.0,,2018-10-18 15:26:18,2018-10-18 15:26:18,0.511s,PASSED
delay,Firefox 62.0,,2018-10-18 15:26:18,2018-10-18 15:26:23,4.004s,PASSED
waitForElementClickable,Firefox 62.0,,2018-10-18 15:26:23,2018-10-18 15:26:23,0.064s,PASSED
scrollToElement,Firefox 62.0,,2018-10-18 15:26:23,2018-10-18 15:26:23,0.019s,PASSED
click,Firefox 62.0,,2018-10-18 15:26:23,2018-10-18 15:26:23,0.393s,PASSED
click,Firefox 62.0,,2018-10-18 15:26:23,2018-10-18 15:26:23,0.303s,PASSED
click,Firefox 62.0,,2018-10-18 15:26:23,2018-10-18 15:26:56,33.069s,FAILED
,,,,,,
Test Cases/GETCRAFT/SendTo_phase2_selected_loginMultiple,Firefox 62.0,,2018-10-18 15:26:56,2018-10-18 15:28:01,1m - 4.963s,FAILED
Statement - RN = <not implemented yet for class: org.codehaus.groovy.ast.expr.EmptyExpression>,Firefox 62.0,,2018-10-18 15:26:57,2018-10-18 15:26:57,0.000s,PASSED
Statement - RN = java.lang.Math.random() * 599,Firefox 62.0,,2018-10-18 15:26:57,2018-10-18 15:26:57,0.001s,PASSED
Statement - name_project = project_name + RN,Firefox 62.0,,2018-10-18 15:26:57,2018-10-18 15:26:57,0.001s,PASSED
openBrowser,Firefox 62.0,,2018-10-18 15:26:57,2018-10-18 15:26:59,2.715s,PASSED
maximizeWindow,Firefox 62.0,,2018-10-18 15:26:59,2018-10-18 15:27:03,3.525s,PASSED
navigateToUrl,Firefox 62.0,,2018-10-18 15:27:03,2018-10-18 15:27:08,5.208s,PASSED
"Statement - If (com.kms.katalon.core.webui.keyword.WebUiBuiltInKeywords.verifyElementVisible(com.kms.katalon.core.testobject.ObjectRepository.findTestObject(Object Repository/GETCRAFT/create_brief/Language_indo), OPTIONAL))",Firefox 62.0,,2018-10-18 15:27:08,2018-10-18 15:27:23,14.795s,PASSED
click,Firefox 62.0,,2018-10-18 15:27:23,2018-10-18 15:27:23,0.510s,PASSED
delay,Firefox 62.0,,2018-10-18 15:27:23,2018-10-18 15:27:27,4.002s,PASSED
waitForElementClickable,Firefox 62.0,,2018-10-18 15:27:27,2018-10-18 15:27:27,0.131s,PASSED
scrollToElement,Firefox 62.0,,2018-10-18 15:27:27,2018-10-18 15:27:27,0.044s,PASSED
click,Firefox 62.0,,2018-10-18 15:27:27,2018-10-18 15:27:28,0.536s,PASSED
click,Firefox 62.0,,2018-10-18 15:27:28,2018-10-18 15:27:28,0.359s,PASSED
click,Firefox 62.0,,2018-10-18 15:27:28,2018-10-18 15:28:01,32.927s,FAILED
