Suite/Test/Step Name,Browser,Description,Start time,End time,Duration,Status
Forstok Tes,Chrome 67.0.3396.99,,2018-07-19 14:06:14,2018-07-19 14:12:20,6m - 6.495s,FAILED
,,,,,,
Test Cases/FORSTOK/Login,Chrome 67.0.3396.99,,2018-07-19 14:06:15,2018-07-19 14:07:29,1m - 14.040s,PASSED
openBrowser,Chrome 67.0.3396.99,,2018-07-19 14:06:16,2018-07-19 14:06:50,34.784s,PASSED
click,Chrome 67.0.3396.99,,2018-07-19 14:06:50,2018-07-19 14:07:02,11.582s,PASSED
setText,Chrome 67.0.3396.99,,2018-07-19 14:07:02,2018-07-19 14:07:04,1.641s,PASSED
setText,Chrome 67.0.3396.99,,2018-07-19 14:07:04,2018-07-19 14:07:04,0.380s,PASSED
sendKeys,Chrome 67.0.3396.99,,2018-07-19 14:07:04,2018-07-19 14:07:26,22.313s,PASSED
verifyElementVisible,Chrome 67.0.3396.99,,2018-07-19 14:07:26,2018-07-19 14:07:26,0.133s,PASSED
waitForPageLoad,Chrome 67.0.3396.99,,2018-07-19 14:07:26,2018-07-19 14:07:29,2.388s,PASSED
,,,,,,
Test Cases/FORSTOK/Print Order Lazada,Chrome 67.0.3396.99,,2018-07-19 14:07:29,2018-07-19 14:08:33,1m - 4.235s,PASSED
openBrowser,Chrome 67.0.3396.99,,2018-07-19 14:07:30,2018-07-19 14:07:44,13.115s,PASSED
maximizeWindow,Chrome 67.0.3396.99,,2018-07-19 14:07:44,2018-07-19 14:07:45,1.535s,PASSED
navigateToUrl,Chrome 67.0.3396.99,,2018-07-19 14:07:45,2018-07-19 14:07:49,4.237s,PASSED
click,Chrome 67.0.3396.99,,2018-07-19 14:07:49,2018-07-19 14:07:54,5.128s,PASSED
setText,Chrome 67.0.3396.99,,2018-07-19 14:07:54,2018-07-19 14:07:55,0.281s,PASSED
setText,Chrome 67.0.3396.99,,2018-07-19 14:07:55,2018-07-19 14:07:55,0.275s,PASSED
click,Chrome 67.0.3396.99,,2018-07-19 14:07:55,2018-07-19 14:07:57,1.838s,PASSED
click,Chrome 67.0.3396.99,,2018-07-19 14:07:57,2018-07-19 14:08:04,6.769s,PASSED
waitForPageLoad,Chrome 67.0.3396.99,,2018-07-19 14:08:04,2018-07-19 14:08:04,0.019s,PASSED
click,Chrome 67.0.3396.99,,2018-07-19 14:08:04,2018-07-19 14:08:04,0.155s,PASSED
click,Chrome 67.0.3396.99,,2018-07-19 14:08:04,2018-07-19 14:08:04,0.116s,PASSED
click,Chrome 67.0.3396.99,,2018-07-19 14:08:04,2018-07-19 14:08:04,0.111s,PASSED
click,Chrome 67.0.3396.99,,2018-07-19 14:08:04,2018-07-19 14:08:04,0.144s,PASSED
click,Chrome 67.0.3396.99,,2018-07-19 14:08:04,2018-07-19 14:08:04,0.249s,PASSED
click,Chrome 67.0.3396.99,,2018-07-19 14:08:04,2018-07-19 14:08:05,0.100s,PASSED
waitForElementPresent,Chrome 67.0.3396.99,,2018-07-19 14:08:05,2018-07-19 14:08:05,0.576s,PASSED
click,Chrome 67.0.3396.99,,2018-07-19 14:08:05,2018-07-19 14:08:05,0.064s,PASSED
Statement - orderID = com.kms.katalon.core.webui.keyword.WebUiBuiltInKeywords.getText(com.kms.katalon.core.testobject.ObjectRepository.findTestObject(FORSTOK/get order id)),Chrome 67.0.3396.99,,2018-07-19 14:08:05,2018-07-19 14:08:06,1.166s,PASSED
Statement - println(orderID),Chrome 67.0.3396.99,,2018-07-19 14:08:06,2018-07-19 14:08:06,0.015s,PASSED
click,Chrome 67.0.3396.99,,2018-07-19 14:08:06,2018-07-19 14:08:06,0.091s,PASSED
click,Chrome 67.0.3396.99,,2018-07-19 14:08:06,2018-07-19 14:08:07,0.171s,PASSED
selectOptionByValue,Chrome 67.0.3396.99,,2018-07-19 14:08:07,2018-07-19 14:08:07,0.352s,PASSED
click,Chrome 67.0.3396.99,,2018-07-19 14:08:07,2018-07-19 14:08:07,0.163s,PASSED
delay,Chrome 67.0.3396.99,,2018-07-19 14:08:07,2018-07-19 14:08:19,12.049s,PASSED
closeWindowTitle,Chrome 67.0.3396.99,,2018-07-19 14:08:19,2018-07-19 14:08:19,0.001s,NOT_RUN
delay,Chrome 67.0.3396.99,,2018-07-19 14:08:19,2018-07-19 14:08:19,0.005s,NOT_RUN
back,Chrome 67.0.3396.99,,2018-07-19 14:08:19,2018-07-19 14:08:19,0.090s,PASSED
back,Chrome 67.0.3396.99,,2018-07-19 14:08:19,2018-07-19 14:08:20,0.469s,PASSED
click,Chrome 67.0.3396.99,,2018-07-19 14:08:20,2018-07-19 14:08:26,6.482s,PASSED
click,Chrome 67.0.3396.99,,2018-07-19 14:08:26,2018-07-19 14:08:26,0.000s,NOT_RUN
click,Chrome 67.0.3396.99,,2018-07-19 14:08:26,2018-07-19 14:08:26,0.001s,NOT_RUN
setText,Chrome 67.0.3396.99,,2018-07-19 14:08:26,2018-07-19 14:08:27,0.281s,PASSED
waitForElementNotPresent,Chrome 67.0.3396.99,,2018-07-19 14:08:27,2018-07-19 14:08:27,0.402s,PASSED
verifyElementText,Chrome 67.0.3396.99,,2018-07-19 14:08:27,2018-07-19 14:08:28,0.706s,PASSED
waitForPageLoad,Chrome 67.0.3396.99,,2018-07-19 14:08:28,2018-07-19 14:08:28,0.010s,PASSED
delay,Chrome 67.0.3396.99,,2018-07-19 14:08:28,2018-07-19 14:08:32,4.004s,PASSED
closeBrowser,Chrome 67.0.3396.99,,2018-07-19 14:08:32,2018-07-19 14:08:33,1.404s,PASSED
,,,,,,
Test Cases/FORSTOK/Print Order JD,Chrome 67.0.3396.99,,2018-07-19 14:08:33,2018-07-19 14:09:48,1m - 15.319s,PASSED
callTestCase,Chrome 67.0.3396.99,,2018-07-19 14:08:33,2018-07-19 14:09:03,29.407s,PASSED
click,Chrome 67.0.3396.99,,2018-07-19 14:09:03,2018-07-19 14:09:12,9.648s,PASSED
waitForPageLoad,Chrome 67.0.3396.99,,2018-07-19 14:09:12,2018-07-19 14:09:12,0.006s,PASSED
click,Chrome 67.0.3396.99,,2018-07-19 14:09:12,2018-07-19 14:09:12,0.071s,PASSED
click,Chrome 67.0.3396.99,,2018-07-19 14:09:12,2018-07-19 14:09:13,0.073s,PASSED
click,Chrome 67.0.3396.99,,2018-07-19 14:09:13,2018-07-19 14:09:13,0.093s,PASSED
click,Chrome 67.0.3396.99,,2018-07-19 14:09:13,2018-07-19 14:09:13,0.102s,PASSED
click,Chrome 67.0.3396.99,,2018-07-19 14:09:13,2018-07-19 14:09:13,0.096s,PASSED
click,Chrome 67.0.3396.99,,2018-07-19 14:09:13,2018-07-19 14:09:13,0.071s,PASSED
waitForElementPresent,Chrome 67.0.3396.99,,2018-07-19 14:09:13,2018-07-19 14:09:15,1.663s,PASSED
click,Chrome 67.0.3396.99,,2018-07-19 14:09:15,2018-07-19 14:09:15,0.145s,PASSED
Statement - orderID = com.kms.katalon.core.webui.keyword.WebUiBuiltInKeywords.getText(com.kms.katalon.core.testobject.ObjectRepository.findTestObject(FORSTOK/get order id)),Chrome 67.0.3396.99,,2018-07-19 14:09:15,2018-07-19 14:09:15,0.590s,PASSED
Statement - println(orderID),Chrome 67.0.3396.99,,2018-07-19 14:09:15,2018-07-19 14:09:15,0.001s,PASSED
click,Chrome 67.0.3396.99,,2018-07-19 14:09:15,2018-07-19 14:09:15,0.070s,PASSED
click,Chrome 67.0.3396.99,,2018-07-19 14:09:15,2018-07-19 14:09:16,0.141s,PASSED
click,Chrome 67.0.3396.99,,2018-07-19 14:09:16,2018-07-19 14:09:16,0.103s,PASSED
delay,Chrome 67.0.3396.99,,2018-07-19 14:09:16,2018-07-19 14:09:28,12.002s,PASSED
back,Chrome 67.0.3396.99,,2018-07-19 14:09:28,2018-07-19 14:09:28,0.024s,PASSED
back,Chrome 67.0.3396.99,,2018-07-19 14:09:28,2018-07-19 14:09:28,0.442s,PASSED
click,Chrome 67.0.3396.99,,2018-07-19 14:09:28,2018-07-19 14:09:40,11.954s,PASSED
setText,Chrome 67.0.3396.99,,2018-07-19 14:09:40,2018-07-19 14:09:40,0.182s,PASSED
delay,Chrome 67.0.3396.99,,2018-07-19 14:09:40,2018-07-19 14:09:43,3.002s,PASSED
verifyElementText,Chrome 67.0.3396.99,,2018-07-19 14:09:43,2018-07-19 14:09:43,0.075s,PASSED
waitForPageLoad,Chrome 67.0.3396.99,,2018-07-19 14:09:43,2018-07-19 14:09:43,0.006s,PASSED
delay,Chrome 67.0.3396.99,,2018-07-19 14:09:43,2018-07-19 14:09:47,4.002s,PASSED
closeBrowser,Chrome 67.0.3396.99,,2018-07-19 14:09:47,2018-07-19 14:09:48,1.082s,PASSED
,,,,,,
Test Cases/FORSTOK/Fullfill Lazada,Chrome 67.0.3396.99,,2018-07-19 14:09:48,2018-07-19 14:11:37,1m - 48.884s,FAILED
callTestCase,Chrome 67.0.3396.99,,2018-07-19 14:09:49,2018-07-19 14:10:10,21.080s,PASSED
click,Chrome 67.0.3396.99,,2018-07-19 14:10:10,2018-07-19 14:10:23,13.600s,PASSED
waitForPageLoad,Chrome 67.0.3396.99,,2018-07-19 14:10:23,2018-07-19 14:10:23,0.007s,PASSED
click,Chrome 67.0.3396.99,,2018-07-19 14:10:23,2018-07-19 14:10:28,5.121s,PASSED
click,Chrome 67.0.3396.99,,2018-07-19 14:10:28,2018-07-19 14:10:33,5.096s,PASSED
click,Chrome 67.0.3396.99,,2018-07-19 14:10:33,2018-07-19 14:10:39,5.139s,PASSED
click,Chrome 67.0.3396.99,,2018-07-19 14:10:39,2018-07-19 14:10:44,5.189s,PASSED
click,Chrome 67.0.3396.99,,2018-07-19 14:10:44,2018-07-19 14:10:49,5.114s,PASSED
click,Chrome 67.0.3396.99,,2018-07-19 14:10:49,2018-07-19 14:10:54,5.188s,PASSED
waitForElementPresent,Chrome 67.0.3396.99,,2018-07-19 14:10:54,2018-07-19 14:11:05,10.511s,PASSED
click,Chrome 67.0.3396.99,,2018-07-19 14:11:05,2018-07-19 14:11:37,32.678s,FAILED
,,,,,,
Test Cases/FORSTOK/Fullfill JD,Chrome 67.0.3396.99,,2018-07-19 14:11:37,2018-07-19 14:12:20,42.385s,PASSED
callTestCase,Chrome 67.0.3396.99,,2018-07-19 14:11:38,2018-07-19 14:11:54,16.399s,PASSED
click,Chrome 67.0.3396.99,,2018-07-19 14:11:54,2018-07-19 14:12:00,6.072s,PASSED
waitForPageLoad,Chrome 67.0.3396.99,,2018-07-19 14:12:00,2018-07-19 14:12:00,0.014s,PASSED
click,Chrome 67.0.3396.99,,2018-07-19 14:12:00,2018-07-19 14:12:00,0.070s,PASSED
click,Chrome 67.0.3396.99,,2018-07-19 14:12:00,2018-07-19 14:12:00,0.086s,PASSED
click,Chrome 67.0.3396.99,,2018-07-19 14:12:00,2018-07-19 14:12:00,0.089s,PASSED
click,Chrome 67.0.3396.99,,2018-07-19 14:12:00,2018-07-19 14:12:00,0.090s,PASSED
click,Chrome 67.0.3396.99,,2018-07-19 14:12:00,2018-07-19 14:12:00,0.088s,PASSED
click,Chrome 67.0.3396.99,,2018-07-19 14:12:00,2018-07-19 14:12:01,0.133s,PASSED
waitForElementPresent,Chrome 67.0.3396.99,,2018-07-19 14:12:01,2018-07-19 14:12:02,1.675s,PASSED
click,Chrome 67.0.3396.99,,2018-07-19 14:12:02,2018-07-19 14:12:02,0.082s,PASSED
Statement - orderID = com.kms.katalon.core.webui.keyword.WebUiBuiltInKeywords.getText(com.kms.katalon.core.testobject.ObjectRepository.findTestObject(FORSTOK/get order id)),Chrome 67.0.3396.99,,2018-07-19 14:12:02,2018-07-19 14:12:03,0.559s,PASSED
Statement - println(orderID),Chrome 67.0.3396.99,,2018-07-19 14:12:03,2018-07-19 14:12:03,0.001s,PASSED
click,Chrome 67.0.3396.99,,2018-07-19 14:12:03,2018-07-19 14:12:03,0.338s,PASSED
click,Chrome 67.0.3396.99,,2018-07-19 14:12:03,2018-07-19 14:12:03,0.178s,PASSED
selectOptionByValue,Chrome 67.0.3396.99,,2018-07-19 14:12:03,2018-07-19 14:12:03,0.000s,NOT_RUN
click,Chrome 67.0.3396.99,,2018-07-19 14:12:03,2018-07-19 14:12:04,0.156s,PASSED
waitForElementNotPresent,Chrome 67.0.3396.99,,2018-07-19 14:12:04,2018-07-19 14:12:11,7.780s,PASSED
setText,Chrome 67.0.3396.99,,2018-07-19 14:12:11,2018-07-19 14:12:12,0.211s,PASSED
verifyElementText,Chrome 67.0.3396.99,,2018-07-19 14:12:12,2018-07-19 14:12:13,1.155s,PASSED
delay,Chrome 67.0.3396.99,,2018-07-19 14:12:13,2018-07-19 14:12:19,6.254s,PASSED
closeBrowser,Chrome 67.0.3396.99,,2018-07-19 14:12:19,2018-07-19 14:12:20,0.694s,PASSED
