Suite/Test/Step Name,Browser,Description,Start time,End time,Duration,Status
check,Firefox 61.0,,2018-08-29 15:53:20,2018-08-29 15:53:31,10.170s,PASSED
,,,,,,
Test Cases/GETCRAFT/Create_Brief,Firefox 61.0,,2018-08-29 15:53:21,2018-08-29 15:53:31,9.658s,PASSED
Statement - RN = <not implemented yet for class: org.codehaus.groovy.ast.expr.EmptyExpression>,Firefox 61.0,,2018-08-29 15:53:21,2018-08-29 15:53:21,0.003s,NOT_RUN
Statement - RN = java.lang.Math.random() * 500,Firefox 61.0,,2018-08-29 15:53:21,2018-08-29 15:53:21,0.001s,NOT_RUN
Statement - name_project = project_name + RN,Firefox 61.0,,2018-08-29 15:53:21,2018-08-29 15:53:21,0.001s,NOT_RUN
callTestCase,Firefox 61.0,,2018-08-29 15:53:21,2018-08-29 15:53:21,0.001s,NOT_RUN
delay,Firefox 61.0,,2018-08-29 15:53:21,2018-08-29 15:53:21,0.001s,NOT_RUN
openBrowser,Firefox 61.0,,2018-08-29 15:53:21,2018-08-29 15:53:25,3.761s,PASSED
maximizeWindow,Firefox 61.0,,2018-08-29 15:53:25,2018-08-29 15:53:26,0.373s,PASSED
navigateToUrl,Firefox 61.0,,2018-08-29 15:53:26,2018-08-29 15:53:30,4.609s,PASSED
setText,Firefox 61.0,,2018-08-29 15:53:30,2018-08-29 15:53:30,0.004s,NOT_RUN
setText,Firefox 61.0,,2018-08-29 15:53:30,2018-08-29 15:53:30,0.001s,NOT_RUN
click,Firefox 61.0,,2018-08-29 15:53:30,2018-08-29 15:53:30,0.001s,NOT_RUN
verifyElementPresent,Firefox 61.0,,2018-08-29 15:53:30,2018-08-29 15:53:30,0.001s,NOT_RUN
click,Firefox 61.0,,2018-08-29 15:53:30,2018-08-29 15:53:30,0.001s,NOT_RUN
click,Firefox 61.0,,2018-08-29 15:53:30,2018-08-29 15:53:30,0.006s,NOT_RUN
delay,Firefox 61.0,,2018-08-29 15:53:30,2018-08-29 15:53:30,0.002s,NOT_RUN
waitForElementClickable,Firefox 61.0,,2018-08-29 15:53:30,2018-08-29 15:53:30,0.001s,NOT_RUN
scrollToElement,Firefox 61.0,,2018-08-29 15:53:30,2018-08-29 15:53:30,0.001s,NOT_RUN
click,Firefox 61.0,,2018-08-29 15:53:30,2018-08-29 15:53:30,0.002s,NOT_RUN
click,Firefox 61.0,,2018-08-29 15:53:30,2018-08-29 15:53:30,0.001s,NOT_RUN
click,Firefox 61.0,,2018-08-29 15:53:30,2018-08-29 15:53:30,0.002s,NOT_RUN
setText,Firefox 61.0,,2018-08-29 15:53:30,2018-08-29 15:53:30,0.001s,NOT_RUN
setText,Firefox 61.0,,2018-08-29 15:53:30,2018-08-29 15:53:30,0.002s,NOT_RUN
setText,Firefox 61.0,,2018-08-29 15:53:30,2018-08-29 15:53:30,0.002s,NOT_RUN
setText,Firefox 61.0,,2018-08-29 15:53:30,2018-08-29 15:53:30,0.001s,NOT_RUN
scrollToElement,Firefox 61.0,,2018-08-29 15:53:30,2018-08-29 15:53:30,0.003s,NOT_RUN
uploadFiles.uploadFile,Firefox 61.0,,2018-08-29 15:53:30,2018-08-29 15:53:30,0.001s,NOT_RUN
Statement - java.lang.Thread.sleep(2000),Firefox 61.0,,2018-08-29 15:53:30,2018-08-29 15:53:30,0.007s,NOT_RUN
waitForElementClickable,Firefox 61.0,,2018-08-29 15:53:30,2018-08-29 15:53:30,0.001s,NOT_RUN
click,Firefox 61.0,,2018-08-29 15:53:30,2018-08-29 15:53:30,0.001s,NOT_RUN
delay,Firefox 61.0,,2018-08-29 15:53:30,2018-08-29 15:53:30,0.002s,NOT_RUN
click,Firefox 61.0,,2018-08-29 15:53:30,2018-08-29 15:53:30,0.001s,NOT_RUN
setText,Firefox 61.0,,2018-08-29 15:53:30,2018-08-29 15:53:30,0.001s,NOT_RUN
click,Firefox 61.0,,2018-08-29 15:53:30,2018-08-29 15:53:30,0.001s,NOT_RUN
click,Firefox 61.0,,2018-08-29 15:53:30,2018-08-29 15:53:30,0.002s,NOT_RUN
scrollToElement,Firefox 61.0,,2018-08-29 15:53:30,2018-08-29 15:53:30,0.001s,NOT_RUN
delay,Firefox 61.0,,2018-08-29 15:53:30,2018-08-29 15:53:30,0.001s,NOT_RUN
click,Firefox 61.0,,2018-08-29 15:53:30,2018-08-29 15:53:30,0.001s,NOT_RUN
click,Firefox 61.0,,2018-08-29 15:53:30,2018-08-29 15:53:30,0.001s,NOT_RUN
waitForElementClickable,Firefox 61.0,,2018-08-29 15:53:30,2018-08-29 15:53:30,0.002s,NOT_RUN
click,Firefox 61.0,,2018-08-29 15:53:30,2018-08-29 15:53:30,0.001s,NOT_RUN
delay,Firefox 61.0,,2018-08-29 15:53:30,2018-08-29 15:53:30,0.001s,NOT_RUN
click,Firefox 61.0,,2018-08-29 15:53:30,2018-08-29 15:53:30,0.001s,NOT_RUN
waitForElementPresent,Firefox 61.0,,2018-08-29 15:53:30,2018-08-29 15:53:30,0.001s,NOT_RUN
verifyElementPresent,Firefox 61.0,,2018-08-29 15:53:30,2018-08-29 15:53:30,0.000s,NOT_RUN
delay,Firefox 61.0,,2018-08-29 15:53:30,2018-08-29 15:53:30,0.001s,NOT_RUN
closeBrowser,Firefox 61.0,,2018-08-29 15:53:30,2018-08-29 15:53:31,0.214s,PASSED
