Suite/Test/Step Name,Browser,Description,Start time,End time,Duration,Status
TES,Chrome 67.0.3396.99,,2018-07-12 18:13:53,2018-07-12 18:17:21,3m - 27.884s,FAILED
,,,,,,
Test Cases/FORSTOK/Print Order JD,Chrome 67.0.3396.99,,2018-07-12 18:13:53,2018-07-12 18:14:37,43.481s,FAILED
openBrowser,Chrome 67.0.3396.99,,2018-07-12 18:13:54,2018-07-12 18:13:59,4.924s,PASSED
maximizeWindow,Chrome 67.0.3396.99,,2018-07-12 18:13:59,2018-07-12 18:14:00,1.154s,PASSED
navigateToUrl,Chrome 67.0.3396.99,,2018-07-12 18:14:00,2018-07-12 18:14:05,4.331s,PASSED
click,Chrome 67.0.3396.99,,2018-07-12 18:14:05,2018-07-12 18:14:09,4.376s,PASSED
setText,Chrome 67.0.3396.99,,2018-07-12 18:14:09,2018-07-12 18:14:09,0.204s,PASSED
setText,Chrome 67.0.3396.99,,2018-07-12 18:14:09,2018-07-12 18:14:09,0.202s,PASSED
click,Chrome 67.0.3396.99,,2018-07-12 18:14:09,2018-07-12 18:14:27,17.230s,PASSED
click,Chrome 67.0.3396.99,,2018-07-12 18:14:27,2018-07-12 18:14:34,7.268s,PASSED
waitForPageLoad,Chrome 67.0.3396.99,,2018-07-12 18:14:34,2018-07-12 18:14:34,0.087s,PASSED
click,Chrome 67.0.3396.99,,2018-07-12 18:14:34,2018-07-12 18:14:34,0.240s,PASSED
click,Chrome 67.0.3396.99,,2018-07-12 18:14:34,2018-07-12 18:14:34,0.172s,PASSED
click,Chrome 67.0.3396.99,,2018-07-12 18:14:34,2018-07-12 18:14:34,0.098s,PASSED
click,Chrome 67.0.3396.99,,2018-07-12 18:14:34,2018-07-12 18:14:35,0.119s,PASSED
click,Chrome 67.0.3396.99,,2018-07-12 18:14:35,2018-07-12 18:14:35,0.082s,PASSED
click,Chrome 67.0.3396.99,,2018-07-12 18:14:35,2018-07-12 18:14:35,0.146s,PASSED
click,Chrome 67.0.3396.99,,2018-07-12 18:14:35,2018-07-12 18:14:37,2.053s,FAILED
,,,,,,
Test Cases/FORSTOK/Print Order Lazada,Chrome 67.0.3396.99,,2018-07-12 18:14:37,2018-07-12 18:15:32,54.928s,PASSED
openBrowser,Chrome 67.0.3396.99,,2018-07-12 18:14:37,2018-07-12 18:14:40,2.809s,PASSED
maximizeWindow,Chrome 67.0.3396.99,,2018-07-12 18:14:40,2018-07-12 18:14:41,1.128s,PASSED
navigateToUrl,Chrome 67.0.3396.99,,2018-07-12 18:14:41,2018-07-12 18:14:44,2.915s,PASSED
click,Chrome 67.0.3396.99,,2018-07-12 18:14:44,2018-07-12 18:14:47,3.443s,PASSED
setText,Chrome 67.0.3396.99,,2018-07-12 18:14:47,2018-07-12 18:14:48,0.159s,PASSED
setText,Chrome 67.0.3396.99,,2018-07-12 18:14:48,2018-07-12 18:14:48,0.118s,PASSED
click,Chrome 67.0.3396.99,,2018-07-12 18:14:48,2018-07-12 18:14:51,3.017s,PASSED
click,Chrome 67.0.3396.99,,2018-07-12 18:14:51,2018-07-12 18:14:58,7.699s,PASSED
waitForPageLoad,Chrome 67.0.3396.99,,2018-07-12 18:14:58,2018-07-12 18:14:58,0.050s,PASSED
click,Chrome 67.0.3396.99,,2018-07-12 18:14:58,2018-07-12 18:14:59,0.135s,PASSED
click,Chrome 67.0.3396.99,,2018-07-12 18:14:59,2018-07-12 18:14:59,0.092s,PASSED
click,Chrome 67.0.3396.99,,2018-07-12 18:14:59,2018-07-12 18:14:59,0.120s,PASSED
click,Chrome 67.0.3396.99,,2018-07-12 18:14:59,2018-07-12 18:14:59,0.132s,PASSED
click,Chrome 67.0.3396.99,,2018-07-12 18:14:59,2018-07-12 18:14:59,0.129s,PASSED
click,Chrome 67.0.3396.99,,2018-07-12 18:14:59,2018-07-12 18:14:59,0.088s,PASSED
click,Chrome 67.0.3396.99,,2018-07-12 18:14:59,2018-07-12 18:15:00,0.711s,PASSED
Statement - orderID = com.kms.katalon.core.webui.keyword.WebUiBuiltInKeywords.getText(com.kms.katalon.core.testobject.ObjectRepository.findTestObject(FORSTOK/get order id)),Chrome 67.0.3396.99,,2018-07-12 18:15:00,2018-07-12 18:15:00,0.569s,PASSED
Statement - println(orderID),Chrome 67.0.3396.99,,2018-07-12 18:15:00,2018-07-12 18:15:00,0.003s,PASSED
click,Chrome 67.0.3396.99,,2018-07-12 18:15:00,2018-07-12 18:15:01,0.100s,PASSED
click,Chrome 67.0.3396.99,,2018-07-12 18:15:01,2018-07-12 18:15:01,0.399s,PASSED
selectOptionByValue,Chrome 67.0.3396.99,,2018-07-12 18:15:01,2018-07-12 18:15:01,0.468s,PASSED
click,Chrome 67.0.3396.99,,2018-07-12 18:15:01,2018-07-12 18:15:02,0.207s,PASSED
delay,Chrome 67.0.3396.99,,2018-07-12 18:15:02,2018-07-12 18:15:16,14.018s,PASSED
closeWindowTitle,Chrome 67.0.3396.99,,2018-07-12 18:15:16,2018-07-12 18:15:16,0.002s,NOT_RUN
delay,Chrome 67.0.3396.99,,2018-07-12 18:15:16,2018-07-12 18:15:16,0.001s,NOT_RUN
back,Chrome 67.0.3396.99,,2018-07-12 18:15:16,2018-07-12 18:15:16,0.049s,PASSED
back,Chrome 67.0.3396.99,,2018-07-12 18:15:16,2018-07-12 18:15:16,0.779s,PASSED
click,Chrome 67.0.3396.99,,2018-07-12 18:15:16,2018-07-12 18:15:23,6.675s,PASSED
click,Chrome 67.0.3396.99,,2018-07-12 18:15:23,2018-07-12 18:15:23,0.001s,NOT_RUN
click,Chrome 67.0.3396.99,,2018-07-12 18:15:23,2018-07-12 18:15:23,0.001s,NOT_RUN
setText,Chrome 67.0.3396.99,,2018-07-12 18:15:23,2018-07-12 18:15:24,0.718s,PASSED
verifyElementText,Chrome 67.0.3396.99,,2018-07-12 18:15:24,2018-07-12 18:15:24,0.185s,PASSED
waitForPageLoad,Chrome 67.0.3396.99,,2018-07-12 18:15:24,2018-07-12 18:15:24,0.006s,PASSED
delay,Chrome 67.0.3396.99,,2018-07-12 18:15:24,2018-07-12 18:15:30,6.001s,PASSED
closeBrowser,Chrome 67.0.3396.99,,2018-07-12 18:15:30,2018-07-12 18:15:32,1.699s,PASSED
,,,,,,
Test Cases/FORSTOK/Fullfill Lazada,Chrome 67.0.3396.99,,2018-07-12 18:15:32,2018-07-12 18:16:35,1m - 3.078s,PASSED
openBrowser,Chrome 67.0.3396.99,,2018-07-12 18:15:32,2018-07-12 18:15:35,2.965s,PASSED
maximizeWindow,Chrome 67.0.3396.99,,2018-07-12 18:15:35,2018-07-12 18:15:36,1.176s,PASSED
navigateToUrl,Chrome 67.0.3396.99,,2018-07-12 18:15:36,2018-07-12 18:15:41,5.046s,PASSED
click,Chrome 67.0.3396.99,,2018-07-12 18:15:41,2018-07-12 18:15:46,5.103s,PASSED
setText,Chrome 67.0.3396.99,,2018-07-12 18:15:46,2018-07-12 18:15:46,0.159s,PASSED
setText,Chrome 67.0.3396.99,,2018-07-12 18:15:46,2018-07-12 18:15:47,0.208s,PASSED
click,Chrome 67.0.3396.99,,2018-07-12 18:15:47,2018-07-12 18:15:59,11.846s,PASSED
click,Chrome 67.0.3396.99,,2018-07-12 18:15:59,2018-07-12 18:16:11,12.051s,PASSED
waitForPageLoad,Chrome 67.0.3396.99,,2018-07-12 18:16:11,2018-07-12 18:16:11,0.009s,PASSED
click,Chrome 67.0.3396.99,,2018-07-12 18:16:11,2018-07-12 18:16:11,0.104s,PASSED
click,Chrome 67.0.3396.99,,2018-07-12 18:16:11,2018-07-12 18:16:11,0.099s,PASSED
click,Chrome 67.0.3396.99,,2018-07-12 18:16:11,2018-07-12 18:16:11,0.132s,PASSED
click,Chrome 67.0.3396.99,,2018-07-12 18:16:11,2018-07-12 18:16:11,0.087s,PASSED
click,Chrome 67.0.3396.99,,2018-07-12 18:16:11,2018-07-12 18:16:11,0.078s,PASSED
click,Chrome 67.0.3396.99,,2018-07-12 18:16:11,2018-07-12 18:16:11,0.121s,PASSED
click,Chrome 67.0.3396.99,,2018-07-12 18:16:11,2018-07-12 18:16:12,0.595s,PASSED
Statement - orderID = com.kms.katalon.core.webui.keyword.WebUiBuiltInKeywords.getText(com.kms.katalon.core.testobject.ObjectRepository.findTestObject(FORSTOK/get order id)),Chrome 67.0.3396.99,,2018-07-12 18:16:12,2018-07-12 18:16:12,0.550s,PASSED
Statement - println(orderID),Chrome 67.0.3396.99,,2018-07-12 18:16:12,2018-07-12 18:16:12,0.001s,PASSED
click,Chrome 67.0.3396.99,,2018-07-12 18:16:12,2018-07-12 18:16:12,0.122s,PASSED
click,Chrome 67.0.3396.99,,2018-07-12 18:16:12,2018-07-12 18:16:13,0.231s,PASSED
selectOptionByValue,Chrome 67.0.3396.99,,2018-07-12 18:16:13,2018-07-12 18:16:13,0.304s,PASSED
click,Chrome 67.0.3396.99,,2018-07-12 18:16:13,2018-07-12 18:16:13,0.083s,PASSED
waitForElementNotPresent,Chrome 67.0.3396.99,,2018-07-12 18:16:13,2018-07-12 18:16:27,13.785s,PASSED
setText,Chrome 67.0.3396.99,,2018-07-12 18:16:27,2018-07-12 18:16:27,0.353s,PASSED
verifyElementText,Chrome 67.0.3396.99,,2018-07-12 18:16:27,2018-07-12 18:16:27,0.203s,PASSED
delay,Chrome 67.0.3396.99,,2018-07-12 18:16:27,2018-07-12 18:16:33,6.002s,PASSED
closeBrowser,Chrome 67.0.3396.99,,2018-07-12 18:16:33,2018-07-12 18:16:35,1.419s,PASSED
,,,,,,
Test Cases/FORSTOK/Fullfill JD,Chrome 67.0.3396.99,,2018-07-12 18:16:35,2018-07-12 18:17:21,45.797s,PASSED
openBrowser,Chrome 67.0.3396.99,,2018-07-12 18:16:35,2018-07-12 18:16:38,2.726s,PASSED
maximizeWindow,Chrome 67.0.3396.99,,2018-07-12 18:16:38,2018-07-12 18:16:39,1.133s,PASSED
navigateToUrl,Chrome 67.0.3396.99,,2018-07-12 18:16:39,2018-07-12 18:16:41,2.338s,PASSED
click,Chrome 67.0.3396.99,,2018-07-12 18:16:41,2018-07-12 18:16:45,3.939s,PASSED
setText,Chrome 67.0.3396.99,,2018-07-12 18:16:45,2018-07-12 18:16:46,0.378s,PASSED
setText,Chrome 67.0.3396.99,,2018-07-12 18:16:46,2018-07-12 18:16:46,0.127s,PASSED
click,Chrome 67.0.3396.99,,2018-07-12 18:16:46,2018-07-12 18:16:55,9.422s,PASSED
click,Chrome 67.0.3396.99,,2018-07-12 18:16:55,2018-07-12 18:17:02,6.487s,PASSED
waitForPageLoad,Chrome 67.0.3396.99,,2018-07-12 18:17:02,2018-07-12 18:17:02,0.009s,PASSED
click,Chrome 67.0.3396.99,,2018-07-12 18:17:02,2018-07-12 18:17:02,0.114s,PASSED
click,Chrome 67.0.3396.99,,2018-07-12 18:17:02,2018-07-12 18:17:02,0.116s,PASSED
click,Chrome 67.0.3396.99,,2018-07-12 18:17:02,2018-07-12 18:17:02,0.076s,PASSED
click,Chrome 67.0.3396.99,,2018-07-12 18:17:02,2018-07-12 18:17:02,0.091s,PASSED
click,Chrome 67.0.3396.99,,2018-07-12 18:17:02,2018-07-12 18:17:02,0.083s,PASSED
click,Chrome 67.0.3396.99,,2018-07-12 18:17:02,2018-07-12 18:17:02,0.088s,PASSED
click,Chrome 67.0.3396.99,,2018-07-12 18:17:02,2018-07-12 18:17:03,1.229s,PASSED
Statement - orderID = com.kms.katalon.core.webui.keyword.WebUiBuiltInKeywords.getText(com.kms.katalon.core.testobject.ObjectRepository.findTestObject(FORSTOK/get order id)),Chrome 67.0.3396.99,,2018-07-12 18:17:03,2018-07-12 18:17:04,0.571s,PASSED
Statement - println(orderID),Chrome 67.0.3396.99,,2018-07-12 18:17:04,2018-07-12 18:17:04,0.000s,PASSED
click,Chrome 67.0.3396.99,,2018-07-12 18:17:04,2018-07-12 18:17:04,0.112s,PASSED
click,Chrome 67.0.3396.99,,2018-07-12 18:17:04,2018-07-12 18:17:04,0.183s,PASSED
selectOptionByValue,Chrome 67.0.3396.99,,2018-07-12 18:17:04,2018-07-12 18:17:04,0.001s,NOT_RUN
click,Chrome 67.0.3396.99,,2018-07-12 18:17:04,2018-07-12 18:17:04,0.104s,PASSED
waitForElementNotPresent,Chrome 67.0.3396.99,,2018-07-12 18:17:04,2018-07-12 18:17:14,9.324s,PASSED
setText,Chrome 67.0.3396.99,,2018-07-12 18:17:14,2018-07-12 18:17:14,0.185s,PASSED
verifyElementText,Chrome 67.0.3396.99,,2018-07-12 18:17:14,2018-07-12 18:17:14,0.038s,PASSED
delay,Chrome 67.0.3396.99,,2018-07-12 18:17:14,2018-07-12 18:17:20,6.002s,PASSED
closeBrowser,Chrome 67.0.3396.99,,2018-07-12 18:17:20,2018-07-12 18:17:21,0.717s,PASSED
