Suite/Test/Step Name,Browser,Description,Start time,End time,Duration,Status
check,Firefox 61.0,,2018-08-30 16:06:59,2018-08-30 16:07:09,9.728s,PASSED
,,,,,,
Test Cases/GETCRAFT/Create_Brief,Firefox 61.0,,2018-08-30 16:07:00,2018-08-30 16:07:09,9.192s,PASSED
Statement - RN = <not implemented yet for class: org.codehaus.groovy.ast.expr.EmptyExpression>,Firefox 61.0,,2018-08-30 16:07:00,2018-08-30 16:07:00,0.002s,NOT_RUN
Statement - RN = java.lang.Math.random() * 500,Firefox 61.0,,2018-08-30 16:07:00,2018-08-30 16:07:00,0.025s,NOT_RUN
Statement - name_project = project_name + RN,Firefox 61.0,,2018-08-30 16:07:00,2018-08-30 16:07:00,0.001s,NOT_RUN
callTestCase,Firefox 61.0,,2018-08-30 16:07:00,2018-08-30 16:07:00,0.001s,NOT_RUN
delay,Firefox 61.0,,2018-08-30 16:07:00,2018-08-30 16:07:00,0.001s,NOT_RUN
openBrowser,Firefox 61.0,,2018-08-30 16:07:00,2018-08-30 16:07:03,3.101s,PASSED
maximizeWindow,Firefox 61.0,,2018-08-30 16:07:03,2018-08-30 16:07:04,0.334s,PASSED
navigateToUrl,Firefox 61.0,,2018-08-30 16:07:04,2018-08-30 16:07:08,4.787s,PASSED
setText,Firefox 61.0,,2018-08-30 16:07:08,2018-08-30 16:07:08,0.003s,NOT_RUN
setText,Firefox 61.0,,2018-08-30 16:07:08,2018-08-30 16:07:08,0.002s,NOT_RUN
click,Firefox 61.0,,2018-08-30 16:07:08,2018-08-30 16:07:08,0.002s,NOT_RUN
verifyElementPresent,Firefox 61.0,,2018-08-30 16:07:08,2018-08-30 16:07:08,0.007s,NOT_RUN
click,Firefox 61.0,,2018-08-30 16:07:08,2018-08-30 16:07:08,0.005s,NOT_RUN
click,Firefox 61.0,,2018-08-30 16:07:08,2018-08-30 16:07:08,0.002s,NOT_RUN
delay,Firefox 61.0,,2018-08-30 16:07:08,2018-08-30 16:07:08,0.021s,NOT_RUN
waitForElementClickable,Firefox 61.0,,2018-08-30 16:07:08,2018-08-30 16:07:08,0.002s,NOT_RUN
scrollToElement,Firefox 61.0,,2018-08-30 16:07:08,2018-08-30 16:07:08,0.002s,NOT_RUN
click,Firefox 61.0,,2018-08-30 16:07:08,2018-08-30 16:07:08,0.002s,NOT_RUN
click,Firefox 61.0,,2018-08-30 16:07:08,2018-08-30 16:07:08,0.002s,NOT_RUN
click,Firefox 61.0,,2018-08-30 16:07:08,2018-08-30 16:07:08,0.001s,NOT_RUN
setText,Firefox 61.0,,2018-08-30 16:07:08,2018-08-30 16:07:08,0.001s,NOT_RUN
setText,Firefox 61.0,,2018-08-30 16:07:08,2018-08-30 16:07:08,0.001s,NOT_RUN
setText,Firefox 61.0,,2018-08-30 16:07:08,2018-08-30 16:07:08,0.001s,NOT_RUN
setText,Firefox 61.0,,2018-08-30 16:07:08,2018-08-30 16:07:08,0.001s,NOT_RUN
scrollToElement,Firefox 61.0,,2018-08-30 16:07:08,2018-08-30 16:07:08,0.001s,NOT_RUN
uploadFiles.uploadFile,Firefox 61.0,,2018-08-30 16:07:08,2018-08-30 16:07:08,0.001s,NOT_RUN
Statement - java.lang.Thread.sleep(2000),Firefox 61.0,,2018-08-30 16:07:08,2018-08-30 16:07:08,0.001s,NOT_RUN
waitForElementClickable,Firefox 61.0,,2018-08-30 16:07:08,2018-08-30 16:07:08,0.002s,NOT_RUN
click,Firefox 61.0,,2018-08-30 16:07:08,2018-08-30 16:07:08,0.004s,NOT_RUN
delay,Firefox 61.0,,2018-08-30 16:07:08,2018-08-30 16:07:08,0.001s,NOT_RUN
click,Firefox 61.0,,2018-08-30 16:07:08,2018-08-30 16:07:08,0.001s,NOT_RUN
setText,Firefox 61.0,,2018-08-30 16:07:08,2018-08-30 16:07:08,0.001s,NOT_RUN
click,Firefox 61.0,,2018-08-30 16:07:08,2018-08-30 16:07:08,0.001s,NOT_RUN
click,Firefox 61.0,,2018-08-30 16:07:08,2018-08-30 16:07:08,0.001s,NOT_RUN
scrollToElement,Firefox 61.0,,2018-08-30 16:07:08,2018-08-30 16:07:08,0.001s,NOT_RUN
delay,Firefox 61.0,,2018-08-30 16:07:08,2018-08-30 16:07:08,0.002s,NOT_RUN
click,Firefox 61.0,,2018-08-30 16:07:08,2018-08-30 16:07:08,0.002s,NOT_RUN
click,Firefox 61.0,,2018-08-30 16:07:08,2018-08-30 16:07:08,0.001s,NOT_RUN
waitForElementClickable,Firefox 61.0,,2018-08-30 16:07:08,2018-08-30 16:07:08,0.001s,NOT_RUN
click,Firefox 61.0,,2018-08-30 16:07:08,2018-08-30 16:07:08,0.002s,NOT_RUN
delay,Firefox 61.0,,2018-08-30 16:07:08,2018-08-30 16:07:08,0.002s,NOT_RUN
click,Firefox 61.0,,2018-08-30 16:07:08,2018-08-30 16:07:08,0.001s,NOT_RUN
waitForElementPresent,Firefox 61.0,,2018-08-30 16:07:08,2018-08-30 16:07:08,0.001s,NOT_RUN
verifyElementPresent,Firefox 61.0,,2018-08-30 16:07:08,2018-08-30 16:07:08,0.001s,NOT_RUN
delay,Firefox 61.0,,2018-08-30 16:07:08,2018-08-30 16:07:08,0.001s,NOT_RUN
closeBrowser,Firefox 61.0,,2018-08-30 16:07:08,2018-08-30 16:07:09,0.221s,PASSED
