Suite/Test/Step Name,Browser,Description,Start time,End time,Duration,Status
check,Firefox 61.0,,2018-08-30 17:28:47,2018-08-30 17:28:57,9.445s,PASSED
,,,,,,
Test Cases/GETCRAFT/Create_Brief,Firefox 61.0,,2018-08-30 17:28:47,2018-08-30 17:28:57,9.086s,PASSED
Statement - RN = <not implemented yet for class: org.codehaus.groovy.ast.expr.EmptyExpression>,Firefox 61.0,,2018-08-30 17:28:48,2018-08-30 17:28:48,0.003s,NOT_RUN
Statement - RN = java.lang.Math.random() * 500,Firefox 61.0,,2018-08-30 17:28:48,2018-08-30 17:28:48,0.007s,NOT_RUN
Statement - name_project = project_name + RN,Firefox 61.0,,2018-08-30 17:28:48,2018-08-30 17:28:48,0.001s,NOT_RUN
callTestCase,Firefox 61.0,,2018-08-30 17:28:48,2018-08-30 17:28:48,0.002s,NOT_RUN
delay,Firefox 61.0,,2018-08-30 17:28:48,2018-08-30 17:28:48,0.003s,NOT_RUN
openBrowser,Firefox 61.0,,2018-08-30 17:28:48,2018-08-30 17:28:52,4.492s,PASSED
maximizeWindow,Firefox 61.0,,2018-08-30 17:28:52,2018-08-30 17:28:53,0.402s,PASSED
navigateToUrl,Firefox 61.0,,2018-08-30 17:28:53,2018-08-30 17:28:56,3.259s,PASSED
setText,Firefox 61.0,,2018-08-30 17:28:56,2018-08-30 17:28:56,0.003s,NOT_RUN
setText,Firefox 61.0,,2018-08-30 17:28:56,2018-08-30 17:28:56,0.002s,NOT_RUN
click,Firefox 61.0,,2018-08-30 17:28:56,2018-08-30 17:28:56,0.006s,NOT_RUN
verifyElementPresent,Firefox 61.0,,2018-08-30 17:28:56,2018-08-30 17:28:56,0.002s,NOT_RUN
click,Firefox 61.0,,2018-08-30 17:28:56,2018-08-30 17:28:56,0.004s,NOT_RUN
click,Firefox 61.0,,2018-08-30 17:28:56,2018-08-30 17:28:56,0.003s,NOT_RUN
delay,Firefox 61.0,,2018-08-30 17:28:56,2018-08-30 17:28:56,0.004s,NOT_RUN
waitForElementClickable,Firefox 61.0,,2018-08-30 17:28:56,2018-08-30 17:28:56,0.002s,NOT_RUN
scrollToElement,Firefox 61.0,,2018-08-30 17:28:56,2018-08-30 17:28:56,0.005s,NOT_RUN
click,Firefox 61.0,,2018-08-30 17:28:56,2018-08-30 17:28:56,0.003s,NOT_RUN
click,Firefox 61.0,,2018-08-30 17:28:56,2018-08-30 17:28:56,0.002s,NOT_RUN
click,Firefox 61.0,,2018-08-30 17:28:56,2018-08-30 17:28:56,0.001s,NOT_RUN
setText,Firefox 61.0,,2018-08-30 17:28:56,2018-08-30 17:28:56,0.001s,NOT_RUN
setText,Firefox 61.0,,2018-08-30 17:28:56,2018-08-30 17:28:56,0.001s,NOT_RUN
setText,Firefox 61.0,,2018-08-30 17:28:56,2018-08-30 17:28:56,0.003s,NOT_RUN
setText,Firefox 61.0,,2018-08-30 17:28:56,2018-08-30 17:28:56,0.004s,NOT_RUN
scrollToElement,Firefox 61.0,,2018-08-30 17:28:56,2018-08-30 17:28:56,0.002s,NOT_RUN
uploadFiles.uploadFile,Firefox 61.0,,2018-08-30 17:28:56,2018-08-30 17:28:56,0.001s,NOT_RUN
Statement - java.lang.Thread.sleep(2000),Firefox 61.0,,2018-08-30 17:28:56,2018-08-30 17:28:56,0.004s,NOT_RUN
waitForElementClickable,Firefox 61.0,,2018-08-30 17:28:56,2018-08-30 17:28:56,0.001s,NOT_RUN
click,Firefox 61.0,,2018-08-30 17:28:56,2018-08-30 17:28:56,0.001s,NOT_RUN
delay,Firefox 61.0,,2018-08-30 17:28:56,2018-08-30 17:28:56,0.001s,NOT_RUN
click,Firefox 61.0,,2018-08-30 17:28:56,2018-08-30 17:28:56,0.007s,NOT_RUN
setText,Firefox 61.0,,2018-08-30 17:28:56,2018-08-30 17:28:56,0.002s,NOT_RUN
click,Firefox 61.0,,2018-08-30 17:28:56,2018-08-30 17:28:56,0.002s,NOT_RUN
click,Firefox 61.0,,2018-08-30 17:28:56,2018-08-30 17:28:56,0.001s,NOT_RUN
scrollToElement,Firefox 61.0,,2018-08-30 17:28:56,2018-08-30 17:28:56,0.002s,NOT_RUN
delay,Firefox 61.0,,2018-08-30 17:28:56,2018-08-30 17:28:56,0.002s,NOT_RUN
click,Firefox 61.0,,2018-08-30 17:28:56,2018-08-30 17:28:56,0.007s,NOT_RUN
click,Firefox 61.0,,2018-08-30 17:28:56,2018-08-30 17:28:56,0.002s,NOT_RUN
waitForElementClickable,Firefox 61.0,,2018-08-30 17:28:56,2018-08-30 17:28:56,0.002s,NOT_RUN
click,Firefox 61.0,,2018-08-30 17:28:56,2018-08-30 17:28:56,0.001s,NOT_RUN
delay,Firefox 61.0,,2018-08-30 17:28:56,2018-08-30 17:28:56,0.001s,NOT_RUN
click,Firefox 61.0,,2018-08-30 17:28:56,2018-08-30 17:28:56,0.001s,NOT_RUN
waitForElementPresent,Firefox 61.0,,2018-08-30 17:28:56,2018-08-30 17:28:56,0.002s,NOT_RUN
verifyElementPresent,Firefox 61.0,,2018-08-30 17:28:56,2018-08-30 17:28:56,0.001s,NOT_RUN
delay,Firefox 61.0,,2018-08-30 17:28:56,2018-08-30 17:28:56,0.001s,NOT_RUN
closeBrowser,Firefox 61.0,,2018-08-30 17:28:56,2018-08-30 17:28:57,0.398s,PASSED
