Suite/Test/Step Name,Browser,Description,Start time,End time,Duration,Status
GETCRAFT_PROD,Firefox 64.0,,2018-12-20 11:40:25,2018-12-20 11:44:50,4m - 24.425s,PASSED
,,,,,,
Test Cases/Getcraft_Prod/Login-Akses my project,Firefox 64.0,,2018-12-20 11:40:26,2018-12-20 11:40:59,32.833s,PASSED
Statement - RN = <not implemented yet for class: org.codehaus.groovy.ast.expr.EmptyExpression>,Firefox 64.0,,2018-12-20 11:40:27,2018-12-20 11:40:27,0.007s,PASSED
Statement - RN = java.lang.Math.random() * 999,Firefox 64.0,,2018-12-20 11:40:27,2018-12-20 11:40:27,0.014s,PASSED
Statement - mailinator = email + RN,Firefox 64.0,,2018-12-20 11:40:27,2018-12-20 11:40:27,0.001s,PASSED
Statement - user = email + RN + domain,Firefox 64.0,,2018-12-20 11:40:27,2018-12-20 11:40:27,0.000s,PASSED
Statement - firstname = name + RN,Firefox 64.0,,2018-12-20 11:40:27,2018-12-20 11:40:27,0.002s,PASSED
Statement - lastname = name2 + RN,Firefox 64.0,,2018-12-20 11:40:27,2018-12-20 11:40:27,0.001s,PASSED
Statement - Phone = phonenumber + RN,Firefox 64.0,,2018-12-20 11:40:27,2018-12-20 11:40:27,0.000s,PASSED
Statement - println(user),Firefox 64.0,,2018-12-20 11:40:27,2018-12-20 11:40:27,0.009s,PASSED
openBrowser,Firefox 64.0,,2018-12-20 11:40:27,2018-12-20 11:40:34,6.569s,PASSED
maximizeWindow,Firefox 64.0,,2018-12-20 11:40:34,2018-12-20 11:40:37,3.613s,PASSED
navigateToUrl,Firefox 64.0,,2018-12-20 11:40:37,2018-12-20 11:40:48,11.357s,PASSED
"Statement - If (com.kms.katalon.core.webui.keyword.WebUiBuiltInKeywords.verifyElementVisible(com.kms.katalon.core.testobject.ObjectRepository.findTestObject(Object Repository/GETCRAFT/create_brief/Language_indo), OPTIONAL))",Firefox 64.0,,2018-12-20 11:40:48,2018-12-20 11:40:49,0.218s,PASSED
Statement - Else,Firefox 64.0,,2018-12-20 11:40:49,2018-12-20 11:40:52,3.089s,PASSED
waitForElementClickable,Firefox 64.0,,2018-12-20 11:40:52,2018-12-20 11:40:52,0.074s,PASSED
click,Firefox 64.0,,2018-12-20 11:40:52,2018-12-20 11:40:52,0.417s,PASSED
setText,Firefox 64.0,,2018-12-20 11:40:52,2018-12-20 11:40:53,0.272s,PASSED
setText,Firefox 64.0,,2018-12-20 11:40:53,2018-12-20 11:40:53,0.188s,PASSED
click,Firefox 64.0,,2018-12-20 11:40:53,2018-12-20 11:40:53,0.324s,PASSED
verifyElementPresent,Firefox 64.0,,2018-12-20 11:40:53,2018-12-20 11:40:58,4.874s,PASSED
closeBrowser,Firefox 64.0,,2018-12-20 11:40:58,2018-12-20 11:40:59,0.823s,PASSED
,,,,,,
Test Cases/Getcraft_Prod/Change_Workspace,Firefox 64.0,,2018-12-20 11:40:59,2018-12-20 11:41:33,33.954s,PASSED
Statement - RN = <not implemented yet for class: org.codehaus.groovy.ast.expr.EmptyExpression>,Firefox 64.0,,2018-12-20 11:40:59,2018-12-20 11:40:59,0.001s,PASSED
Statement - RN = java.lang.Math.random() * 599,Firefox 64.0,,2018-12-20 11:40:59,2018-12-20 11:40:59,0.001s,PASSED
Statement - name_project = project_name + RN,Firefox 64.0,,2018-12-20 11:40:59,2018-12-20 11:40:59,0.000s,PASSED
openBrowser,Firefox 64.0,,2018-12-20 11:40:59,2018-12-20 11:41:02,2.648s,PASSED
maximizeWindow,Firefox 64.0,,2018-12-20 11:41:02,2018-12-20 11:41:05,3.530s,PASSED
navigateToUrl,Firefox 64.0,,2018-12-20 11:41:05,2018-12-20 11:41:12,6.430s,PASSED
"Statement - If (com.kms.katalon.core.webui.keyword.WebUiBuiltInKeywords.verifyElementVisible(com.kms.katalon.core.testobject.ObjectRepository.findTestObject(Object Repository/GETCRAFT/create_brief/Language_indo), OPTIONAL))",Firefox 64.0,,2018-12-20 11:41:12,2018-12-20 11:41:12,0.725s,PASSED
Statement - Else,Firefox 64.0,,2018-12-20 11:41:12,2018-12-20 11:41:15,3.075s,PASSED
setText,Firefox 64.0,,2018-12-20 11:41:15,2018-12-20 11:41:16,0.295s,PASSED
setText,Firefox 64.0,,2018-12-20 11:41:16,2018-12-20 11:41:16,0.332s,PASSED
click,Firefox 64.0,,2018-12-20 11:41:16,2018-12-20 11:41:16,0.316s,PASSED
verifyElementPresent,Firefox 64.0,,2018-12-20 11:41:16,2018-12-20 11:41:21,5.080s,PASSED
click,Firefox 64.0,,2018-12-20 11:41:21,2018-12-20 11:41:23,1.103s,PASSED
Statement - text = com.kms.katalon.core.webui.keyword.WebUiBuiltInKeywords.getText(com.kms.katalon.core.testobject.ObjectRepository.findTestObject(GETCRAFT/general/select_workspace)),Firefox 64.0,,2018-12-20 11:41:23,2018-12-20 11:41:23,0.171s,PASSED
click,Firefox 64.0,,2018-12-20 11:41:23,2018-12-20 11:41:23,0.499s,PASSED
delay,Firefox 64.0,,2018-12-20 11:41:23,2018-12-20 11:41:28,5.078s,PASSED
verifyElementText,Firefox 64.0,,2018-12-20 11:41:28,2018-12-20 11:41:28,0.147s,PASSED
delay,Firefox 64.0,,2018-12-20 11:41:28,2018-12-20 11:41:32,3.075s,PASSED
closeBrowser,Firefox 64.0,,2018-12-20 11:41:32,2018-12-20 11:41:33,1.228s,PASSED
,,,,,,
Test Cases/Getcraft_Prod/Create_BriefSelected(DRAFT),Firefox 64.0,,2018-12-20 11:41:33,2018-12-20 11:42:19,46.164s,PASSED
Statement - RN = <not implemented yet for class: org.codehaus.groovy.ast.expr.EmptyExpression>,Firefox 64.0,,2018-12-20 11:41:33,2018-12-20 11:41:33,0.005s,PASSED
Statement - RN = java.lang.Math.random() * 599,Firefox 64.0,,2018-12-20 11:41:33,2018-12-20 11:41:33,0.001s,PASSED
Statement - name_project = project_name + RN,Firefox 64.0,,2018-12-20 11:41:33,2018-12-20 11:41:33,0.001s,PASSED
openBrowser,Firefox 64.0,,2018-12-20 11:41:33,2018-12-20 11:41:37,3.845s,PASSED
maximizeWindow,Firefox 64.0,,2018-12-20 11:41:37,2018-12-20 11:41:41,3.602s,PASSED
navigateToUrl,Firefox 64.0,,2018-12-20 11:41:41,2018-12-20 11:41:47,6.172s,PASSED
"Statement - If (com.kms.katalon.core.webui.keyword.WebUiBuiltInKeywords.verifyElementVisible(com.kms.katalon.core.testobject.ObjectRepository.findTestObject(Object Repository/GETCRAFT/create_brief/Language_indo), OPTIONAL))",Firefox 64.0,,2018-12-20 11:41:47,2018-12-20 11:41:47,0.712s,PASSED
Statement - Else,Firefox 64.0,,2018-12-20 11:41:47,2018-12-20 11:41:50,3.003s,PASSED
setText,Firefox 64.0,,2018-12-20 11:41:50,2018-12-20 11:41:51,0.259s,PASSED
setText,Firefox 64.0,,2018-12-20 11:41:51,2018-12-20 11:41:51,0.121s,PASSED
click,Firefox 64.0,,2018-12-20 11:41:51,2018-12-20 11:41:51,0.276s,PASSED
verifyElementPresent,Firefox 64.0,,2018-12-20 11:41:51,2018-12-20 11:41:56,4.619s,PASSED
click,Firefox 64.0,,2018-12-20 11:41:56,2018-12-20 11:41:57,1.059s,PASSED
click,Firefox 64.0,,2018-12-20 11:41:57,2018-12-20 11:41:57,0.671s,PASSED
delay,Firefox 64.0,,2018-12-20 11:41:57,2018-12-20 11:42:02,4.078s,PASSED
waitForElementClickable,Firefox 64.0,,2018-12-20 11:42:02,2018-12-20 11:42:02,0.066s,PASSED
scrollToElement,Firefox 64.0,,2018-12-20 11:42:02,2018-12-20 11:42:02,0.043s,PASSED
click,Firefox 64.0,,2018-12-20 11:42:02,2018-12-20 11:42:02,0.402s,PASSED
click,Firefox 64.0,,2018-12-20 11:42:02,2018-12-20 11:42:02,0.342s,PASSED
click,Firefox 64.0,,2018-12-20 11:42:02,2018-12-20 11:42:03,0.566s,PASSED
setText,Firefox 64.0,,2018-12-20 11:42:03,2018-12-20 11:42:03,0.463s,PASSED
setText,Firefox 64.0,,2018-12-20 11:42:03,2018-12-20 11:42:04,0.174s,PASSED
setText,Firefox 64.0,,2018-12-20 11:42:04,2018-12-20 11:42:04,0.119s,PASSED
setText,Firefox 64.0,,2018-12-20 11:42:04,2018-12-20 11:42:04,0.113s,PASSED
scrollToElement,Firefox 64.0,,2018-12-20 11:42:04,2018-12-20 11:42:04,0.023s,PASSED
uploadFiles.uploadFile,Firefox 64.0,,2018-12-20 11:42:04,2018-12-20 11:42:04,0.001s,NOT_RUN
Statement - java.lang.Thread.sleep(2000),Firefox 64.0,,2018-12-20 11:42:04,2018-12-20 11:42:04,0.001s,NOT_RUN
waitForElementClickable,Firefox 64.0,,2018-12-20 11:42:04,2018-12-20 11:42:04,0.001s,NOT_RUN
click,Firefox 64.0,,2018-12-20 11:42:04,2018-12-20 11:42:04,0.001s,NOT_RUN
delay,Firefox 64.0,,2018-12-20 11:42:04,2018-12-20 11:42:04,0.001s,NOT_RUN
click,Firefox 64.0,,2018-12-20 11:42:04,2018-12-20 11:42:04,0.293s,PASSED
setText,Firefox 64.0,,2018-12-20 11:42:04,2018-12-20 11:42:04,0.217s,PASSED
click,Firefox 64.0,,2018-12-20 11:42:04,2018-12-20 11:42:05,0.311s,PASSED
click,Firefox 64.0,,2018-12-20 11:42:05,2018-12-20 11:42:05,0.287s,PASSED
scrollToElement,Firefox 64.0,,2018-12-20 11:42:05,2018-12-20 11:42:05,0.021s,PASSED
delay,Firefox 64.0,,2018-12-20 11:42:05,2018-12-20 11:42:08,3.070s,PASSED
click,Firefox 64.0,,2018-12-20 11:42:08,2018-12-20 11:42:09,0.768s,PASSED
waitForElementPresent,Firefox 64.0,,2018-12-20 11:42:09,2018-12-20 11:42:10,1.206s,PASSED
delay,Firefox 64.0,,2018-12-20 11:42:10,2018-12-20 11:42:15,5.003s,PASSED
verifyElementText,Firefox 64.0,,2018-12-20 11:42:15,2018-12-20 11:42:15,0.038s,PASSED
verifyElementPresent,Firefox 64.0,,2018-12-20 11:42:15,2018-12-20 11:42:15,0.026s,PASSED
delay,Firefox 64.0,,2018-12-20 11:42:15,2018-12-20 11:42:18,3.002s,PASSED
closeBrowser,Firefox 64.0,,2018-12-20 11:42:18,2018-12-20 11:42:19,0.785s,PASSED
,,,,,,
Test Cases/Getcraft_Prod/Create_BriefUnselected(DRAFT),Firefox 64.0,,2018-12-20 11:42:19,2018-12-20 11:43:18,58.596s,PASSED
Statement - RN = <not implemented yet for class: org.codehaus.groovy.ast.expr.EmptyExpression>,Firefox 64.0,,2018-12-20 11:42:19,2018-12-20 11:42:19,0.000s,PASSED
Statement - RN = java.lang.Math.random() * 599,Firefox 64.0,,2018-12-20 11:42:19,2018-12-20 11:42:19,0.002s,PASSED
Statement - name_project = project_name + RN,Firefox 64.0,,2018-12-20 11:42:19,2018-12-20 11:42:19,0.001s,PASSED
openBrowser,Firefox 64.0,,2018-12-20 11:42:19,2018-12-20 11:42:22,2.440s,PASSED
maximizeWindow,Firefox 64.0,,2018-12-20 11:42:22,2018-12-20 11:42:25,3.595s,PASSED
navigateToUrl,Firefox 64.0,,2018-12-20 11:42:25,2018-12-20 11:42:31,5.864s,PASSED
"Statement - If (com.kms.katalon.core.webui.keyword.WebUiBuiltInKeywords.verifyElementVisible(com.kms.katalon.core.testobject.ObjectRepository.findTestObject(Object Repository/GETCRAFT/create_brief/Language_indo), OPTIONAL))",Firefox 64.0,,2018-12-20 11:42:31,2018-12-20 11:42:32,0.840s,PASSED
Statement - Else,Firefox 64.0,,2018-12-20 11:42:32,2018-12-20 11:42:35,3.003s,PASSED
setText,Firefox 64.0,,2018-12-20 11:42:35,2018-12-20 11:42:35,0.442s,PASSED
setText,Firefox 64.0,,2018-12-20 11:42:35,2018-12-20 11:42:36,0.185s,PASSED
click,Firefox 64.0,,2018-12-20 11:42:36,2018-12-20 11:42:36,0.303s,PASSED
verifyElementPresent,Firefox 64.0,,2018-12-20 11:42:36,2018-12-20 11:42:42,5.778s,PASSED
click,Firefox 64.0,,2018-12-20 11:42:42,2018-12-20 11:42:43,1.371s,PASSED
delay,Firefox 64.0,,2018-12-20 11:42:43,2018-12-20 11:42:48,5.080s,PASSED
click,Firefox 64.0,,2018-12-20 11:42:48,2018-12-20 11:42:49,0.608s,PASSED
click,Firefox 64.0,,2018-12-20 11:42:49,2018-12-20 11:42:49,0.417s,PASSED
waitForElementClickable,Firefox 64.0,,2018-12-20 11:42:49,2018-12-20 11:42:49,0.001s,NOT_RUN
click,Firefox 64.0,,2018-12-20 11:42:49,2018-12-20 11:42:49,0.372s,PASSED
click,Firefox 64.0,,2018-12-20 11:42:49,2018-12-20 11:42:50,0.405s,PASSED
scrollToElement,Firefox 64.0,,2018-12-20 11:42:50,2018-12-20 11:42:50,0.025s,PASSED
waitForElementClickable,Firefox 64.0,,2018-12-20 11:42:50,2018-12-20 11:42:50,0.049s,PASSED
delay,Firefox 64.0,,2018-12-20 11:42:50,2018-12-20 11:42:52,2.061s,PASSED
click,Firefox 64.0,,2018-12-20 11:42:52,2018-12-20 11:42:53,0.809s,PASSED
click,Firefox 64.0,,2018-12-20 11:42:53,2018-12-20 11:42:53,0.581s,PASSED
click,Firefox 64.0,,2018-12-20 11:42:53,2018-12-20 11:42:54,0.340s,PASSED
waitForElementClickable,Firefox 64.0,,2018-12-20 11:42:54,2018-12-20 11:42:54,0.091s,PASSED
delay,Firefox 64.0,,2018-12-20 11:42:54,2018-12-20 11:42:56,2.167s,PASSED
click,Firefox 64.0,,2018-12-20 11:42:56,2018-12-20 11:42:57,0.588s,PASSED
click,Firefox 64.0,,2018-12-20 11:42:57,2018-12-20 11:42:57,0.423s,PASSED
click,Firefox 64.0,,2018-12-20 11:42:57,2018-12-20 11:42:57,0.461s,PASSED
setText,Firefox 64.0,,2018-12-20 11:42:57,2018-12-20 11:42:59,1.264s,PASSED
setText,Firefox 64.0,,2018-12-20 11:42:59,2018-12-20 11:42:59,0.365s,PASSED
setText,Firefox 64.0,,2018-12-20 11:42:59,2018-12-20 11:43:00,0.481s,PASSED
setText,Firefox 64.0,,2018-12-20 11:43:00,2018-12-20 11:43:00,0.553s,PASSED
scrollToElement,Firefox 64.0,,2018-12-20 11:43:00,2018-12-20 11:43:00,0.115s,PASSED
uploadFiles.uploadFile,Firefox 64.0,,2018-12-20 11:43:00,2018-12-20 11:43:00,0.001s,NOT_RUN
Statement - java.lang.Thread.sleep(2000),Firefox 64.0,,2018-12-20 11:43:00,2018-12-20 11:43:00,0.001s,NOT_RUN
waitForElementClickable,Firefox 64.0,,2018-12-20 11:43:00,2018-12-20 11:43:00,0.001s,NOT_RUN
click,Firefox 64.0,,2018-12-20 11:43:00,2018-12-20 11:43:00,0.000s,NOT_RUN
delay,Firefox 64.0,,2018-12-20 11:43:00,2018-12-20 11:43:00,0.001s,NOT_RUN
click,Firefox 64.0,,2018-12-20 11:43:00,2018-12-20 11:43:01,0.420s,PASSED
setText,Firefox 64.0,,2018-12-20 11:43:01,2018-12-20 11:43:01,0.436s,PASSED
click,Firefox 64.0,,2018-12-20 11:43:01,2018-12-20 11:43:01,0.326s,PASSED
click,Firefox 64.0,,2018-12-20 11:43:01,2018-12-20 11:43:02,0.339s,PASSED
scrollToElement,Firefox 64.0,,2018-12-20 11:43:02,2018-12-20 11:43:02,0.021s,PASSED
delay,Firefox 64.0,,2018-12-20 11:43:02,2018-12-20 11:43:05,3.077s,PASSED
click,Firefox 64.0,,2018-12-20 11:43:05,2018-12-20 11:43:05,0.347s,PASSED
waitForElementPresent,Firefox 64.0,,2018-12-20 11:43:05,2018-12-20 11:43:08,2.828s,PASSED
delay,Firefox 64.0,,2018-12-20 11:43:08,2018-12-20 11:43:13,5.003s,PASSED
verifyElementText,Firefox 64.0,,2018-12-20 11:43:13,2018-12-20 11:43:13,0.067s,PASSED
verifyElementPresent,Firefox 64.0,,2018-12-20 11:43:13,2018-12-20 11:43:13,0.032s,PASSED
delay,Firefox 64.0,,2018-12-20 11:43:13,2018-12-20 11:43:16,3.065s,PASSED
closeBrowser,Firefox 64.0,,2018-12-20 11:43:16,2018-12-20 11:43:18,1.285s,PASSED
,,,,,,
Test Cases/Getcraft_Prod/Brief_phase2_selected_loginMultiple ,Firefox 64.0,,2018-12-20 11:43:18,2018-12-20 11:44:20,1m - 2.053s,PASSED
Statement - RN = <not implemented yet for class: org.codehaus.groovy.ast.expr.EmptyExpression>,Firefox 64.0,,2018-12-20 11:43:18,2018-12-20 11:43:18,0.001s,PASSED
Statement - RN = java.lang.Math.random() * 599,Firefox 64.0,,2018-12-20 11:43:18,2018-12-20 11:43:18,0.001s,PASSED
Statement - name_project = project_name + RN,Firefox 64.0,,2018-12-20 11:43:18,2018-12-20 11:43:18,0.001s,PASSED
openBrowser,Firefox 64.0,,2018-12-20 11:43:18,2018-12-20 11:43:20,2.355s,PASSED
maximizeWindow,Firefox 64.0,,2018-12-20 11:43:20,2018-12-20 11:43:24,3.537s,PASSED
navigateToUrl,Firefox 64.0,,2018-12-20 11:43:24,2018-12-20 11:43:34,10.590s,PASSED
"Statement - If (com.kms.katalon.core.webui.keyword.WebUiBuiltInKeywords.verifyElementVisible(com.kms.katalon.core.testobject.ObjectRepository.findTestObject(Object Repository/GETCRAFT/create_brief/Language_indo), OPTIONAL))",Firefox 64.0,,2018-12-20 11:43:34,2018-12-20 11:43:35,0.148s,PASSED
Statement - Else,Firefox 64.0,,2018-12-20 11:43:35,2018-12-20 11:43:38,3.008s,PASSED
click,Firefox 64.0,,2018-12-20 11:43:38,2018-12-20 11:43:38,0.561s,PASSED
delay,Firefox 64.0,,2018-12-20 11:43:38,2018-12-20 11:43:43,5.070s,PASSED
waitForElementClickable,Firefox 64.0,,2018-12-20 11:43:43,2018-12-20 11:43:43,0.075s,PASSED
scrollToElement,Firefox 64.0,,2018-12-20 11:43:43,2018-12-20 11:43:43,0.024s,PASSED
click,Firefox 64.0,,2018-12-20 11:43:43,2018-12-20 11:43:44,0.502s,PASSED
click,Firefox 64.0,,2018-12-20 11:43:44,2018-12-20 11:43:44,0.460s,PASSED
click,Firefox 64.0,,2018-12-20 11:43:44,2018-12-20 11:43:45,0.656s,PASSED
delay,Firefox 64.0,,2018-12-20 11:43:45,2018-12-20 11:43:47,2.002s,PASSED
setText,Firefox 64.0,,2018-12-20 11:43:47,2018-12-20 11:43:47,0.483s,PASSED
setText,Firefox 64.0,,2018-12-20 11:43:47,2018-12-20 11:43:48,0.215s,PASSED
setText,Firefox 64.0,,2018-12-20 11:43:48,2018-12-20 11:43:48,0.179s,PASSED
setText,Firefox 64.0,,2018-12-20 11:43:48,2018-12-20 11:43:48,0.154s,PASSED
scrollToElement,Firefox 64.0,,2018-12-20 11:43:48,2018-12-20 11:43:48,0.034s,PASSED
click,Firefox 64.0,,2018-12-20 11:43:48,2018-12-20 11:43:48,0.314s,PASSED
setText,Firefox 64.0,,2018-12-20 11:43:48,2018-12-20 11:43:48,0.201s,PASSED
click,Firefox 64.0,,2018-12-20 11:43:48,2018-12-20 11:43:49,0.301s,PASSED
click,Firefox 64.0,,2018-12-20 11:43:49,2018-12-20 11:43:49,0.315s,PASSED
scrollToElement,Firefox 64.0,,2018-12-20 11:43:49,2018-12-20 11:43:49,0.032s,PASSED
delay,Firefox 64.0,,2018-12-20 11:43:49,2018-12-20 11:43:52,3.001s,PASSED
click,Firefox 64.0,,2018-12-20 11:43:52,2018-12-20 11:43:52,0.342s,PASSED
scrollToElement,Firefox 64.0,,2018-12-20 11:43:52,2018-12-20 11:43:53,0.026s,PASSED
delay,Firefox 64.0,,2018-12-20 11:43:53,2018-12-20 11:43:56,3.001s,PASSED
click,Firefox 64.0,,2018-12-20 11:43:56,2018-12-20 11:43:56,0.344s,PASSED
setText,Firefox 64.0,,2018-12-20 11:43:56,2018-12-20 11:43:56,0.373s,PASSED
delay,Firefox 64.0,,2018-12-20 11:43:56,2018-12-20 11:43:59,3.076s,PASSED
setText,Firefox 64.0,,2018-12-20 11:43:59,2018-12-20 11:44:00,0.229s,PASSED
delay,Firefox 64.0,,2018-12-20 11:44:00,2018-12-20 11:44:05,5.075s,PASSED
click,Firefox 64.0,,2018-12-20 11:44:05,2018-12-20 11:44:05,0.299s,PASSED
waitForElementPresent,Firefox 64.0,,2018-12-20 11:44:05,2018-12-20 11:44:06,1.112s,PASSED
click,Firefox 64.0,,2018-12-20 11:44:06,2018-12-20 11:44:06,0.300s,PASSED
click,Firefox 64.0,,2018-12-20 11:44:06,2018-12-20 11:44:07,0.315s,PASSED
waitForElementPresent,Firefox 64.0,,2018-12-20 11:44:07,2018-12-20 11:44:13,6.065s,PASSED
delay,Firefox 64.0,,2018-12-20 11:44:13,2018-12-20 11:44:16,3.073s,PASSED
verifyElementText,Firefox 64.0,,2018-12-20 11:44:16,2018-12-20 11:44:16,0.065s,PASSED
verifyElementPresent,Firefox 64.0,,2018-12-20 11:44:16,2018-12-20 11:44:16,0.029s,PASSED
delay,Firefox 64.0,,2018-12-20 11:44:16,2018-12-20 11:44:19,3.002s,PASSED
closeBrowser,Firefox 64.0,,2018-12-20 11:44:19,2018-12-20 11:44:20,0.690s,PASSED
,,,,,,
Test Cases/Getcraft_Prod/OpenProject_Draft,Firefox 64.0,,2018-12-20 11:44:20,2018-12-20 11:44:50,30.030s,PASSED
Statement - RN = <not implemented yet for class: org.codehaus.groovy.ast.expr.EmptyExpression>,Firefox 64.0,,2018-12-20 11:44:20,2018-12-20 11:44:20,0.001s,PASSED
Statement - RN = java.lang.Math.random() * 599,Firefox 64.0,,2018-12-20 11:44:20,2018-12-20 11:44:20,0.001s,PASSED
Statement - name_project = project_name + RN,Firefox 64.0,,2018-12-20 11:44:20,2018-12-20 11:44:20,0.000s,PASSED
openBrowser,Firefox 64.0,,2018-12-20 11:44:20,2018-12-20 11:44:22,2.321s,PASSED
maximizeWindow,Firefox 64.0,,2018-12-20 11:44:22,2018-12-20 11:44:26,3.695s,PASSED
navigateToUrl,Firefox 64.0,,2018-12-20 11:44:26,2018-12-20 11:44:32,6.214s,PASSED
"Statement - If (com.kms.katalon.core.webui.keyword.WebUiBuiltInKeywords.verifyElementVisible(com.kms.katalon.core.testobject.ObjectRepository.findTestObject(Object Repository/GETCRAFT/create_brief/Language_indo), OPTIONAL))",Firefox 64.0,,2018-12-20 11:44:32,2018-12-20 11:44:33,1.229s,PASSED
Statement - Else,Firefox 64.0,,2018-12-20 11:44:33,2018-12-20 11:44:36,3.067s,PASSED
setText,Firefox 64.0,,2018-12-20 11:44:36,2018-12-20 11:44:37,0.296s,PASSED
setText,Firefox 64.0,,2018-12-20 11:44:37,2018-12-20 11:44:37,0.147s,PASSED
click,Firefox 64.0,,2018-12-20 11:44:37,2018-12-20 11:44:37,0.338s,PASSED
verifyElementPresent,Firefox 64.0,,2018-12-20 11:44:37,2018-12-20 11:44:42,4.980s,PASSED
click,Firefox 64.0,,2018-12-20 11:44:42,2018-12-20 11:44:43,1.053s,PASSED
click,Firefox 64.0,,2018-12-20 11:44:43,2018-12-20 11:44:44,0.947s,PASSED
delay,Firefox 64.0,,2018-12-20 11:44:44,2018-12-20 11:44:48,4.015s,PASSED
waitForElementPresent,Firefox 64.0,,2018-12-20 11:44:48,2018-12-20 11:44:48,0.087s,PASSED
verifyElementText,Firefox 64.0,,2018-12-20 11:44:48,2018-12-20 11:44:48,0.080s,PASSED
closeBrowser,Firefox 64.0,,2018-12-20 11:44:48,2018-12-20 11:44:50,1.162s,PASSED
