Suite/Test/Step Name,Browser,Description,Start time,End time,Duration,Status
check,Firefox 61.0,,2018-08-31 11:55:59,2018-08-31 11:56:26,26.685s,PASSED
,,,,,,
Test Cases/GETCRAFT/Create_Brief,Firefox 61.0,,2018-08-31 11:56:00,2018-08-31 11:56:26,26.208s,PASSED
Statement - RN = <not implemented yet for class: org.codehaus.groovy.ast.expr.EmptyExpression>,Firefox 61.0,,2018-08-31 11:56:00,2018-08-31 11:56:00,0.004s,NOT_RUN
Statement - RN = java.lang.Math.random() * 500,Firefox 61.0,,2018-08-31 11:56:00,2018-08-31 11:56:00,0.003s,NOT_RUN
Statement - name_project = project_name + RN,Firefox 61.0,,2018-08-31 11:56:00,2018-08-31 11:56:00,0.003s,NOT_RUN
callTestCase,Firefox 61.0,,2018-08-31 11:56:00,2018-08-31 11:56:00,0.001s,NOT_RUN
delay,Firefox 61.0,,2018-08-31 11:56:00,2018-08-31 11:56:00,0.002s,NOT_RUN
openBrowser,Firefox 61.0,,2018-08-31 11:56:00,2018-08-31 11:56:04,3.365s,PASSED
maximizeWindow,Firefox 61.0,,2018-08-31 11:56:04,2018-08-31 11:56:04,0.382s,PASSED
navigateToUrl,Firefox 61.0,,2018-08-31 11:56:04,2018-08-31 11:56:26,21.459s,PASSED
setText,Firefox 61.0,,2018-08-31 11:56:26,2018-08-31 11:56:26,0.005s,NOT_RUN
setText,Firefox 61.0,,2018-08-31 11:56:26,2018-08-31 11:56:26,0.002s,NOT_RUN
click,Firefox 61.0,,2018-08-31 11:56:26,2018-08-31 11:56:26,0.003s,NOT_RUN
verifyElementPresent,Firefox 61.0,,2018-08-31 11:56:26,2018-08-31 11:56:26,0.002s,NOT_RUN
click,Firefox 61.0,,2018-08-31 11:56:26,2018-08-31 11:56:26,0.001s,NOT_RUN
click,Firefox 61.0,,2018-08-31 11:56:26,2018-08-31 11:56:26,0.005s,NOT_RUN
delay,Firefox 61.0,,2018-08-31 11:56:26,2018-08-31 11:56:26,0.006s,NOT_RUN
waitForElementClickable,Firefox 61.0,,2018-08-31 11:56:26,2018-08-31 11:56:26,0.002s,NOT_RUN
scrollToElement,Firefox 61.0,,2018-08-31 11:56:26,2018-08-31 11:56:26,0.002s,NOT_RUN
click,Firefox 61.0,,2018-08-31 11:56:26,2018-08-31 11:56:26,0.001s,NOT_RUN
click,Firefox 61.0,,2018-08-31 11:56:26,2018-08-31 11:56:26,0.004s,NOT_RUN
click,Firefox 61.0,,2018-08-31 11:56:26,2018-08-31 11:56:26,0.002s,NOT_RUN
setText,Firefox 61.0,,2018-08-31 11:56:26,2018-08-31 11:56:26,0.002s,NOT_RUN
setText,Firefox 61.0,,2018-08-31 11:56:26,2018-08-31 11:56:26,0.001s,NOT_RUN
setText,Firefox 61.0,,2018-08-31 11:56:26,2018-08-31 11:56:26,0.001s,NOT_RUN
setText,Firefox 61.0,,2018-08-31 11:56:26,2018-08-31 11:56:26,0.001s,NOT_RUN
scrollToElement,Firefox 61.0,,2018-08-31 11:56:26,2018-08-31 11:56:26,0.001s,NOT_RUN
uploadFiles.uploadFile,Firefox 61.0,,2018-08-31 11:56:26,2018-08-31 11:56:26,0.001s,NOT_RUN
Statement - java.lang.Thread.sleep(2000),Firefox 61.0,,2018-08-31 11:56:26,2018-08-31 11:56:26,0.003s,NOT_RUN
waitForElementClickable,Firefox 61.0,,2018-08-31 11:56:26,2018-08-31 11:56:26,0.002s,NOT_RUN
click,Firefox 61.0,,2018-08-31 11:56:26,2018-08-31 11:56:26,0.001s,NOT_RUN
delay,Firefox 61.0,,2018-08-31 11:56:26,2018-08-31 11:56:26,0.001s,NOT_RUN
click,Firefox 61.0,,2018-08-31 11:56:26,2018-08-31 11:56:26,0.001s,NOT_RUN
setText,Firefox 61.0,,2018-08-31 11:56:26,2018-08-31 11:56:26,0.001s,NOT_RUN
click,Firefox 61.0,,2018-08-31 11:56:26,2018-08-31 11:56:26,0.001s,NOT_RUN
click,Firefox 61.0,,2018-08-31 11:56:26,2018-08-31 11:56:26,0.001s,NOT_RUN
scrollToElement,Firefox 61.0,,2018-08-31 11:56:26,2018-08-31 11:56:26,0.001s,NOT_RUN
delay,Firefox 61.0,,2018-08-31 11:56:26,2018-08-31 11:56:26,0.001s,NOT_RUN
click,Firefox 61.0,,2018-08-31 11:56:26,2018-08-31 11:56:26,0.002s,NOT_RUN
click,Firefox 61.0,,2018-08-31 11:56:26,2018-08-31 11:56:26,0.001s,NOT_RUN
waitForElementClickable,Firefox 61.0,,2018-08-31 11:56:26,2018-08-31 11:56:26,0.001s,NOT_RUN
click,Firefox 61.0,,2018-08-31 11:56:26,2018-08-31 11:56:26,0.007s,NOT_RUN
delay,Firefox 61.0,,2018-08-31 11:56:26,2018-08-31 11:56:26,0.002s,NOT_RUN
click,Firefox 61.0,,2018-08-31 11:56:26,2018-08-31 11:56:26,0.001s,NOT_RUN
waitForElementPresent,Firefox 61.0,,2018-08-31 11:56:26,2018-08-31 11:56:26,0.002s,NOT_RUN
verifyElementPresent,Firefox 61.0,,2018-08-31 11:56:26,2018-08-31 11:56:26,0.001s,NOT_RUN
delay,Firefox 61.0,,2018-08-31 11:56:26,2018-08-31 11:56:26,0.001s,NOT_RUN
closeBrowser,Firefox 61.0,,2018-08-31 11:56:26,2018-08-31 11:56:26,0.227s,PASSED
