Suite/Test/Step Name,Browser,Description,Start time,End time,Duration,Status
check,Firefox 61.0,,2018-08-30 15:53:22,2018-08-30 15:53:31,9.415s,PASSED
,,,,,,
Test Cases/GETCRAFT/Create_Brief,Firefox 61.0,,2018-08-30 15:53:23,2018-08-30 15:53:31,8.900s,PASSED
Statement - RN = <not implemented yet for class: org.codehaus.groovy.ast.expr.EmptyExpression>,Firefox 61.0,,2018-08-30 15:53:23,2018-08-30 15:53:23,0.002s,NOT_RUN
Statement - RN = java.lang.Math.random() * 500,Firefox 61.0,,2018-08-30 15:53:23,2018-08-30 15:53:23,0.002s,NOT_RUN
Statement - name_project = project_name + RN,Firefox 61.0,,2018-08-30 15:53:23,2018-08-30 15:53:23,0.010s,NOT_RUN
callTestCase,Firefox 61.0,,2018-08-30 15:53:23,2018-08-30 15:53:23,0.002s,NOT_RUN
delay,Firefox 61.0,,2018-08-30 15:53:23,2018-08-30 15:53:23,0.002s,NOT_RUN
openBrowser,Firefox 61.0,,2018-08-30 15:53:23,2018-08-30 15:53:26,3.229s,PASSED
maximizeWindow,Firefox 61.0,,2018-08-30 15:53:26,2018-08-30 15:53:27,0.406s,PASSED
navigateToUrl,Firefox 61.0,,2018-08-30 15:53:27,2018-08-30 15:53:31,4.414s,PASSED
setText,Firefox 61.0,,2018-08-30 15:53:31,2018-08-30 15:53:31,0.002s,NOT_RUN
setText,Firefox 61.0,,2018-08-30 15:53:31,2018-08-30 15:53:31,0.001s,NOT_RUN
click,Firefox 61.0,,2018-08-30 15:53:31,2018-08-30 15:53:31,0.001s,NOT_RUN
verifyElementPresent,Firefox 61.0,,2018-08-30 15:53:31,2018-08-30 15:53:31,0.003s,NOT_RUN
click,Firefox 61.0,,2018-08-30 15:53:31,2018-08-30 15:53:31,0.002s,NOT_RUN
click,Firefox 61.0,,2018-08-30 15:53:31,2018-08-30 15:53:31,0.001s,NOT_RUN
delay,Firefox 61.0,,2018-08-30 15:53:31,2018-08-30 15:53:31,0.004s,NOT_RUN
waitForElementClickable,Firefox 61.0,,2018-08-30 15:53:31,2018-08-30 15:53:31,0.001s,NOT_RUN
scrollToElement,Firefox 61.0,,2018-08-30 15:53:31,2018-08-30 15:53:31,0.001s,NOT_RUN
click,Firefox 61.0,,2018-08-30 15:53:31,2018-08-30 15:53:31,0.001s,NOT_RUN
click,Firefox 61.0,,2018-08-30 15:53:31,2018-08-30 15:53:31,0.003s,NOT_RUN
click,Firefox 61.0,,2018-08-30 15:53:31,2018-08-30 15:53:31,0.001s,NOT_RUN
setText,Firefox 61.0,,2018-08-30 15:53:31,2018-08-30 15:53:31,0.002s,NOT_RUN
setText,Firefox 61.0,,2018-08-30 15:53:31,2018-08-30 15:53:31,0.001s,NOT_RUN
setText,Firefox 61.0,,2018-08-30 15:53:31,2018-08-30 15:53:31,0.001s,NOT_RUN
setText,Firefox 61.0,,2018-08-30 15:53:31,2018-08-30 15:53:31,0.002s,NOT_RUN
scrollToElement,Firefox 61.0,,2018-08-30 15:53:31,2018-08-30 15:53:31,0.001s,NOT_RUN
uploadFiles.uploadFile,Firefox 61.0,,2018-08-30 15:53:31,2018-08-30 15:53:31,0.001s,NOT_RUN
Statement - java.lang.Thread.sleep(2000),Firefox 61.0,,2018-08-30 15:53:31,2018-08-30 15:53:31,0.001s,NOT_RUN
waitForElementClickable,Firefox 61.0,,2018-08-30 15:53:31,2018-08-30 15:53:31,0.001s,NOT_RUN
click,Firefox 61.0,,2018-08-30 15:53:31,2018-08-30 15:53:31,0.001s,NOT_RUN
delay,Firefox 61.0,,2018-08-30 15:53:31,2018-08-30 15:53:31,0.001s,NOT_RUN
click,Firefox 61.0,,2018-08-30 15:53:31,2018-08-30 15:53:31,0.001s,NOT_RUN
setText,Firefox 61.0,,2018-08-30 15:53:31,2018-08-30 15:53:31,0.001s,NOT_RUN
click,Firefox 61.0,,2018-08-30 15:53:31,2018-08-30 15:53:31,0.001s,NOT_RUN
click,Firefox 61.0,,2018-08-30 15:53:31,2018-08-30 15:53:31,0.001s,NOT_RUN
scrollToElement,Firefox 61.0,,2018-08-30 15:53:31,2018-08-30 15:53:31,0.001s,NOT_RUN
delay,Firefox 61.0,,2018-08-30 15:53:31,2018-08-30 15:53:31,0.001s,NOT_RUN
click,Firefox 61.0,,2018-08-30 15:53:31,2018-08-30 15:53:31,0.001s,NOT_RUN
click,Firefox 61.0,,2018-08-30 15:53:31,2018-08-30 15:53:31,0.001s,NOT_RUN
waitForElementClickable,Firefox 61.0,,2018-08-30 15:53:31,2018-08-30 15:53:31,0.001s,NOT_RUN
click,Firefox 61.0,,2018-08-30 15:53:31,2018-08-30 15:53:31,0.001s,NOT_RUN
delay,Firefox 61.0,,2018-08-30 15:53:31,2018-08-30 15:53:31,0.001s,NOT_RUN
click,Firefox 61.0,,2018-08-30 15:53:31,2018-08-30 15:53:31,0.001s,NOT_RUN
waitForElementPresent,Firefox 61.0,,2018-08-30 15:53:31,2018-08-30 15:53:31,0.001s,NOT_RUN
verifyElementPresent,Firefox 61.0,,2018-08-30 15:53:31,2018-08-30 15:53:31,0.001s,NOT_RUN
delay,Firefox 61.0,,2018-08-30 15:53:31,2018-08-30 15:53:31,0.001s,NOT_RUN
closeBrowser,Firefox 61.0,,2018-08-30 15:53:31,2018-08-30 15:53:31,0.193s,PASSED
