Suite/Test/Step Name,Browser,Description,Start time,End time,Duration,Status
GETCRAFT_STAGING,Firefox 64.0,,2018-12-21 11:15:43,2018-12-21 11:32:36,16m - 52.776s,FAILED
,,,,,,
Test Cases/GETCRAFT/Register_Creator,Firefox 64.0,,2018-12-21 11:15:44,2018-12-21 11:17:17,1m - 33.720s,PASSED
Statement - RN = <not implemented yet for class: org.codehaus.groovy.ast.expr.EmptyExpression>,Firefox 64.0,,2018-12-21 11:15:45,2018-12-21 11:15:45,0.002s,PASSED
Statement - RN = java.lang.Math.random() * 999,Firefox 64.0,,2018-12-21 11:15:45,2018-12-21 11:15:45,0.011s,PASSED
Statement - mailinator = email + RN,Firefox 64.0,,2018-12-21 11:15:45,2018-12-21 11:15:45,0.001s,PASSED
Statement - user = email + RN + domain,Firefox 64.0,,2018-12-21 11:15:45,2018-12-21 11:15:45,0.003s,PASSED
Statement - firstname = name + RN,Firefox 64.0,,2018-12-21 11:15:45,2018-12-21 11:15:45,0.002s,PASSED
Statement - lastname = name2 + RN,Firefox 64.0,,2018-12-21 11:15:45,2018-12-21 11:15:45,0.003s,PASSED
Statement - Phone = phonenumber + RN,Firefox 64.0,,2018-12-21 11:15:45,2018-12-21 11:15:45,0.001s,PASSED
Statement - println(user),Firefox 64.0,,2018-12-21 11:15:45,2018-12-21 11:15:45,0.004s,PASSED
openBrowser,Firefox 64.0,,2018-12-21 11:15:45,2018-12-21 11:15:55,10.477s,PASSED
maximizeWindow,Firefox 64.0,,2018-12-21 11:15:55,2018-12-21 11:15:59,3.699s,PASSED
navigateToUrl,Firefox 64.0,,2018-12-21 11:15:59,2018-12-21 11:16:08,9.709s,PASSED
waitForElementClickable,Firefox 64.0,,2018-12-21 11:16:08,2018-12-21 11:16:09,0.185s,PASSED
click,Firefox 64.0,,2018-12-21 11:16:09,2018-12-21 11:16:09,0.385s,PASSED
click,Firefox 64.0,,2018-12-21 11:16:09,2018-12-21 11:16:09,0.351s,PASSED
setText,Firefox 64.0,,2018-12-21 11:16:09,2018-12-21 11:16:10,0.217s,PASSED
setText,Firefox 64.0,,2018-12-21 11:16:10,2018-12-21 11:16:10,0.154s,PASSED
setText,Firefox 64.0,,2018-12-21 11:16:10,2018-12-21 11:16:10,0.136s,PASSED
setText,Firefox 64.0,,2018-12-21 11:16:10,2018-12-21 11:16:10,0.206s,PASSED
setText,Firefox 64.0,,2018-12-21 11:16:10,2018-12-21 11:16:10,0.130s,PASSED
click,Firefox 64.0,,2018-12-21 11:16:10,2018-12-21 11:16:11,0.334s,PASSED
click,Firefox 64.0,,2018-12-21 11:16:11,2018-12-21 11:16:11,0.300s,PASSED
setText,Firefox 64.0,,2018-12-21 11:16:11,2018-12-21 11:16:11,0.199s,PASSED
click,Firefox 64.0,,2018-12-21 11:16:11,2018-12-21 11:16:11,0.301s,PASSED
click,Firefox 64.0,,2018-12-21 11:16:11,2018-12-21 11:16:12,0.305s,PASSED
click,Firefox 64.0,,2018-12-21 11:16:12,2018-12-21 11:16:12,0.283s,PASSED
delay,Firefox 64.0,,2018-12-21 11:16:12,2018-12-21 11:16:17,5.087s,PASSED
click,Firefox 64.0,,2018-12-21 11:16:17,2018-12-21 11:16:18,0.498s,PASSED
waitForElementClickable,Firefox 64.0,,2018-12-21 11:16:18,2018-12-21 11:16:18,0.029s,PASSED
click,Firefox 64.0,,2018-12-21 11:16:18,2018-12-21 11:16:18,0.491s,PASSED
delay,Firefox 64.0,,2018-12-21 11:16:18,2018-12-21 11:16:24,6.079s,PASSED
click,Firefox 64.0,,2018-12-21 11:16:24,2018-12-21 11:16:24,0.326s,PASSED
click,Firefox 64.0,,2018-12-21 11:16:24,2018-12-21 11:16:25,0.270s,PASSED
delay,Firefox 64.0,,2018-12-21 11:16:25,2018-12-21 11:16:31,6.046s,PASSED
executeJavaScript,Firefox 64.0,,2018-12-21 11:16:31,2018-12-21 11:16:31,0.241s,PASSED
Statement - currentWindow = com.kms.katalon.core.webui.keyword.WebUiBuiltInKeywords.getWindowIndex(),Firefox 64.0,,2018-12-21 11:16:31,2018-12-21 11:16:31,0.028s,PASSED
switchToWindowIndex,Firefox 64.0,,2018-12-21 11:16:31,2018-12-21 11:16:31,0.031s,PASSED
navigateToUrl,Firefox 64.0,,2018-12-21 11:16:31,2018-12-21 11:16:35,4.373s,PASSED
setText,Firefox 64.0,,2018-12-21 11:16:35,2018-12-21 11:16:36,0.067s,PASSED
click,Firefox 64.0,,2018-12-21 11:16:36,2018-12-21 11:16:37,1.054s,PASSED
click,Firefox 64.0,,2018-12-21 11:16:37,2018-12-21 11:16:38,1.760s,PASSED
click,Firefox 64.0,,2018-12-21 11:16:38,2018-12-21 11:16:41,3.138s,PASSED
delay,Firefox 64.0,,2018-12-21 11:16:41,2018-12-21 11:16:49,8.025s,PASSED
closeBrowser,Firefox 64.0,,2018-12-21 11:16:49,2018-12-21 11:16:50,0.846s,PASSED
openBrowser,Firefox 64.0,,2018-12-21 11:16:50,2018-12-21 11:16:53,2.175s,PASSED
maximizeWindow,Firefox 64.0,,2018-12-21 11:16:53,2018-12-21 11:16:56,3.542s,PASSED
navigateToUrl,Firefox 64.0,,2018-12-21 11:16:56,2018-12-21 11:17:08,11.790s,PASSED
"Statement - If (com.kms.katalon.core.webui.keyword.WebUiBuiltInKeywords.verifyElementVisible(com.kms.katalon.core.testobject.ObjectRepository.findTestObject(Object Repository/GETCRAFT/create_brief/Language_indo), OPTIONAL))",Firefox 64.0,,2018-12-21 11:17:08,2018-12-21 11:17:08,0.123s,PASSED
Statement - Else,Firefox 64.0,,2018-12-21 11:17:08,2018-12-21 11:17:11,3.066s,PASSED
setText,Firefox 64.0,,2018-12-21 11:17:11,2018-12-21 11:17:11,0.195s,PASSED
setText,Firefox 64.0,,2018-12-21 11:17:11,2018-12-21 11:17:11,0.200s,PASSED
click,Firefox 64.0,,2018-12-21 11:17:11,2018-12-21 11:17:12,0.315s,PASSED
delay,Firefox 64.0,,2018-12-21 11:17:12,2018-12-21 11:17:17,5.070s,PASSED
verifyElementPresent,Firefox 64.0,,2018-12-21 11:17:17,2018-12-21 11:17:17,0.028s,PASSED
closeBrowser,Firefox 64.0,,2018-12-21 11:17:17,2018-12-21 11:17:17,0.591s,PASSED
,,,,,,
Test Cases/GETCRAFT/Register_Client,Firefox 64.0,,2018-12-21 11:17:17,2018-12-21 11:18:37,1m - 19.644s,PASSED
Statement - RN = <not implemented yet for class: org.codehaus.groovy.ast.expr.EmptyExpression>,Firefox 64.0,,2018-12-21 11:17:18,2018-12-21 11:17:18,0.001s,PASSED
Statement - RN = java.lang.Math.random() * 999,Firefox 64.0,,2018-12-21 11:17:18,2018-12-21 11:17:18,0.001s,PASSED
Statement - mailinator = email + RN,Firefox 64.0,,2018-12-21 11:17:18,2018-12-21 11:17:18,0.001s,PASSED
Statement - user = email + RN + domain,Firefox 64.0,,2018-12-21 11:17:18,2018-12-21 11:17:18,0.001s,PASSED
Statement - firstname = name + RN,Firefox 64.0,,2018-12-21 11:17:18,2018-12-21 11:17:18,0.000s,PASSED
Statement - lastname = name2 + RN,Firefox 64.0,,2018-12-21 11:17:18,2018-12-21 11:17:18,0.000s,PASSED
Statement - Phone = phonenumber + RN,Firefox 64.0,,2018-12-21 11:17:18,2018-12-21 11:17:18,0.001s,PASSED
Statement - println(user),Firefox 64.0,,2018-12-21 11:17:18,2018-12-21 11:17:18,0.001s,PASSED
openBrowser,Firefox 64.0,,2018-12-21 11:17:18,2018-12-21 11:17:20,2.062s,PASSED
maximizeWindow,Firefox 64.0,,2018-12-21 11:17:20,2018-12-21 11:17:23,3.563s,PASSED
navigateToUrl,Firefox 64.0,,2018-12-21 11:17:23,2018-12-21 11:17:30,6.759s,PASSED
waitForElementClickable,Firefox 64.0,,2018-12-21 11:17:30,2018-12-21 11:17:30,0.043s,PASSED
click,Firefox 64.0,,2018-12-21 11:17:30,2018-12-21 11:17:30,0.347s,PASSED
click,Firefox 64.0,,2018-12-21 11:17:30,2018-12-21 11:17:31,0.326s,PASSED
setText,Firefox 64.0,,2018-12-21 11:17:31,2018-12-21 11:17:31,0.163s,PASSED
setText,Firefox 64.0,,2018-12-21 11:17:31,2018-12-21 11:17:31,0.121s,PASSED
setText,Firefox 64.0,,2018-12-21 11:17:31,2018-12-21 11:17:31,0.130s,PASSED
setText,Firefox 64.0,,2018-12-21 11:17:31,2018-12-21 11:17:31,0.199s,PASSED
setText,Firefox 64.0,,2018-12-21 11:17:31,2018-12-21 11:17:32,0.122s,PASSED
click,Firefox 64.0,,2018-12-21 11:17:32,2018-12-21 11:17:32,0.305s,PASSED
click,Firefox 64.0,,2018-12-21 11:17:32,2018-12-21 11:17:32,0.310s,PASSED
setText,Firefox 64.0,,2018-12-21 11:17:32,2018-12-21 11:17:32,0.199s,PASSED
delay,Firefox 64.0,,2018-12-21 11:17:32,2018-12-21 11:17:37,5.003s,PASSED
click,Firefox 64.0,,2018-12-21 11:17:37,2018-12-21 11:17:38,0.319s,PASSED
click,Firefox 64.0,,2018-12-21 11:17:38,2018-12-21 11:17:38,0.284s,PASSED
delay,Firefox 64.0,,2018-12-21 11:17:38,2018-12-21 11:17:43,5.063s,PASSED
click,Firefox 64.0,,2018-12-21 11:17:43,2018-12-21 11:17:44,0.504s,PASSED
waitForElementClickable,Firefox 64.0,,2018-12-21 11:17:44,2018-12-21 11:17:44,0.031s,PASSED
click,Firefox 64.0,,2018-12-21 11:17:44,2018-12-21 11:17:44,0.586s,PASSED
delay,Firefox 64.0,,2018-12-21 11:17:44,2018-12-21 11:17:48,4.072s,PASSED
click,Firefox 64.0,,2018-12-21 11:17:48,2018-12-21 11:17:49,0.292s,PASSED
click,Firefox 64.0,,2018-12-21 11:17:49,2018-12-21 11:17:49,0.350s,PASSED
delay,Firefox 64.0,,2018-12-21 11:17:49,2018-12-21 11:17:55,6.075s,PASSED
executeJavaScript,Firefox 64.0,,2018-12-21 11:17:55,2018-12-21 11:17:55,0.150s,PASSED
Statement - currentWindow = com.kms.katalon.core.webui.keyword.WebUiBuiltInKeywords.getWindowIndex(),Firefox 64.0,,2018-12-21 11:17:55,2018-12-21 11:17:55,0.014s,PASSED
switchToWindowIndex,Firefox 64.0,,2018-12-21 11:17:55,2018-12-21 11:17:55,0.019s,PASSED
navigateToUrl,Firefox 64.0,,2018-12-21 11:17:55,2018-12-21 11:18:00,4.520s,PASSED
setText,Firefox 64.0,,2018-12-21 11:18:00,2018-12-21 11:18:00,0.066s,PASSED
click,Firefox 64.0,,2018-12-21 11:18:00,2018-12-21 11:18:01,1.158s,PASSED
click,Firefox 64.0,,2018-12-21 11:18:01,2018-12-21 11:18:04,2.666s,PASSED
waitForElementPresent,Firefox 64.0,,2018-12-21 11:18:04,2018-12-21 11:18:04,0.002s,NOT_RUN
verifyElementVisible,Firefox 64.0,,2018-12-21 11:18:04,2018-12-21 11:18:04,0.059s,PASSED
click,Firefox 64.0,,2018-12-21 11:18:04,2018-12-21 11:18:07,3.448s,PASSED
delay,Firefox 64.0,,2018-12-21 11:18:07,2018-12-21 11:18:16,9.083s,PASSED
closeBrowser,Firefox 64.0,,2018-12-21 11:18:16,2018-12-21 11:18:17,0.716s,PASSED
openBrowser,Firefox 64.0,,2018-12-21 11:18:17,2018-12-21 11:18:19,2.261s,PASSED
maximizeWindow,Firefox 64.0,,2018-12-21 11:18:19,2018-12-21 11:18:23,3.521s,PASSED
navigateToUrl,Firefox 64.0,,2018-12-21 11:18:23,2018-12-21 11:18:29,6.496s,PASSED
"Statement - If (com.kms.katalon.core.webui.keyword.WebUiBuiltInKeywords.verifyElementVisible(com.kms.katalon.core.testobject.ObjectRepository.findTestObject(Object Repository/GETCRAFT/create_brief/Language_indo), OPTIONAL))",Firefox 64.0,,2018-12-21 11:18:29,2018-12-21 11:18:29,0.107s,PASSED
Statement - Else,Firefox 64.0,,2018-12-21 11:18:29,2018-12-21 11:18:32,3.073s,PASSED
waitForElementClickable,Firefox 64.0,,2018-12-21 11:18:32,2018-12-21 11:18:32,0.080s,PASSED
setText,Firefox 64.0,,2018-12-21 11:18:32,2018-12-21 11:18:33,0.205s,PASSED
setText,Firefox 64.0,,2018-12-21 11:18:33,2018-12-21 11:18:33,0.191s,PASSED
click,Firefox 64.0,,2018-12-21 11:18:33,2018-12-21 11:18:33,0.342s,PASSED
verifyElementPresent,Firefox 64.0,,2018-12-21 11:18:33,2018-12-21 11:18:36,3.334s,PASSED
closeBrowser,Firefox 64.0,,2018-12-21 11:18:36,2018-12-21 11:18:37,0.617s,PASSED
,,,,,,
Test Cases/GETCRAFT/Create_BriefSelected(DRAFT),Firefox 64.0,,2018-12-21 11:18:37,2018-12-21 11:19:25,48.250s,FAILED
Statement - RN = <not implemented yet for class: org.codehaus.groovy.ast.expr.EmptyExpression>,Firefox 64.0,,2018-12-21 11:18:37,2018-12-21 11:18:37,0.000s,PASSED
Statement - RN = java.lang.Math.random() * 599,Firefox 64.0,,2018-12-21 11:18:37,2018-12-21 11:18:37,0.000s,PASSED
Statement - name_project = project_name + RN,Firefox 64.0,,2018-12-21 11:18:37,2018-12-21 11:18:37,0.001s,PASSED
openBrowser,Firefox 64.0,,2018-12-21 11:18:37,2018-12-21 11:18:39,2.153s,PASSED
maximizeWindow,Firefox 64.0,,2018-12-21 11:18:39,2018-12-21 11:18:43,3.568s,PASSED
navigateToUrl,Firefox 64.0,,2018-12-21 11:18:43,2018-12-21 11:18:59,16.021s,PASSED
"Statement - If (com.kms.katalon.core.webui.keyword.WebUiBuiltInKeywords.verifyElementVisible(com.kms.katalon.core.testobject.ObjectRepository.findTestObject(Object Repository/GETCRAFT/create_brief/Language_indo), OPTIONAL))",Firefox 64.0,,2018-12-21 11:18:59,2018-12-21 11:18:59,0.088s,PASSED
Statement - Else,Firefox 64.0,,2018-12-21 11:18:59,2018-12-21 11:19:02,3.018s,PASSED
setText,Firefox 64.0,,2018-12-21 11:19:02,2018-12-21 11:19:02,0.280s,PASSED
setText,Firefox 64.0,,2018-12-21 11:19:02,2018-12-21 11:19:03,0.065s,PASSED
click,Firefox 64.0,,2018-12-21 11:19:03,2018-12-21 11:19:03,0.295s,PASSED
verifyElementPresent,Firefox 64.0,,2018-12-21 11:19:03,2018-12-21 11:19:06,3.090s,PASSED
click,Firefox 64.0,,2018-12-21 11:19:06,2018-12-21 11:19:06,0.472s,PASSED
click,Firefox 64.0,,2018-12-21 11:19:06,2018-12-21 11:19:07,0.825s,PASSED
delay,Firefox 64.0,,2018-12-21 11:19:07,2018-12-21 11:19:11,4.063s,PASSED
waitForElementClickable,Firefox 64.0,,2018-12-21 11:19:11,2018-12-21 11:19:11,0.062s,PASSED
scrollToElement,Firefox 64.0,,2018-12-21 11:19:11,2018-12-21 11:19:11,0.044s,PASSED
click,Firefox 64.0,,2018-12-21 11:19:11,2018-12-21 11:19:12,0.457s,PASSED
click,Firefox 64.0,,2018-12-21 11:19:12,2018-12-21 11:19:12,0.398s,PASSED
click,Firefox 64.0,,2018-12-21 11:19:12,2018-12-21 11:19:13,0.628s,PASSED
setText,Firefox 64.0,,2018-12-21 11:19:13,2018-12-21 11:19:13,0.459s,PASSED
setText,Firefox 64.0,,2018-12-21 11:19:13,2018-12-21 11:19:13,0.185s,PASSED
setText,Firefox 64.0,,2018-12-21 11:19:13,2018-12-21 11:19:14,0.128s,PASSED
setText,Firefox 64.0,,2018-12-21 11:19:14,2018-12-21 11:19:14,0.128s,PASSED
scrollToElement,Firefox 64.0,,2018-12-21 11:19:14,2018-12-21 11:19:14,0.028s,PASSED
uploadFiles.uploadFile,Firefox 64.0,,2018-12-21 11:19:14,2018-12-21 11:19:14,0.001s,NOT_RUN
Statement - java.lang.Thread.sleep(2000),Firefox 64.0,,2018-12-21 11:19:14,2018-12-21 11:19:14,0.001s,NOT_RUN
waitForElementClickable,Firefox 64.0,,2018-12-21 11:19:14,2018-12-21 11:19:14,0.000s,NOT_RUN
click,Firefox 64.0,,2018-12-21 11:19:14,2018-12-21 11:19:14,0.001s,NOT_RUN
delay,Firefox 64.0,,2018-12-21 11:19:14,2018-12-21 11:19:14,0.000s,NOT_RUN
click,Firefox 64.0,,2018-12-21 11:19:14,2018-12-21 11:19:14,0.291s,PASSED
setText,Firefox 64.0,,2018-12-21 11:19:14,2018-12-21 11:19:14,0.192s,PASSED
click,Firefox 64.0,,2018-12-21 11:19:14,2018-12-21 11:19:15,0.262s,PASSED
click,Firefox 64.0,,2018-12-21 11:19:15,2018-12-21 11:19:15,0.279s,PASSED
scrollToElement,Firefox 64.0,,2018-12-21 11:19:15,2018-12-21 11:19:15,0.027s,PASSED
delay,Firefox 64.0,,2018-12-21 11:19:15,2018-12-21 11:19:18,3.071s,PASSED
click,Firefox 64.0,,2018-12-21 11:19:18,2018-12-21 11:19:18,0.354s,PASSED
waitForElementPresent,Firefox 64.0,,2018-12-21 11:19:18,2018-12-21 11:19:20,1.798s,PASSED
delay,Firefox 64.0,,2018-12-21 11:19:20,2018-12-21 11:19:25,5.070s,PASSED
verifyElementText,Firefox 64.0,,2018-12-21 11:19:25,2018-12-21 11:19:25,0.210s,FAILED
,,,,,,
Test Cases/GETCRAFT/Create_BriefUnselected(DRAFT),Firefox 64.0,,2018-12-21 11:19:25,2018-12-21 11:20:19,53.336s,PASSED
Statement - RN = <not implemented yet for class: org.codehaus.groovy.ast.expr.EmptyExpression>,Firefox 64.0,,2018-12-21 11:19:26,2018-12-21 11:19:26,0.000s,PASSED
Statement - RN = java.lang.Math.random() * 599,Firefox 64.0,,2018-12-21 11:19:26,2018-12-21 11:19:26,0.001s,PASSED
Statement - name_project = project_name + RN,Firefox 64.0,,2018-12-21 11:19:26,2018-12-21 11:19:26,0.000s,PASSED
openBrowser,Firefox 64.0,,2018-12-21 11:19:26,2018-12-21 11:19:28,2.729s,PASSED
maximizeWindow,Firefox 64.0,,2018-12-21 11:19:28,2018-12-21 11:19:32,3.564s,PASSED
navigateToUrl,Firefox 64.0,,2018-12-21 11:19:32,2018-12-21 11:19:41,9.279s,PASSED
"Statement - If (com.kms.katalon.core.webui.keyword.WebUiBuiltInKeywords.verifyElementVisible(com.kms.katalon.core.testobject.ObjectRepository.findTestObject(Object Repository/GETCRAFT/create_brief/Language_indo), OPTIONAL))",Firefox 64.0,,2018-12-21 11:19:41,2018-12-21 11:19:41,0.087s,PASSED
Statement - Else,Firefox 64.0,,2018-12-21 11:19:41,2018-12-21 11:19:44,3.068s,PASSED
setText,Firefox 64.0,,2018-12-21 11:19:44,2018-12-21 11:19:45,0.289s,PASSED
setText,Firefox 64.0,,2018-12-21 11:19:45,2018-12-21 11:19:45,0.099s,PASSED
click,Firefox 64.0,,2018-12-21 11:19:45,2018-12-21 11:19:45,0.325s,PASSED
verifyElementPresent,Firefox 64.0,,2018-12-21 11:19:45,2018-12-21 11:19:48,2.929s,PASSED
click,Firefox 64.0,,2018-12-21 11:19:48,2018-12-21 11:19:49,0.917s,PASSED
delay,Firefox 64.0,,2018-12-21 11:19:49,2018-12-21 11:19:54,5.073s,PASSED
click,Firefox 64.0,,2018-12-21 11:19:54,2018-12-21 11:19:54,0.403s,PASSED
click,Firefox 64.0,,2018-12-21 11:19:54,2018-12-21 11:19:55,0.334s,PASSED
waitForElementClickable,Firefox 64.0,,2018-12-21 11:19:55,2018-12-21 11:19:55,0.001s,NOT_RUN
click,Firefox 64.0,,2018-12-21 11:19:55,2018-12-21 11:19:55,0.351s,PASSED
click,Firefox 64.0,,2018-12-21 11:19:55,2018-12-21 11:19:55,0.282s,PASSED
scrollToElement,Firefox 64.0,,2018-12-21 11:19:55,2018-12-21 11:19:55,0.029s,PASSED
waitForElementClickable,Firefox 64.0,,2018-12-21 11:19:55,2018-12-21 11:19:55,0.035s,PASSED
delay,Firefox 64.0,,2018-12-21 11:19:55,2018-12-21 11:19:57,2.075s,PASSED
click,Firefox 64.0,,2018-12-21 11:19:57,2018-12-21 11:19:58,0.322s,PASSED
click,Firefox 64.0,,2018-12-21 11:19:58,2018-12-21 11:19:58,0.286s,PASSED
click,Firefox 64.0,,2018-12-21 11:19:58,2018-12-21 11:19:58,0.313s,PASSED
waitForElementClickable,Firefox 64.0,,2018-12-21 11:19:58,2018-12-21 11:19:58,0.025s,PASSED
delay,Firefox 64.0,,2018-12-21 11:19:58,2018-12-21 11:20:00,2.067s,PASSED
click,Firefox 64.0,,2018-12-21 11:20:00,2018-12-21 11:20:01,0.411s,PASSED
click,Firefox 64.0,,2018-12-21 11:20:01,2018-12-21 11:20:01,0.289s,PASSED
click,Firefox 64.0,,2018-12-21 11:20:01,2018-12-21 11:20:01,0.279s,PASSED
setText,Firefox 64.0,,2018-12-21 11:20:01,2018-12-21 11:20:02,0.428s,PASSED
setText,Firefox 64.0,,2018-12-21 11:20:02,2018-12-21 11:20:02,0.198s,PASSED
setText,Firefox 64.0,,2018-12-21 11:20:02,2018-12-21 11:20:02,0.161s,PASSED
setText,Firefox 64.0,,2018-12-21 11:20:02,2018-12-21 11:20:02,0.157s,PASSED
scrollToElement,Firefox 64.0,,2018-12-21 11:20:02,2018-12-21 11:20:02,0.026s,PASSED
uploadFiles.uploadFile,Firefox 64.0,,2018-12-21 11:20:02,2018-12-21 11:20:02,0.001s,NOT_RUN
Statement - java.lang.Thread.sleep(2000),Firefox 64.0,,2018-12-21 11:20:02,2018-12-21 11:20:02,0.000s,NOT_RUN
waitForElementClickable,Firefox 64.0,,2018-12-21 11:20:02,2018-12-21 11:20:02,0.001s,NOT_RUN
click,Firefox 64.0,,2018-12-21 11:20:02,2018-12-21 11:20:02,0.000s,NOT_RUN
delay,Firefox 64.0,,2018-12-21 11:20:02,2018-12-21 11:20:02,0.001s,NOT_RUN
click,Firefox 64.0,,2018-12-21 11:20:02,2018-12-21 11:20:03,0.262s,PASSED
setText,Firefox 64.0,,2018-12-21 11:20:03,2018-12-21 11:20:03,0.217s,PASSED
click,Firefox 64.0,,2018-12-21 11:20:03,2018-12-21 11:20:03,0.349s,PASSED
click,Firefox 64.0,,2018-12-21 11:20:03,2018-12-21 11:20:04,0.298s,PASSED
scrollToElement,Firefox 64.0,,2018-12-21 11:20:04,2018-12-21 11:20:04,0.030s,PASSED
delay,Firefox 64.0,,2018-12-21 11:20:04,2018-12-21 11:20:07,3.068s,PASSED
click,Firefox 64.0,,2018-12-21 11:20:07,2018-12-21 11:20:07,0.378s,PASSED
waitForElementPresent,Firefox 64.0,,2018-12-21 11:20:07,2018-12-21 11:20:10,2.729s,PASSED
delay,Firefox 64.0,,2018-12-21 11:20:10,2018-12-21 11:20:15,5.073s,PASSED
verifyElementText,Firefox 64.0,,2018-12-21 11:20:15,2018-12-21 11:20:15,0.111s,PASSED
verifyElementPresent,Firefox 64.0,,2018-12-21 11:20:15,2018-12-21 11:20:15,0.062s,PASSED
delay,Firefox 64.0,,2018-12-21 11:20:15,2018-12-21 11:20:18,3.075s,PASSED
closeBrowser,Firefox 64.0,,2018-12-21 11:20:18,2018-12-21 11:20:19,0.643s,PASSED
,,,,,,
Test Cases/GETCRAFT/Create_BriefSelected(SENDtoCREATOR),Firefox 64.0,,2018-12-21 11:20:19,2018-12-21 11:21:10,51.245s,PASSED
Statement - RN = <not implemented yet for class: org.codehaus.groovy.ast.expr.EmptyExpression>,Firefox 64.0,,2018-12-21 11:20:19,2018-12-21 11:20:19,0.001s,PASSED
Statement - RN = java.lang.Math.random() * 599,Firefox 64.0,,2018-12-21 11:20:19,2018-12-21 11:20:19,0.000s,PASSED
Statement - name_project = project_name + RN,Firefox 64.0,,2018-12-21 11:20:19,2018-12-21 11:20:19,0.000s,PASSED
openBrowser,Firefox 64.0,,2018-12-21 11:20:19,2018-12-21 11:20:21,2.262s,PASSED
maximizeWindow,Firefox 64.0,,2018-12-21 11:20:21,2018-12-21 11:20:25,3.561s,PASSED
navigateToUrl,Firefox 64.0,,2018-12-21 11:20:25,2018-12-21 11:20:38,13.034s,PASSED
"Statement - If (com.kms.katalon.core.webui.keyword.WebUiBuiltInKeywords.verifyElementVisible(com.kms.katalon.core.testobject.ObjectRepository.findTestObject(Object Repository/GETCRAFT/create_brief/Language_indo), OPTIONAL))",Firefox 64.0,,2018-12-21 11:20:38,2018-12-21 11:20:38,0.095s,PASSED
Statement - Else,Firefox 64.0,,2018-12-21 11:20:38,2018-12-21 11:20:41,3.077s,PASSED
setText,Firefox 64.0,,2018-12-21 11:20:41,2018-12-21 11:20:41,0.283s,PASSED
setText,Firefox 64.0,,2018-12-21 11:20:41,2018-12-21 11:20:41,0.066s,PASSED
click,Firefox 64.0,,2018-12-21 11:20:41,2018-12-21 11:20:42,0.272s,PASSED
verifyElementPresent,Firefox 64.0,,2018-12-21 11:20:42,2018-12-21 11:20:44,2.687s,PASSED
click,Firefox 64.0,,2018-12-21 11:20:44,2018-12-21 11:20:45,0.382s,PASSED
click,Firefox 64.0,,2018-12-21 11:20:45,2018-12-21 11:20:45,0.753s,PASSED
delay,Firefox 64.0,,2018-12-21 11:20:45,2018-12-21 11:20:49,3.070s,PASSED
waitForElementClickable,Firefox 64.0,,2018-12-21 11:20:49,2018-12-21 11:20:49,0.031s,PASSED
scrollToElement,Firefox 64.0,,2018-12-21 11:20:49,2018-12-21 11:20:49,0.026s,PASSED
click,Firefox 64.0,,2018-12-21 11:20:49,2018-12-21 11:20:49,0.508s,PASSED
click,Firefox 64.0,,2018-12-21 11:20:49,2018-12-21 11:20:49,0.338s,PASSED
click,Firefox 64.0,,2018-12-21 11:20:49,2018-12-21 11:20:50,0.573s,PASSED
setText,Firefox 64.0,,2018-12-21 11:20:50,2018-12-21 11:20:50,0.470s,PASSED
setText,Firefox 64.0,,2018-12-21 11:20:50,2018-12-21 11:20:51,0.167s,PASSED
setText,Firefox 64.0,,2018-12-21 11:20:51,2018-12-21 11:20:51,0.136s,PASSED
setText,Firefox 64.0,,2018-12-21 11:20:51,2018-12-21 11:20:51,0.116s,PASSED
scrollToElement,Firefox 64.0,,2018-12-21 11:20:51,2018-12-21 11:20:51,0.025s,PASSED
uploadFiles.uploadFile,Firefox 64.0,,2018-12-21 11:20:51,2018-12-21 11:20:51,0.000s,NOT_RUN
Statement - java.lang.Thread.sleep(2000),Firefox 64.0,,2018-12-21 11:20:51,2018-12-21 11:20:51,0.002s,NOT_RUN
waitForElementClickable,Firefox 64.0,,2018-12-21 11:20:51,2018-12-21 11:20:51,0.000s,NOT_RUN
click,Firefox 64.0,,2018-12-21 11:20:51,2018-12-21 11:20:51,0.001s,NOT_RUN
delay,Firefox 64.0,,2018-12-21 11:20:51,2018-12-21 11:20:51,0.000s,NOT_RUN
click,Firefox 64.0,,2018-12-21 11:20:51,2018-12-21 11:20:51,0.293s,PASSED
setText,Firefox 64.0,,2018-12-21 11:20:51,2018-12-21 11:20:51,0.179s,PASSED
click,Firefox 64.0,,2018-12-21 11:20:51,2018-12-21 11:20:52,0.286s,PASSED
click,Firefox 64.0,,2018-12-21 11:20:52,2018-12-21 11:20:52,0.307s,PASSED
scrollToElement,Firefox 64.0,,2018-12-21 11:20:52,2018-12-21 11:20:52,0.019s,PASSED
delay,Firefox 64.0,,2018-12-21 11:20:52,2018-12-21 11:20:55,3.073s,PASSED
click,Firefox 64.0,,2018-12-21 11:20:55,2018-12-21 11:20:56,0.842s,PASSED
waitForElementClickable,Firefox 64.0,,2018-12-21 11:20:56,2018-12-21 11:20:56,0.195s,PASSED
click,Firefox 64.0,,2018-12-21 11:20:56,2018-12-21 11:20:57,0.409s,PASSED
delay,Firefox 64.0,,2018-12-21 11:20:57,2018-12-21 11:21:00,3.150s,PASSED
click,Firefox 64.0,,2018-12-21 11:21:00,2018-12-21 11:21:00,0.423s,PASSED
waitForElementPresent,Firefox 64.0,,2018-12-21 11:21:00,2018-12-21 11:21:01,0.736s,PASSED
delay,Firefox 64.0,,2018-12-21 11:21:01,2018-12-21 11:21:09,8.147s,PASSED
verifyElementText,Firefox 64.0,,2018-12-21 11:21:09,2018-12-21 11:21:09,0.094s,PASSED
verifyElementPresent,Firefox 64.0,,2018-12-21 11:21:09,2018-12-21 11:21:09,0.114s,PASSED
closeBrowser,Firefox 64.0,,2018-12-21 11:21:09,2018-12-21 11:21:10,0.746s,PASSED
,,,,,,
Test Cases/GETCRAFT/Create_BriefUnselected(SENDtoCREATOR),Firefox 64.0,,2018-12-21 11:21:10,2018-12-21 11:22:11,1m - 1.103s,PASSED
Statement - RN = <not implemented yet for class: org.codehaus.groovy.ast.expr.EmptyExpression>,Firefox 64.0,,2018-12-21 11:21:10,2018-12-21 11:21:10,0.001s,PASSED
Statement - RN = java.lang.Math.random() * 599,Firefox 64.0,,2018-12-21 11:21:10,2018-12-21 11:21:10,0.001s,PASSED
Statement - name_project = project_name + RN,Firefox 64.0,,2018-12-21 11:21:10,2018-12-21 11:21:10,0.001s,PASSED
openBrowser,Firefox 64.0,,2018-12-21 11:21:10,2018-12-21 11:21:12,1.992s,PASSED
maximizeWindow,Firefox 64.0,,2018-12-21 11:21:12,2018-12-21 11:21:16,3.591s,PASSED
navigateToUrl,Firefox 64.0,,2018-12-21 11:21:16,2018-12-21 11:21:25,9.100s,PASSED
"Statement - If (com.kms.katalon.core.webui.keyword.WebUiBuiltInKeywords.verifyElementVisible(com.kms.katalon.core.testobject.ObjectRepository.findTestObject(Object Repository/GETCRAFT/create_brief/Language_indo), OPTIONAL))",Firefox 64.0,,2018-12-21 11:21:25,2018-12-21 11:21:25,0.091s,PASSED
Statement - Else,Firefox 64.0,,2018-12-21 11:21:25,2018-12-21 11:21:28,3.146s,PASSED
setText,Firefox 64.0,,2018-12-21 11:21:28,2018-12-21 11:21:28,0.260s,PASSED
setText,Firefox 64.0,,2018-12-21 11:21:28,2018-12-21 11:21:28,0.066s,PASSED
click,Firefox 64.0,,2018-12-21 11:21:28,2018-12-21 11:21:29,0.352s,PASSED
verifyElementPresent,Firefox 64.0,,2018-12-21 11:21:29,2018-12-21 11:21:32,2.905s,PASSED
click,Firefox 64.0,,2018-12-21 11:21:32,2018-12-21 11:21:33,0.927s,PASSED
delay,Firefox 64.0,,2018-12-21 11:21:33,2018-12-21 11:21:40,7.129s,PASSED
click,Firefox 64.0,,2018-12-21 11:21:40,2018-12-21 11:21:40,0.406s,PASSED
delay,Firefox 64.0,,2018-12-21 11:21:40,2018-12-21 11:21:42,2.021s,PASSED
click,Firefox 64.0,,2018-12-21 11:21:42,2018-12-21 11:21:43,0.345s,PASSED
waitForElementClickable,Firefox 64.0,,2018-12-21 11:21:43,2018-12-21 11:21:43,0.000s,NOT_RUN
click,Firefox 64.0,,2018-12-21 11:21:43,2018-12-21 11:21:43,0.285s,PASSED
click,Firefox 64.0,,2018-12-21 11:21:43,2018-12-21 11:21:43,0.534s,PASSED
scrollToElement,Firefox 64.0,,2018-12-21 11:21:43,2018-12-21 11:21:43,0.025s,PASSED
waitForElementClickable,Firefox 64.0,,2018-12-21 11:21:43,2018-12-21 11:21:43,0.054s,PASSED
delay,Firefox 64.0,,2018-12-21 11:21:43,2018-12-21 11:21:46,2.146s,PASSED
click,Firefox 64.0,,2018-12-21 11:21:46,2018-12-21 11:21:46,0.454s,PASSED
click,Firefox 64.0,,2018-12-21 11:21:46,2018-12-21 11:21:46,0.402s,PASSED
click,Firefox 64.0,,2018-12-21 11:21:46,2018-12-21 11:21:47,0.322s,PASSED
waitForElementClickable,Firefox 64.0,,2018-12-21 11:21:47,2018-12-21 11:21:47,0.027s,PASSED
delay,Firefox 64.0,,2018-12-21 11:21:47,2018-12-21 11:21:49,2.147s,PASSED
click,Firefox 64.0,,2018-12-21 11:21:49,2018-12-21 11:21:49,0.534s,PASSED
click,Firefox 64.0,,2018-12-21 11:21:49,2018-12-21 11:21:50,0.330s,PASSED
click,Firefox 64.0,,2018-12-21 11:21:50,2018-12-21 11:21:50,0.336s,PASSED
setText,Firefox 64.0,,2018-12-21 11:21:50,2018-12-21 11:21:51,0.436s,PASSED
setText,Firefox 64.0,,2018-12-21 11:21:51,2018-12-21 11:21:51,0.197s,PASSED
setText,Firefox 64.0,,2018-12-21 11:21:51,2018-12-21 11:21:51,0.157s,PASSED
setText,Firefox 64.0,,2018-12-21 11:21:51,2018-12-21 11:21:51,0.128s,PASSED
scrollToElement,Firefox 64.0,,2018-12-21 11:21:51,2018-12-21 11:21:51,0.032s,PASSED
uploadFiles.uploadFile,Firefox 64.0,,2018-12-21 11:21:51,2018-12-21 11:21:51,0.000s,NOT_RUN
Statement - java.lang.Thread.sleep(2000),Firefox 64.0,,2018-12-21 11:21:51,2018-12-21 11:21:51,0.000s,NOT_RUN
waitForElementClickable,Firefox 64.0,,2018-12-21 11:21:51,2018-12-21 11:21:51,0.000s,NOT_RUN
click,Firefox 64.0,,2018-12-21 11:21:51,2018-12-21 11:21:51,0.001s,NOT_RUN
delay,Firefox 64.0,,2018-12-21 11:21:51,2018-12-21 11:21:51,0.000s,NOT_RUN
click,Firefox 64.0,,2018-12-21 11:21:51,2018-12-21 11:21:51,0.326s,PASSED
setText,Firefox 64.0,,2018-12-21 11:21:51,2018-12-21 11:21:52,0.219s,PASSED
click,Firefox 64.0,,2018-12-21 11:21:52,2018-12-21 11:21:52,0.318s,PASSED
click,Firefox 64.0,,2018-12-21 11:21:52,2018-12-21 11:21:52,0.330s,PASSED
scrollToElement,Firefox 64.0,,2018-12-21 11:21:52,2018-12-21 11:21:52,0.027s,PASSED
delay,Firefox 64.0,,2018-12-21 11:21:52,2018-12-21 11:21:55,3.141s,PASSED
click,Firefox 64.0,,2018-12-21 11:21:55,2018-12-21 11:21:56,0.331s,PASSED
waitForElementClickable,Firefox 64.0,,2018-12-21 11:21:56,2018-12-21 11:21:57,0.980s,PASSED
click,Firefox 64.0,,2018-12-21 11:21:57,2018-12-21 11:21:57,0.306s,PASSED
delay,Firefox 64.0,,2018-12-21 11:21:57,2018-12-21 11:22:00,3.150s,PASSED
click,Firefox 64.0,,2018-12-21 11:22:00,2018-12-21 11:22:01,0.507s,PASSED
waitForElementPresent,Firefox 64.0,,2018-12-21 11:22:01,2018-12-21 11:22:02,1.136s,PASSED
delay,Firefox 64.0,,2018-12-21 11:22:02,2018-12-21 11:22:07,5.149s,PASSED
verifyElementText,Firefox 64.0,,2018-12-21 11:22:07,2018-12-21 11:22:07,0.083s,PASSED
verifyElementPresent,Firefox 64.0,,2018-12-21 11:22:07,2018-12-21 11:22:07,0.122s,PASSED
delay,Firefox 64.0,,2018-12-21 11:22:07,2018-12-21 11:22:10,3.150s,PASSED
closeBrowser,Firefox 64.0,,2018-12-21 11:22:10,2018-12-21 11:22:11,0.683s,PASSED
,,,,,,
Test Cases/GETCRAFT/Brief_phase2_selected_login ,Firefox 64.0,,2018-12-21 11:22:11,2018-12-21 11:23:05,54.450s,FAILED
Statement - RN = <not implemented yet for class: org.codehaus.groovy.ast.expr.EmptyExpression>,Firefox 64.0,,2018-12-21 11:22:11,2018-12-21 11:22:11,0.000s,PASSED
Statement - RN = java.lang.Math.random() * 599,Firefox 64.0,,2018-12-21 11:22:11,2018-12-21 11:22:11,0.000s,PASSED
Statement - name_project = project_name + RN,Firefox 64.0,,2018-12-21 11:22:11,2018-12-21 11:22:11,0.001s,PASSED
openBrowser,Firefox 64.0,,2018-12-21 11:22:11,2018-12-21 11:22:14,2.856s,PASSED
maximizeWindow,Firefox 64.0,,2018-12-21 11:22:14,2018-12-21 11:22:18,3.555s,PASSED
navigateToUrl,Firefox 64.0,,2018-12-21 11:22:18,2018-12-21 11:22:27,9.177s,PASSED
"Statement - If (com.kms.katalon.core.webui.keyword.WebUiBuiltInKeywords.verifyElementVisible(com.kms.katalon.core.testobject.ObjectRepository.findTestObject(Object Repository/GETCRAFT/create_brief/Language_indo), OPTIONAL))",Firefox 64.0,,2018-12-21 11:22:27,2018-12-21 11:22:27,0.125s,PASSED
Statement - Else,Firefox 64.0,,2018-12-21 11:22:27,2018-12-21 11:22:30,3.144s,PASSED
click,Firefox 64.0,,2018-12-21 11:22:30,2018-12-21 11:22:31,0.554s,PASSED
delay,Firefox 64.0,,2018-12-21 11:22:31,2018-12-21 11:22:36,5.136s,PASSED
waitForElementClickable,Firefox 64.0,,2018-12-21 11:22:36,2018-12-21 11:22:36,0.048s,PASSED
scrollToElement,Firefox 64.0,,2018-12-21 11:22:36,2018-12-21 11:22:36,0.025s,PASSED
click,Firefox 64.0,,2018-12-21 11:22:36,2018-12-21 11:22:36,0.511s,PASSED
click,Firefox 64.0,,2018-12-21 11:22:36,2018-12-21 11:22:37,0.331s,PASSED
click,Firefox 64.0,,2018-12-21 11:22:37,2018-12-21 11:22:37,0.585s,PASSED
delay,Firefox 64.0,,2018-12-21 11:22:37,2018-12-21 11:22:39,2.141s,PASSED
setText,Firefox 64.0,,2018-12-21 11:22:39,2018-12-21 11:22:40,0.510s,PASSED
setText,Firefox 64.0,,2018-12-21 11:22:40,2018-12-21 11:22:40,0.173s,PASSED
setText,Firefox 64.0,,2018-12-21 11:22:40,2018-12-21 11:22:40,0.147s,PASSED
setText,Firefox 64.0,,2018-12-21 11:22:40,2018-12-21 11:22:40,0.105s,PASSED
scrollToElement,Firefox 64.0,,2018-12-21 11:22:40,2018-12-21 11:22:40,0.032s,PASSED
click,Firefox 64.0,,2018-12-21 11:22:40,2018-12-21 11:22:41,0.263s,PASSED
setText,Firefox 64.0,,2018-12-21 11:22:41,2018-12-21 11:22:41,0.175s,PASSED
click,Firefox 64.0,,2018-12-21 11:22:41,2018-12-21 11:22:41,0.274s,PASSED
click,Firefox 64.0,,2018-12-21 11:22:41,2018-12-21 11:22:41,0.287s,PASSED
scrollToElement,Firefox 64.0,,2018-12-21 11:22:41,2018-12-21 11:22:41,0.031s,PASSED
delay,Firefox 64.0,,2018-12-21 11:22:41,2018-12-21 11:22:45,3.149s,PASSED
click,Firefox 64.0,,2018-12-21 11:22:45,2018-12-21 11:22:45,0.452s,PASSED
scrollToElement,Firefox 64.0,,2018-12-21 11:22:45,2018-12-21 11:22:45,0.031s,PASSED
delay,Firefox 64.0,,2018-12-21 11:22:45,2018-12-21 11:22:48,3.132s,PASSED
click,Firefox 64.0,,2018-12-21 11:22:48,2018-12-21 11:22:49,0.413s,PASSED
setText,Firefox 64.0,,2018-12-21 11:22:49,2018-12-21 11:22:49,0.454s,PASSED
delay,Firefox 64.0,,2018-12-21 11:22:49,2018-12-21 11:22:52,3.148s,PASSED
setText,Firefox 64.0,,2018-12-21 11:22:52,2018-12-21 11:22:52,0.077s,PASSED
delay,Firefox 64.0,,2018-12-21 11:22:52,2018-12-21 11:22:57,5.150s,PASSED
click,Firefox 64.0,,2018-12-21 11:22:57,2018-12-21 11:22:58,0.286s,PASSED
waitForElementPresent,Firefox 64.0,,2018-12-21 11:22:58,2018-12-21 11:23:02,4.431s,PASSED
delay,Firefox 64.0,,2018-12-21 11:23:02,2018-12-21 11:23:05,3.142s,PASSED
verifyElementText,Firefox 64.0,,2018-12-21 11:23:05,2018-12-21 11:23:05,0.163s,FAILED
,,,,,,
Test Cases/GETCRAFT/Brief_phase2_unselected_login,Firefox 64.0,,2018-12-21 11:23:05,2018-12-21 11:24:57,1m - 51.044s,FAILED
Statement - RN = <not implemented yet for class: org.codehaus.groovy.ast.expr.EmptyExpression>,Firefox 64.0,,2018-12-21 11:23:06,2018-12-21 11:23:06,0.000s,PASSED
Statement - RN = java.lang.Math.random() * 599,Firefox 64.0,,2018-12-21 11:23:06,2018-12-21 11:23:06,0.001s,PASSED
Statement - name_project = project_name + RN,Firefox 64.0,,2018-12-21 11:23:06,2018-12-21 11:23:06,0.000s,PASSED
openBrowser,Firefox 64.0,,2018-12-21 11:23:06,2018-12-21 11:23:09,3.038s,PASSED
maximizeWindow,Firefox 64.0,,2018-12-21 11:23:09,2018-12-21 11:23:12,3.628s,PASSED
navigateToUrl,Firefox 64.0,,2018-12-21 11:23:12,2018-12-21 11:23:19,7.015s,PASSED
"Statement - If (com.kms.katalon.core.webui.keyword.WebUiBuiltInKeywords.verifyElementVisible(com.kms.katalon.core.testobject.ObjectRepository.findTestObject(Object Repository/GETCRAFT/create_brief/Language_indo), OPTIONAL))",Firefox 64.0,,2018-12-21 11:23:19,2018-12-21 11:23:20,0.126s,PASSED
Statement - Else,Firefox 64.0,,2018-12-21 11:23:20,2018-12-21 11:23:23,3.148s,PASSED
click,Firefox 64.0,,2018-12-21 11:23:23,2018-12-21 11:23:23,0.605s,PASSED
delay,Firefox 64.0,,2018-12-21 11:23:23,2018-12-21 11:23:25,2.159s,PASSED
click,Firefox 64.0,,2018-12-21 11:23:25,2018-12-21 11:23:26,0.370s,PASSED
click,Firefox 64.0,,2018-12-21 11:23:26,2018-12-21 11:23:26,0.434s,PASSED
waitForElementClickable,Firefox 64.0,,2018-12-21 11:23:26,2018-12-21 11:23:26,0.000s,NOT_RUN
click,Firefox 64.0,,2018-12-21 11:23:26,2018-12-21 11:23:27,0.357s,PASSED
click,Firefox 64.0,,2018-12-21 11:23:27,2018-12-21 11:23:27,0.379s,PASSED
scrollToElement,Firefox 64.0,,2018-12-21 11:23:27,2018-12-21 11:23:27,0.037s,PASSED
waitForElementClickable,Firefox 64.0,,2018-12-21 11:23:27,2018-12-21 11:23:27,0.035s,PASSED
delay,Firefox 64.0,,2018-12-21 11:23:27,2018-12-21 11:23:29,2.151s,PASSED
click,Firefox 64.0,,2018-12-21 11:23:29,2018-12-21 11:23:30,0.385s,PASSED
click,Firefox 64.0,,2018-12-21 11:23:30,2018-12-21 11:23:30,0.284s,PASSED
click,Firefox 64.0,,2018-12-21 11:23:30,2018-12-21 11:23:30,0.349s,PASSED
waitForElementClickable,Firefox 64.0,,2018-12-21 11:23:30,2018-12-21 11:23:30,0.032s,PASSED
delay,Firefox 64.0,,2018-12-21 11:23:30,2018-12-21 11:23:32,2.140s,PASSED
click,Firefox 64.0,,2018-12-21 11:23:32,2018-12-21 11:23:33,0.335s,PASSED
click,Firefox 64.0,,2018-12-21 11:23:33,2018-12-21 11:23:33,0.315s,PASSED
click,Firefox 64.0,,2018-12-21 11:23:33,2018-12-21 11:23:33,0.358s,PASSED
setText,Firefox 64.0,,2018-12-21 11:23:33,2018-12-21 11:23:34,0.425s,PASSED
setText,Firefox 64.0,,2018-12-21 11:23:34,2018-12-21 11:23:34,0.204s,PASSED
setText,Firefox 64.0,,2018-12-21 11:23:34,2018-12-21 11:23:34,0.130s,PASSED
setText,Firefox 64.0,,2018-12-21 11:23:34,2018-12-21 11:23:34,0.127s,PASSED
scrollToElement,Firefox 64.0,,2018-12-21 11:23:34,2018-12-21 11:23:34,0.024s,PASSED
click,Firefox 64.0,,2018-12-21 11:23:34,2018-12-21 11:23:35,0.296s,PASSED
setText,Firefox 64.0,,2018-12-21 11:23:35,2018-12-21 11:23:35,0.183s,PASSED
click,Firefox 64.0,,2018-12-21 11:23:35,2018-12-21 11:23:35,0.339s,PASSED
click,Firefox 64.0,,2018-12-21 11:23:35,2018-12-21 11:23:35,0.291s,PASSED
scrollToElement,Firefox 64.0,,2018-12-21 11:23:35,2018-12-21 11:23:35,0.030s,PASSED
delay,Firefox 64.0,,2018-12-21 11:23:35,2018-12-21 11:23:39,3.149s,PASSED
click,Firefox 64.0,,2018-12-21 11:23:39,2018-12-21 11:23:39,0.419s,PASSED
scrollToElement,Firefox 64.0,,2018-12-21 11:23:39,2018-12-21 11:23:40,0.763s,PASSED
delay,Firefox 64.0,,2018-12-21 11:23:40,2018-12-21 11:23:43,3.139s,PASSED
click,Firefox 64.0,,2018-12-21 11:23:43,2018-12-21 11:23:43,0.300s,PASSED
setText,Firefox 64.0,,2018-12-21 11:23:43,2018-12-21 11:23:44,0.473s,PASSED
delay,Firefox 64.0,,2018-12-21 11:23:44,2018-12-21 11:23:47,3.146s,PASSED
setText,Firefox 64.0,,2018-12-21 11:23:47,2018-12-21 11:23:47,0.088s,PASSED
delay,Firefox 64.0,,2018-12-21 11:23:47,2018-12-21 11:23:52,5.150s,PASSED
click,Firefox 64.0,,2018-12-21 11:23:52,2018-12-21 11:23:52,0.318s,PASSED
waitForElementPresent,Firefox 64.0,,2018-12-21 11:23:52,2018-12-21 11:24:53,1m - 0.782s,PASSED
delay,Firefox 64.0,,2018-12-21 11:24:53,2018-12-21 11:24:56,3.144s,PASSED
verifyElementText,Firefox 64.0,,2018-12-21 11:24:56,2018-12-21 11:24:57,0.208s,FAILED
,,,,,,
Test Cases/GETCRAFT/Brief_phase2_unselected_loginMultiple,Firefox 64.0,,2018-12-21 11:24:57,2018-12-21 11:26:55,1m - 58.951s,PASSED
Statement - RN = <not implemented yet for class: org.codehaus.groovy.ast.expr.EmptyExpression>,Firefox 64.0,,2018-12-21 11:24:57,2018-12-21 11:24:57,0.001s,PASSED
Statement - RN = java.lang.Math.random() * 599,Firefox 64.0,,2018-12-21 11:24:57,2018-12-21 11:24:57,0.000s,PASSED
Statement - name_project = project_name + RN,Firefox 64.0,,2018-12-21 11:24:57,2018-12-21 11:24:57,0.000s,PASSED
openBrowser,Firefox 64.0,,2018-12-21 11:24:57,2018-12-21 11:25:00,3.112s,PASSED
maximizeWindow,Firefox 64.0,,2018-12-21 11:25:00,2018-12-21 11:25:03,3.547s,PASSED
navigateToUrl,Firefox 64.0,,2018-12-21 11:25:03,2018-12-21 11:25:11,7.661s,PASSED
"Statement - If (com.kms.katalon.core.webui.keyword.WebUiBuiltInKeywords.verifyElementVisible(com.kms.katalon.core.testobject.ObjectRepository.findTestObject(Object Repository/GETCRAFT/create_brief/Language_indo), OPTIONAL))",Firefox 64.0,,2018-12-21 11:25:11,2018-12-21 11:25:11,0.118s,PASSED
Statement - Else,Firefox 64.0,,2018-12-21 11:25:11,2018-12-21 11:25:14,3.147s,PASSED
click,Firefox 64.0,,2018-12-21 11:25:14,2018-12-21 11:25:15,0.560s,PASSED
delay,Firefox 64.0,,2018-12-21 11:25:15,2018-12-21 11:25:17,2.147s,PASSED
click,Firefox 64.0,,2018-12-21 11:25:17,2018-12-21 11:25:18,0.429s,PASSED
click,Firefox 64.0,,2018-12-21 11:25:18,2018-12-21 11:25:18,0.334s,PASSED
waitForElementClickable,Firefox 64.0,,2018-12-21 11:25:18,2018-12-21 11:25:18,0.000s,NOT_RUN
click,Firefox 64.0,,2018-12-21 11:25:18,2018-12-21 11:25:18,0.355s,PASSED
click,Firefox 64.0,,2018-12-21 11:25:18,2018-12-21 11:25:19,0.510s,PASSED
scrollToElement,Firefox 64.0,,2018-12-21 11:25:19,2018-12-21 11:25:19,0.038s,PASSED
waitForElementClickable,Firefox 64.0,,2018-12-21 11:25:19,2018-12-21 11:25:19,0.038s,PASSED
delay,Firefox 64.0,,2018-12-21 11:25:19,2018-12-21 11:25:21,2.138s,PASSED
click,Firefox 64.0,,2018-12-21 11:25:21,2018-12-21 11:25:21,0.438s,PASSED
click,Firefox 64.0,,2018-12-21 11:25:21,2018-12-21 11:25:22,0.367s,PASSED
click,Firefox 64.0,,2018-12-21 11:25:22,2018-12-21 11:25:22,0.435s,PASSED
waitForElementClickable,Firefox 64.0,,2018-12-21 11:25:22,2018-12-21 11:25:22,0.034s,PASSED
delay,Firefox 64.0,,2018-12-21 11:25:22,2018-12-21 11:25:24,2.141s,PASSED
click,Firefox 64.0,,2018-12-21 11:25:24,2018-12-21 11:25:25,0.326s,PASSED
click,Firefox 64.0,,2018-12-21 11:25:25,2018-12-21 11:25:25,0.289s,PASSED
click,Firefox 64.0,,2018-12-21 11:25:25,2018-12-21 11:25:25,0.295s,PASSED
setText,Firefox 64.0,,2018-12-21 11:25:25,2018-12-21 11:25:26,0.469s,PASSED
setText,Firefox 64.0,,2018-12-21 11:25:26,2018-12-21 11:25:26,0.182s,PASSED
setText,Firefox 64.0,,2018-12-21 11:25:26,2018-12-21 11:25:26,0.132s,PASSED
setText,Firefox 64.0,,2018-12-21 11:25:26,2018-12-21 11:25:26,0.151s,PASSED
scrollToElement,Firefox 64.0,,2018-12-21 11:25:26,2018-12-21 11:25:26,0.035s,PASSED
click,Firefox 64.0,,2018-12-21 11:25:26,2018-12-21 11:25:27,0.347s,PASSED
setText,Firefox 64.0,,2018-12-21 11:25:27,2018-12-21 11:25:27,0.190s,PASSED
click,Firefox 64.0,,2018-12-21 11:25:27,2018-12-21 11:25:27,0.330s,PASSED
click,Firefox 64.0,,2018-12-21 11:25:27,2018-12-21 11:25:27,0.314s,PASSED
scrollToElement,Firefox 64.0,,2018-12-21 11:25:27,2018-12-21 11:25:27,0.087s,PASSED
delay,Firefox 64.0,,2018-12-21 11:25:27,2018-12-21 11:25:31,3.164s,PASSED
click,Firefox 64.0,,2018-12-21 11:25:31,2018-12-21 11:25:31,0.489s,PASSED
scrollToElement,Firefox 64.0,,2018-12-21 11:25:31,2018-12-21 11:25:32,0.821s,PASSED
delay,Firefox 64.0,,2018-12-21 11:25:32,2018-12-21 11:25:35,3.159s,PASSED
click,Firefox 64.0,,2018-12-21 11:25:35,2018-12-21 11:25:35,0.341s,PASSED
setText,Firefox 64.0,,2018-12-21 11:25:35,2018-12-21 11:25:36,0.399s,PASSED
delay,Firefox 64.0,,2018-12-21 11:25:36,2018-12-21 11:25:39,3.150s,PASSED
setText,Firefox 64.0,,2018-12-21 11:25:39,2018-12-21 11:25:39,0.087s,PASSED
delay,Firefox 64.0,,2018-12-21 11:25:39,2018-12-21 11:25:44,5.124s,PASSED
click,Firefox 64.0,,2018-12-21 11:25:44,2018-12-21 11:25:45,0.319s,PASSED
waitForElementPresent,Firefox 64.0,,2018-12-21 11:25:45,2018-12-21 11:25:45,0.672s,PASSED
click,Firefox 64.0,,2018-12-21 11:25:45,2018-12-21 11:25:46,0.300s,PASSED
click,Firefox 64.0,,2018-12-21 11:25:46,2018-12-21 11:25:46,0.261s,PASSED
waitForElementPresent,Firefox 64.0,,2018-12-21 11:25:46,2018-12-21 11:26:48,1m - 2.526s,PASSED
delay,Firefox 64.0,,2018-12-21 11:26:48,2018-12-21 11:26:51,3.147s,PASSED
verifyElementText,Firefox 64.0,,2018-12-21 11:26:51,2018-12-21 11:26:52,0.145s,PASSED
verifyElementPresent,Firefox 64.0,,2018-12-21 11:26:52,2018-12-21 11:26:52,0.049s,PASSED
delay,Firefox 64.0,,2018-12-21 11:26:52,2018-12-21 11:26:55,3.143s,PASSED
closeBrowser,Firefox 64.0,,2018-12-21 11:26:55,2018-12-21 11:26:55,0.688s,PASSED
,,,,,,
Test Cases/GETCRAFT/SendTo_phase2_selected_login,Firefox 64.0,,2018-12-21 11:26:55,2018-12-21 11:28:02,1m - 6.438s,PASSED
Statement - RN = <not implemented yet for class: org.codehaus.groovy.ast.expr.EmptyExpression>,Firefox 64.0,,2018-12-21 11:26:56,2018-12-21 11:26:56,0.000s,PASSED
Statement - RN = java.lang.Math.random() * 599,Firefox 64.0,,2018-12-21 11:26:56,2018-12-21 11:26:56,0.001s,PASSED
Statement - name_project = project_name + RN,Firefox 64.0,,2018-12-21 11:26:56,2018-12-21 11:26:56,0.001s,PASSED
openBrowser,Firefox 64.0,,2018-12-21 11:26:56,2018-12-21 11:26:58,2.332s,PASSED
maximizeWindow,Firefox 64.0,,2018-12-21 11:26:58,2018-12-21 11:27:02,3.597s,PASSED
navigateToUrl,Firefox 64.0,,2018-12-21 11:27:02,2018-12-21 11:27:10,8.414s,PASSED
"Statement - If (com.kms.katalon.core.webui.keyword.WebUiBuiltInKeywords.verifyElementVisible(com.kms.katalon.core.testobject.ObjectRepository.findTestObject(Object Repository/GETCRAFT/create_brief/Language_indo), OPTIONAL))",Firefox 64.0,,2018-12-21 11:27:10,2018-12-21 11:27:10,0.312s,PASSED
Statement - Else,Firefox 64.0,,2018-12-21 11:27:10,2018-12-21 11:27:14,3.138s,PASSED
click,Firefox 64.0,,2018-12-21 11:27:14,2018-12-21 11:27:14,0.766s,PASSED
delay,Firefox 64.0,,2018-12-21 11:27:14,2018-12-21 11:27:18,4.008s,PASSED
waitForElementClickable,Firefox 64.0,,2018-12-21 11:27:18,2018-12-21 11:27:18,0.135s,PASSED
scrollToElement,Firefox 64.0,,2018-12-21 11:27:18,2018-12-21 11:27:19,0.090s,PASSED
click,Firefox 64.0,,2018-12-21 11:27:19,2018-12-21 11:27:20,1.132s,PASSED
click,Firefox 64.0,,2018-12-21 11:27:20,2018-12-21 11:27:21,1.439s,PASSED
click,Firefox 64.0,,2018-12-21 11:27:21,2018-12-21 11:27:22,1.362s,PASSED
delay,Firefox 64.0,,2018-12-21 11:27:22,2018-12-21 11:27:25,2.148s,PASSED
setText,Firefox 64.0,,2018-12-21 11:27:25,2018-12-21 11:27:26,1.047s,PASSED
setText,Firefox 64.0,,2018-12-21 11:27:26,2018-12-21 11:27:26,0.397s,PASSED
setText,Firefox 64.0,,2018-12-21 11:27:26,2018-12-21 11:27:26,0.363s,PASSED
setText,Firefox 64.0,,2018-12-21 11:27:26,2018-12-21 11:27:27,0.244s,PASSED
scrollToElement,Firefox 64.0,,2018-12-21 11:27:27,2018-12-21 11:27:27,0.049s,PASSED
click,Firefox 64.0,,2018-12-21 11:27:27,2018-12-21 11:27:27,0.372s,PASSED
setText,Firefox 64.0,,2018-12-21 11:27:27,2018-12-21 11:27:27,0.349s,PASSED
click,Firefox 64.0,,2018-12-21 11:27:27,2018-12-21 11:27:28,0.338s,PASSED
click,Firefox 64.0,,2018-12-21 11:27:28,2018-12-21 11:27:28,0.314s,PASSED
scrollToElement,Firefox 64.0,,2018-12-21 11:27:28,2018-12-21 11:27:28,0.062s,PASSED
delay,Firefox 64.0,,2018-12-21 11:27:28,2018-12-21 11:27:31,3.138s,PASSED
click,Firefox 64.0,,2018-12-21 11:27:31,2018-12-21 11:27:32,0.494s,PASSED
delay,Firefox 64.0,,2018-12-21 11:27:32,2018-12-21 11:27:35,3.142s,PASSED
scrollToElement,Firefox 64.0,,2018-12-21 11:27:35,2018-12-21 11:27:35,0.037s,PASSED
delay,Firefox 64.0,,2018-12-21 11:27:35,2018-12-21 11:27:38,3.146s,PASSED
click,Firefox 64.0,,2018-12-21 11:27:38,2018-12-21 11:27:39,0.421s,PASSED
setText,Firefox 64.0,,2018-12-21 11:27:39,2018-12-21 11:27:39,0.371s,PASSED
setText,Firefox 64.0,,2018-12-21 11:27:39,2018-12-21 11:27:39,0.076s,PASSED
delay,Firefox 64.0,,2018-12-21 11:27:39,2018-12-21 11:27:44,5.139s,PASSED
click,Firefox 64.0,,2018-12-21 11:27:44,2018-12-21 11:27:45,0.392s,PASSED
waitForElementPresent,Firefox 64.0,,2018-12-21 11:27:45,2018-12-21 11:27:48,3.163s,PASSED
click,Firefox 64.0,,2018-12-21 11:27:48,2018-12-21 11:27:48,0.664s,PASSED
waitForElementVisible,Firefox 64.0,,2018-12-21 11:27:48,2018-12-21 11:27:49,0.324s,PASSED
delay,Firefox 64.0,,2018-12-21 11:27:49,2018-12-21 11:27:54,5.096s,PASSED
click,Firefox 64.0,,2018-12-21 11:27:54,2018-12-21 11:27:54,0.558s,PASSED
waitForElementPresent,Firefox 64.0,,2018-12-21 11:27:54,2018-12-21 11:27:56,1.614s,PASSED
delay,Firefox 64.0,,2018-12-21 11:27:56,2018-12-21 11:28:01,5.143s,PASSED
verifyElementText,Firefox 64.0,,2018-12-21 11:28:01,2018-12-21 11:28:01,0.089s,PASSED
verifyElementPresent,Firefox 64.0,,2018-12-21 11:28:01,2018-12-21 11:28:01,0.119s,PASSED
closeBrowser,Firefox 64.0,,2018-12-21 11:28:01,2018-12-21 11:28:02,0.659s,PASSED
,,,,,,
Test Cases/GETCRAFT/SendTo_phase2_unselected_login,Firefox 64.0,,2018-12-21 11:28:02,2018-12-21 11:29:20,1m - 18.111s,PASSED
Statement - RN = <not implemented yet for class: org.codehaus.groovy.ast.expr.EmptyExpression>,Firefox 64.0,,2018-12-21 11:28:02,2018-12-21 11:28:02,0.001s,PASSED
Statement - RN = java.lang.Math.random() * 599,Firefox 64.0,,2018-12-21 11:28:02,2018-12-21 11:28:02,0.000s,PASSED
Statement - name_project = project_name + RN,Firefox 64.0,,2018-12-21 11:28:02,2018-12-21 11:28:02,0.001s,PASSED
openBrowser,Firefox 64.0,,2018-12-21 11:28:02,2018-12-21 11:28:05,2.375s,PASSED
maximizeWindow,Firefox 64.0,,2018-12-21 11:28:05,2018-12-21 11:28:08,3.530s,PASSED
navigateToUrl,Firefox 64.0,,2018-12-21 11:28:08,2018-12-21 11:28:21,12.684s,PASSED
"Statement - If (com.kms.katalon.core.webui.keyword.WebUiBuiltInKeywords.verifyElementVisible(com.kms.katalon.core.testobject.ObjectRepository.findTestObject(Object Repository/GETCRAFT/create_brief/Language_indo), OPTIONAL))",Firefox 64.0,,2018-12-21 11:28:21,2018-12-21 11:28:21,0.233s,PASSED
Statement - Else,Firefox 64.0,,2018-12-21 11:28:21,2018-12-21 11:28:24,3.148s,PASSED
click,Firefox 64.0,,2018-12-21 11:28:24,2018-12-21 11:28:25,1.029s,PASSED
delay,Firefox 64.0,,2018-12-21 11:28:25,2018-12-21 11:28:27,2.144s,PASSED
click,Firefox 64.0,,2018-12-21 11:28:27,2018-12-21 11:28:28,0.572s,PASSED
click,Firefox 64.0,,2018-12-21 11:28:28,2018-12-21 11:28:28,0.402s,PASSED
waitForElementClickable,Firefox 64.0,,2018-12-21 11:28:28,2018-12-21 11:28:28,0.000s,NOT_RUN
click,Firefox 64.0,,2018-12-21 11:28:28,2018-12-21 11:28:29,0.478s,PASSED
click,Firefox 64.0,,2018-12-21 11:28:29,2018-12-21 11:28:29,0.545s,PASSED
scrollToElement,Firefox 64.0,,2018-12-21 11:28:29,2018-12-21 11:28:29,0.078s,PASSED
waitForElementClickable,Firefox 64.0,,2018-12-21 11:28:29,2018-12-21 11:28:30,0.056s,PASSED
delay,Firefox 64.0,,2018-12-21 11:28:30,2018-12-21 11:28:32,2.147s,PASSED
click,Firefox 64.0,,2018-12-21 11:28:32,2018-12-21 11:28:32,0.644s,PASSED
click,Firefox 64.0,,2018-12-21 11:28:32,2018-12-21 11:28:33,0.567s,PASSED
click,Firefox 64.0,,2018-12-21 11:28:33,2018-12-21 11:28:33,0.447s,PASSED
waitForElementClickable,Firefox 64.0,,2018-12-21 11:28:33,2018-12-21 11:28:33,0.084s,PASSED
delay,Firefox 64.0,,2018-12-21 11:28:33,2018-12-21 11:28:36,2.088s,PASSED
click,Firefox 64.0,,2018-12-21 11:28:36,2018-12-21 11:28:36,0.741s,PASSED
click,Firefox 64.0,,2018-12-21 11:28:36,2018-12-21 11:28:37,0.501s,PASSED
click,Firefox 64.0,,2018-12-21 11:28:37,2018-12-21 11:28:37,0.559s,PASSED
setText,Firefox 64.0,,2018-12-21 11:28:37,2018-12-21 11:28:39,1.284s,PASSED
setText,Firefox 64.0,,2018-12-21 11:28:39,2018-12-21 11:28:39,0.546s,PASSED
setText,Firefox 64.0,,2018-12-21 11:28:39,2018-12-21 11:28:40,0.408s,PASSED
setText,Firefox 64.0,,2018-12-21 11:28:40,2018-12-21 11:28:40,0.301s,PASSED
scrollToElement,Firefox 64.0,,2018-12-21 11:28:40,2018-12-21 11:28:40,0.057s,PASSED
click,Firefox 64.0,,2018-12-21 11:28:40,2018-12-21 11:28:40,0.350s,PASSED
setText,Firefox 64.0,,2018-12-21 11:28:40,2018-12-21 11:28:41,0.489s,PASSED
click,Firefox 64.0,,2018-12-21 11:28:41,2018-12-21 11:28:41,0.416s,PASSED
click,Firefox 64.0,,2018-12-21 11:28:41,2018-12-21 11:28:42,0.431s,PASSED
scrollToElement,Firefox 64.0,,2018-12-21 11:28:42,2018-12-21 11:28:42,0.085s,PASSED
delay,Firefox 64.0,,2018-12-21 11:28:42,2018-12-21 11:28:45,3.151s,PASSED
click,Firefox 64.0,,2018-12-21 11:28:45,2018-12-21 11:28:46,0.891s,PASSED
delay,Firefox 64.0,,2018-12-21 11:28:46,2018-12-21 11:28:49,3.069s,PASSED
scrollToElement,Firefox 64.0,,2018-12-21 11:28:49,2018-12-21 11:28:49,0.169s,PASSED
delay,Firefox 64.0,,2018-12-21 11:28:49,2018-12-21 11:28:52,3.130s,PASSED
click,Firefox 64.0,,2018-12-21 11:28:52,2018-12-21 11:28:52,0.372s,PASSED
setText,Firefox 64.0,,2018-12-21 11:28:52,2018-12-21 11:28:53,0.783s,PASSED
setText,Firefox 64.0,,2018-12-21 11:28:53,2018-12-21 11:28:53,0.134s,PASSED
delay,Firefox 64.0,,2018-12-21 11:28:53,2018-12-21 11:28:59,5.146s,PASSED
click,Firefox 64.0,,2018-12-21 11:28:59,2018-12-21 11:28:59,0.368s,PASSED
waitForElementPresent,Firefox 64.0,,2018-12-21 11:28:59,2018-12-21 11:29:04,5.109s,PASSED
click,Firefox 64.0,,2018-12-21 11:29:04,2018-12-21 11:29:05,1.055s,PASSED
waitForElementVisible,Firefox 64.0,,2018-12-21 11:29:05,2018-12-21 11:29:06,0.970s,PASSED
delay,Firefox 64.0,,2018-12-21 11:29:06,2018-12-21 11:29:11,5.121s,PASSED
click,Firefox 64.0,,2018-12-21 11:29:11,2018-12-21 11:29:12,0.609s,PASSED
waitForElementPresent,Firefox 64.0,,2018-12-21 11:29:12,2018-12-21 11:29:13,1.478s,PASSED
delay,Firefox 64.0,,2018-12-21 11:29:13,2018-12-21 11:29:18,5.146s,PASSED
verifyElementText,Firefox 64.0,,2018-12-21 11:29:18,2018-12-21 11:29:19,0.171s,PASSED
verifyElementPresent,Firefox 64.0,,2018-12-21 11:29:19,2018-12-21 11:29:19,0.264s,PASSED
closeBrowser,Firefox 64.0,,2018-12-21 11:29:19,2018-12-21 11:29:20,1.195s,PASSED
,,,,,,
Test Cases/GETCRAFT/SendTo_phase2_selected_loginMultiple,Firefox 64.0,,2018-12-21 11:29:20,2018-12-21 11:30:37,1m - 17.199s,PASSED
Statement - RN = <not implemented yet for class: org.codehaus.groovy.ast.expr.EmptyExpression>,Firefox 64.0,,2018-12-21 11:29:21,2018-12-21 11:29:21,0.000s,PASSED
Statement - RN = java.lang.Math.random() * 599,Firefox 64.0,,2018-12-21 11:29:21,2018-12-21 11:29:21,0.001s,PASSED
Statement - name_project = project_name + RN,Firefox 64.0,,2018-12-21 11:29:21,2018-12-21 11:29:21,0.001s,PASSED
openBrowser,Firefox 64.0,,2018-12-21 11:29:21,2018-12-21 11:29:25,4.542s,PASSED
maximizeWindow,Firefox 64.0,,2018-12-21 11:29:25,2018-12-21 11:29:29,3.569s,PASSED
navigateToUrl,Firefox 64.0,,2018-12-21 11:29:29,2018-12-21 11:29:34,5.740s,PASSED
"Statement - If (com.kms.katalon.core.webui.keyword.WebUiBuiltInKeywords.verifyElementVisible(com.kms.katalon.core.testobject.ObjectRepository.findTestObject(Object Repository/GETCRAFT/create_brief/Language_indo), OPTIONAL))",Firefox 64.0,,2018-12-21 11:29:34,2018-12-21 11:29:36,1.149s,PASSED
Statement - Else,Firefox 64.0,,2018-12-21 11:29:36,2018-12-21 11:29:39,3.147s,PASSED
click,Firefox 64.0,,2018-12-21 11:29:39,2018-12-21 11:29:39,0.824s,PASSED
delay,Firefox 64.0,,2018-12-21 11:29:39,2018-12-21 11:29:44,4.142s,PASSED
waitForElementClickable,Firefox 64.0,,2018-12-21 11:29:44,2018-12-21 11:29:44,0.053s,PASSED
scrollToElement,Firefox 64.0,,2018-12-21 11:29:44,2018-12-21 11:29:44,0.048s,PASSED
click,Firefox 64.0,,2018-12-21 11:29:44,2018-12-21 11:29:44,0.719s,PASSED
click,Firefox 64.0,,2018-12-21 11:29:44,2018-12-21 11:29:45,0.567s,PASSED
click,Firefox 64.0,,2018-12-21 11:29:45,2018-12-21 11:29:46,1.211s,PASSED
delay,Firefox 64.0,,2018-12-21 11:29:46,2018-12-21 11:29:48,2.139s,PASSED
setText,Firefox 64.0,,2018-12-21 11:29:48,2018-12-21 11:29:50,1.125s,PASSED
setText,Firefox 64.0,,2018-12-21 11:29:50,2018-12-21 11:29:50,0.326s,PASSED
setText,Firefox 64.0,,2018-12-21 11:29:50,2018-12-21 11:29:50,0.251s,PASSED
setText,Firefox 64.0,,2018-12-21 11:29:50,2018-12-21 11:29:50,0.292s,PASSED
scrollToElement,Firefox 64.0,,2018-12-21 11:29:50,2018-12-21 11:29:51,0.972s,PASSED
click,Firefox 64.0,,2018-12-21 11:29:51,2018-12-21 11:29:52,0.396s,PASSED
setText,Firefox 64.0,,2018-12-21 11:29:52,2018-12-21 11:29:52,0.338s,PASSED
click,Firefox 64.0,,2018-12-21 11:29:52,2018-12-21 11:29:52,0.312s,PASSED
click,Firefox 64.0,,2018-12-21 11:29:52,2018-12-21 11:29:53,0.412s,PASSED
scrollToElement,Firefox 64.0,,2018-12-21 11:29:53,2018-12-21 11:29:53,0.041s,PASSED
delay,Firefox 64.0,,2018-12-21 11:29:53,2018-12-21 11:29:56,3.147s,PASSED
click,Firefox 64.0,,2018-12-21 11:29:56,2018-12-21 11:29:57,0.520s,PASSED
delay,Firefox 64.0,,2018-12-21 11:29:57,2018-12-21 11:30:00,3.108s,PASSED
scrollToElement,Firefox 64.0,,2018-12-21 11:30:00,2018-12-21 11:30:00,0.048s,PASSED
delay,Firefox 64.0,,2018-12-21 11:30:00,2018-12-21 11:30:03,3.149s,PASSED
click,Firefox 64.0,,2018-12-21 11:30:03,2018-12-21 11:30:03,0.481s,PASSED
setText,Firefox 64.0,,2018-12-21 11:30:03,2018-12-21 11:30:04,0.887s,PASSED
delay,Firefox 64.0,,2018-12-21 11:30:04,2018-12-21 11:30:07,3.132s,PASSED
setText,Firefox 64.0,,2018-12-21 11:30:07,2018-12-21 11:30:07,0.141s,PASSED
delay,Firefox 64.0,,2018-12-21 11:30:07,2018-12-21 11:30:13,5.143s,PASSED
click,Firefox 64.0,,2018-12-21 11:30:13,2018-12-21 11:30:13,0.411s,PASSED
waitForElementPresent,Firefox 64.0,,2018-12-21 11:30:13,2018-12-21 11:30:14,0.865s,PASSED
click,Firefox 64.0,,2018-12-21 11:30:14,2018-12-21 11:30:14,0.407s,PASSED
click,Firefox 64.0,,2018-12-21 11:30:14,2018-12-21 11:30:15,0.486s,PASSED
waitForElementPresent,Firefox 64.0,,2018-12-21 11:30:15,2018-12-21 11:30:20,5.075s,PASSED
click,Firefox 64.0,,2018-12-21 11:30:20,2018-12-21 11:30:22,2.052s,PASSED
waitForElementVisible,Firefox 64.0,,2018-12-21 11:30:22,2018-12-21 11:30:23,0.823s,PASSED
delay,Firefox 64.0,,2018-12-21 11:30:23,2018-12-21 11:30:28,5.141s,PASSED
click,Firefox 64.0,,2018-12-21 11:30:28,2018-12-21 11:30:28,0.606s,PASSED
waitForElementPresent,Firefox 64.0,,2018-12-21 11:30:28,2018-12-21 11:30:30,1.614s,PASSED
delay,Firefox 64.0,,2018-12-21 11:30:30,2018-12-21 11:30:35,5.152s,PASSED
verifyElementText,Firefox 64.0,,2018-12-21 11:30:35,2018-12-21 11:30:35,0.137s,PASSED
verifyElementPresent,Firefox 64.0,,2018-12-21 11:30:35,2018-12-21 11:30:35,0.102s,PASSED
closeBrowser,Firefox 64.0,,2018-12-21 11:30:35,2018-12-21 11:30:37,1.762s,PASSED
,,,,,,
Test Cases/GETCRAFT/OpenProject_Draft,Firefox 64.0,,2018-12-21 11:30:37,2018-12-21 11:31:16,38.560s,PASSED
Statement - RN = <not implemented yet for class: org.codehaus.groovy.ast.expr.EmptyExpression>,Firefox 64.0,,2018-12-21 11:30:39,2018-12-21 11:30:39,0.001s,PASSED
Statement - RN = java.lang.Math.random() * 599,Firefox 64.0,,2018-12-21 11:30:39,2018-12-21 11:30:39,0.003s,PASSED
Statement - name_project = project_name + RN,Firefox 64.0,,2018-12-21 11:30:39,2018-12-21 11:30:39,0.001s,PASSED
openBrowser,Firefox 64.0,,2018-12-21 11:30:39,2018-12-21 11:30:44,5.102s,PASSED
maximizeWindow,Firefox 64.0,,2018-12-21 11:30:44,2018-12-21 11:30:47,3.634s,PASSED
navigateToUrl,Firefox 64.0,,2018-12-21 11:30:47,2018-12-21 11:30:59,11.154s,PASSED
"Statement - If (com.kms.katalon.core.webui.keyword.WebUiBuiltInKeywords.verifyElementVisible(com.kms.katalon.core.testobject.ObjectRepository.findTestObject(Object Repository/GETCRAFT/create_brief/Language_indo), OPTIONAL))",Firefox 64.0,,2018-12-21 11:30:59,2018-12-21 11:30:59,0.201s,PASSED
Statement - Else,Firefox 64.0,,2018-12-21 11:30:59,2018-12-21 11:31:02,3.150s,PASSED
setText,Firefox 64.0,,2018-12-21 11:31:02,2018-12-21 11:31:03,0.564s,PASSED
setText,Firefox 64.0,,2018-12-21 11:31:03,2018-12-21 11:31:03,0.097s,PASSED
click,Firefox 64.0,,2018-12-21 11:31:03,2018-12-21 11:31:03,0.379s,PASSED
verifyElementPresent,Firefox 64.0,,2018-12-21 11:31:03,2018-12-21 11:31:07,4.087s,PASSED
click,Firefox 64.0,,2018-12-21 11:31:07,2018-12-21 11:31:09,1.617s,PASSED
click,Firefox 64.0,,2018-12-21 11:31:09,2018-12-21 11:31:10,1.653s,PASSED
delay,Firefox 64.0,,2018-12-21 11:31:10,2018-12-21 11:31:14,4.146s,PASSED
waitForElementPresent,Firefox 64.0,,2018-12-21 11:31:15,2018-12-21 11:31:15,0.089s,PASSED
verifyElementText,Firefox 64.0,,2018-12-21 11:31:15,2018-12-21 11:31:15,0.048s,PASSED
closeBrowser,Firefox 64.0,,2018-12-21 11:31:15,2018-12-21 11:31:16,1.211s,PASSED
,,,,,,
Test Cases/GETCRAFT/OpenProject_InvitationSend,Firefox 64.0,,2018-12-21 11:31:16,2018-12-21 11:31:55,39.429s,PASSED
Statement - RN = <not implemented yet for class: org.codehaus.groovy.ast.expr.EmptyExpression>,Firefox 64.0,,2018-12-21 11:31:16,2018-12-21 11:31:16,0.000s,PASSED
Statement - RN = java.lang.Math.random() * 599,Firefox 64.0,,2018-12-21 11:31:16,2018-12-21 11:31:16,0.000s,PASSED
Statement - name_project = project_name + RN,Firefox 64.0,,2018-12-21 11:31:16,2018-12-21 11:31:16,0.000s,PASSED
openBrowser,Firefox 64.0,,2018-12-21 11:31:16,2018-12-21 11:31:22,5.130s,PASSED
maximizeWindow,Firefox 64.0,,2018-12-21 11:31:22,2018-12-21 11:31:25,3.579s,PASSED
navigateToUrl,Firefox 64.0,,2018-12-21 11:31:25,2018-12-21 11:31:39,13.507s,PASSED
"Statement - If (com.kms.katalon.core.webui.keyword.WebUiBuiltInKeywords.verifyElementVisible(com.kms.katalon.core.testobject.ObjectRepository.findTestObject(Object Repository/GETCRAFT/create_brief/Language_indo), OPTIONAL))",Firefox 64.0,,2018-12-21 11:31:39,2018-12-21 11:31:39,0.207s,PASSED
Statement - Else,Firefox 64.0,,2018-12-21 11:31:39,2018-12-21 11:31:42,3.145s,PASSED
setText,Firefox 64.0,,2018-12-21 11:31:42,2018-12-21 11:31:42,0.512s,PASSED
setText,Firefox 64.0,,2018-12-21 11:31:42,2018-12-21 11:31:43,0.119s,PASSED
click,Firefox 64.0,,2018-12-21 11:31:43,2018-12-21 11:31:43,0.472s,PASSED
verifyElementPresent,Firefox 64.0,,2018-12-21 11:31:43,2018-12-21 11:31:47,4.170s,PASSED
click,Firefox 64.0,,2018-12-21 11:31:47,2018-12-21 11:31:49,1.673s,PASSED
click,Firefox 64.0,,2018-12-21 11:31:49,2018-12-21 11:31:51,2.142s,PASSED
delay,Firefox 64.0,,2018-12-21 11:31:51,2018-12-21 11:31:55,4.148s,PASSED
waitForElementPresent,Firefox 64.0,,2018-12-21 11:31:55,2018-12-21 11:31:55,0.088s,PASSED
closeBrowser,Firefox 64.0,,2018-12-21 11:31:55,2018-12-21 11:31:55,0.000s,NOT_RUN
,,,,,,
Test Cases/GETCRAFT/Change_Workspace,Firefox 64.0,,2018-12-21 11:31:55,2018-12-21 11:32:36,40.484s,PASSED
Statement - RN = <not implemented yet for class: org.codehaus.groovy.ast.expr.EmptyExpression>,Firefox 64.0,,2018-12-21 11:31:56,2018-12-21 11:31:56,0.000s,PASSED
Statement - RN = java.lang.Math.random() * 599,Firefox 64.0,,2018-12-21 11:31:56,2018-12-21 11:31:56,0.000s,PASSED
Statement - name_project = project_name + RN,Firefox 64.0,,2018-12-21 11:31:56,2018-12-21 11:31:56,0.000s,PASSED
openBrowser,Firefox 64.0,,2018-12-21 11:31:56,2018-12-21 11:32:02,6.145s,PASSED
maximizeWindow,Firefox 64.0,,2018-12-21 11:32:02,2018-12-21 11:32:06,3.547s,PASSED
navigateToUrl,Firefox 64.0,,2018-12-21 11:32:06,2018-12-21 11:32:14,8.653s,PASSED
"Statement - If (com.kms.katalon.core.webui.keyword.WebUiBuiltInKeywords.verifyElementVisible(com.kms.katalon.core.testobject.ObjectRepository.findTestObject(Object Repository/GETCRAFT/create_brief/Language_indo), OPTIONAL))",Firefox 64.0,,2018-12-21 11:32:14,2018-12-21 11:32:14,0.244s,PASSED
Statement - Else,Firefox 64.0,,2018-12-21 11:32:14,2018-12-21 11:32:18,3.147s,PASSED
setText,Firefox 64.0,,2018-12-21 11:32:18,2018-12-21 11:32:18,0.538s,PASSED
setText,Firefox 64.0,,2018-12-21 11:32:18,2018-12-21 11:32:18,0.136s,PASSED
click,Firefox 64.0,,2018-12-21 11:32:18,2018-12-21 11:32:19,0.467s,PASSED
verifyElementPresent,Firefox 64.0,,2018-12-21 11:32:19,2018-12-21 11:32:24,4.828s,PASSED
click,Firefox 64.0,,2018-12-21 11:32:24,2018-12-21 11:32:25,1.802s,PASSED
Statement - text = com.kms.katalon.core.webui.keyword.WebUiBuiltInKeywords.getText(com.kms.katalon.core.testobject.ObjectRepository.findTestObject(GETCRAFT/general/select_workspace)),Firefox 64.0,,2018-12-21 11:32:25,2018-12-21 11:32:26,0.193s,PASSED
click,Firefox 64.0,,2018-12-21 11:32:26,2018-12-21 11:32:26,0.425s,PASSED
delay,Firefox 64.0,,2018-12-21 11:32:26,2018-12-21 11:32:31,5.147s,PASSED
verifyElementText,Firefox 64.0,,2018-12-21 11:32:31,2018-12-21 11:32:31,0.170s,PASSED
delay,Firefox 64.0,,2018-12-21 11:32:31,2018-12-21 11:32:34,3.139s,PASSED
closeBrowser,Firefox 64.0,,2018-12-21 11:32:34,2018-12-21 11:32:36,1.352s,PASSED
