Suite/Test/Step Name,Browser,Description,Start time,End time,Duration,Status
Getcraft_HQ,Firefox 62.0,,2018-10-26 13:24:58,2018-10-26 13:38:39,13m - 41.646s,FAILED
,,,,,,
Test Cases/GETCRAFT/Register_Client,Firefox 62.0,,2018-10-26 13:24:58,2018-10-26 13:26:27,1m - 28.508s,PASSED
Statement - RN = <not implemented yet for class: org.codehaus.groovy.ast.expr.EmptyExpression>,Firefox 62.0,,2018-10-26 13:24:59,2018-10-26 13:24:59,0.002s,PASSED
Statement - RN = java.lang.Math.random() * 999,Firefox 62.0,,2018-10-26 13:24:59,2018-10-26 13:24:59,0.011s,PASSED
Statement - mailinator = email + RN,Firefox 62.0,,2018-10-26 13:24:59,2018-10-26 13:24:59,0.002s,PASSED
Statement - user = email + RN + domain,Firefox 62.0,,2018-10-26 13:24:59,2018-10-26 13:24:59,0.001s,PASSED
Statement - firstname = name + RN,Firefox 62.0,,2018-10-26 13:24:59,2018-10-26 13:24:59,0.001s,PASSED
Statement - lastname = name2 + RN,Firefox 62.0,,2018-10-26 13:24:59,2018-10-26 13:24:59,0.002s,PASSED
Statement - Phone = phonenumber + RN,Firefox 62.0,,2018-10-26 13:24:59,2018-10-26 13:24:59,0.001s,PASSED
Statement - println(user),Firefox 62.0,,2018-10-26 13:24:59,2018-10-26 13:24:59,0.005s,PASSED
openBrowser,Firefox 62.0,,2018-10-26 13:24:59,2018-10-26 13:25:04,5.190s,PASSED
maximizeWindow,Firefox 62.0,,2018-10-26 13:25:04,2018-10-26 13:25:08,3.577s,PASSED
navigateToUrl,Firefox 62.0,,2018-10-26 13:25:08,2018-10-26 13:25:14,5.984s,PASSED
waitForElementClickable,Firefox 62.0,,2018-10-26 13:25:14,2018-10-26 13:25:14,0.460s,PASSED
click,Firefox 62.0,,2018-10-26 13:25:14,2018-10-26 13:25:14,0.326s,PASSED
click,Firefox 62.0,,2018-10-26 13:25:14,2018-10-26 13:25:16,1.139s,PASSED
setText,Firefox 62.0,,2018-10-26 13:25:16,2018-10-26 13:25:16,0.243s,PASSED
setText,Firefox 62.0,,2018-10-26 13:25:16,2018-10-26 13:25:16,0.252s,PASSED
setText,Firefox 62.0,,2018-10-26 13:25:16,2018-10-26 13:25:17,0.597s,PASSED
setText,Firefox 62.0,,2018-10-26 13:25:17,2018-10-26 13:25:17,0.173s,PASSED
setText,Firefox 62.0,,2018-10-26 13:25:17,2018-10-26 13:25:17,0.095s,PASSED
click,Firefox 62.0,,2018-10-26 13:25:17,2018-10-26 13:25:17,0.252s,PASSED
click,Firefox 62.0,,2018-10-26 13:25:17,2018-10-26 13:25:17,0.267s,PASSED
setText,Firefox 62.0,,2018-10-26 13:25:17,2018-10-26 13:25:18,0.203s,PASSED
click,Firefox 62.0,,2018-10-26 13:25:18,2018-10-26 13:25:18,0.303s,PASSED
click,Firefox 62.0,,2018-10-26 13:25:18,2018-10-26 13:25:18,0.298s,PASSED
click,Firefox 62.0,,2018-10-26 13:25:18,2018-10-26 13:25:19,0.488s,PASSED
delay,Firefox 62.0,,2018-10-26 13:25:19,2018-10-26 13:25:24,5.109s,PASSED
click,Firefox 62.0,,2018-10-26 13:25:24,2018-10-26 13:25:25,0.627s,PASSED
waitForElementClickable,Firefox 62.0,,2018-10-26 13:25:25,2018-10-26 13:25:25,0.028s,PASSED
click,Firefox 62.0,,2018-10-26 13:25:25,2018-10-26 13:25:25,0.701s,PASSED
delay,Firefox 62.0,,2018-10-26 13:25:25,2018-10-26 13:25:31,6.074s,PASSED
click,Firefox 62.0,,2018-10-26 13:25:31,2018-10-26 13:25:32,0.279s,PASSED
click,Firefox 62.0,,2018-10-26 13:25:32,2018-10-26 13:25:32,0.294s,PASSED
delay,Firefox 62.0,,2018-10-26 13:25:32,2018-10-26 13:25:38,6.071s,PASSED
executeJavaScript,Firefox 62.0,,2018-10-26 13:25:38,2018-10-26 13:25:38,0.187s,PASSED
Statement - currentWindow = com.kms.katalon.core.webui.keyword.WebUiBuiltInKeywords.getWindowIndex(),Firefox 62.0,,2018-10-26 13:25:38,2018-10-26 13:25:38,0.021s,PASSED
switchToWindowIndex,Firefox 62.0,,2018-10-26 13:25:38,2018-10-26 13:25:38,0.032s,PASSED
navigateToUrl,Firefox 62.0,,2018-10-26 13:25:38,2018-10-26 13:25:49,10.472s,PASSED
setText,Firefox 62.0,,2018-10-26 13:25:49,2018-10-26 13:25:49,0.064s,PASSED
click,Firefox 62.0,,2018-10-26 13:25:49,2018-10-26 13:25:50,1.489s,PASSED
click,Firefox 62.0,,2018-10-26 13:25:50,2018-10-26 13:25:51,1.118s,PASSED
waitForElementPresent,Firefox 62.0,,2018-10-26 13:25:51,2018-10-26 13:25:51,0.002s,NOT_RUN
verifyElementVisible,Firefox 62.0,,2018-10-26 13:25:51,2018-10-26 13:25:51,0.062s,PASSED
click,Firefox 62.0,,2018-10-26 13:25:51,2018-10-26 13:25:55,3.729s,PASSED
delay,Firefox 62.0,,2018-10-26 13:25:55,2018-10-26 13:26:04,9.079s,PASSED
closeBrowser,Firefox 62.0,,2018-10-26 13:26:04,2018-10-26 13:26:04,0.275s,PASSED
openBrowser,Firefox 62.0,,2018-10-26 13:26:04,2018-10-26 13:26:07,2.529s,PASSED
maximizeWindow,Firefox 62.0,,2018-10-26 13:26:07,2018-10-26 13:26:11,3.589s,PASSED
navigateToUrl,Firefox 62.0,,2018-10-26 13:26:11,2018-10-26 13:26:20,9.371s,PASSED
waitForElementClickable,Firefox 62.0,,2018-10-26 13:26:20,2018-10-26 13:26:20,0.042s,PASSED
setText,Firefox 62.0,,2018-10-26 13:26:20,2018-10-26 13:26:20,0.208s,PASSED
setText,Firefox 62.0,,2018-10-26 13:26:20,2018-10-26 13:26:20,0.194s,PASSED
click,Firefox 62.0,,2018-10-26 13:26:20,2018-10-26 13:26:21,0.484s,PASSED
verifyElementPresent,Firefox 62.0,,2018-10-26 13:26:21,2018-10-26 13:26:27,5.647s,PASSED
closeBrowser,Firefox 62.0,,2018-10-26 13:26:27,2018-10-26 13:26:27,0.001s,NOT_RUN
,,,,,,
Test Cases/GETCRAFT/Register_Creator,Firefox 62.0,,2018-10-26 13:26:27,2018-10-26 13:26:56,29.210s,FAILED
Statement - RN = <not implemented yet for class: org.codehaus.groovy.ast.expr.EmptyExpression>,Firefox 62.0,,2018-10-26 13:26:27,2018-10-26 13:26:27,0.000s,PASSED
Statement - RN = java.lang.Math.random() * 999,Firefox 62.0,,2018-10-26 13:26:27,2018-10-26 13:26:27,0.001s,PASSED
Statement - mailinator = email + RN,Firefox 62.0,,2018-10-26 13:26:27,2018-10-26 13:26:27,0.001s,PASSED
Statement - user = email + RN + domain,Firefox 62.0,,2018-10-26 13:26:27,2018-10-26 13:26:27,0.001s,PASSED
Statement - firstname = name + RN,Firefox 62.0,,2018-10-26 13:26:27,2018-10-26 13:26:27,0.000s,PASSED
Statement - lastname = name2 + RN,Firefox 62.0,,2018-10-26 13:26:27,2018-10-26 13:26:27,0.000s,PASSED
Statement - Phone = phonenumber + RN,Firefox 62.0,,2018-10-26 13:26:27,2018-10-26 13:26:27,0.000s,PASSED
Statement - println(user),Firefox 62.0,,2018-10-26 13:26:27,2018-10-26 13:26:27,0.000s,PASSED
openBrowser,Firefox 62.0,,2018-10-26 13:26:27,2018-10-26 13:26:29,2.555s,PASSED
maximizeWindow,Firefox 62.0,,2018-10-26 13:26:29,2018-10-26 13:26:33,3.533s,PASSED
navigateToUrl,Firefox 62.0,,2018-10-26 13:26:33,2018-10-26 13:26:40,6.723s,PASSED
waitForElementClickable,Firefox 62.0,,2018-10-26 13:26:40,2018-10-26 13:26:40,0.610s,PASSED
click,Firefox 62.0,,2018-10-26 13:26:40,2018-10-26 13:26:41,0.337s,PASSED
click,Firefox 62.0,,2018-10-26 13:26:41,2018-10-26 13:26:41,0.305s,PASSED
setText,Firefox 62.0,,2018-10-26 13:26:41,2018-10-26 13:26:41,0.146s,PASSED
setText,Firefox 62.0,,2018-10-26 13:26:41,2018-10-26 13:26:41,0.120s,PASSED
setText,Firefox 62.0,,2018-10-26 13:26:41,2018-10-26 13:26:41,0.109s,PASSED
setText,Firefox 62.0,,2018-10-26 13:26:41,2018-10-26 13:26:41,0.178s,PASSED
setText,Firefox 62.0,,2018-10-26 13:26:41,2018-10-26 13:26:41,0.104s,PASSED
click,Firefox 62.0,,2018-10-26 13:26:41,2018-10-26 13:26:42,0.269s,PASSED
click,Firefox 62.0,,2018-10-26 13:26:42,2018-10-26 13:26:42,0.295s,PASSED
setText,Firefox 62.0,,2018-10-26 13:26:42,2018-10-26 13:26:42,0.187s,PASSED
click,Firefox 62.0,,2018-10-26 13:26:42,2018-10-26 13:26:42,0.253s,PASSED
click,Firefox 62.0,,2018-10-26 13:26:42,2018-10-26 13:26:43,0.260s,PASSED
click,Firefox 62.0,,2018-10-26 13:26:43,2018-10-26 13:26:43,0.265s,PASSED
delay,Firefox 62.0,,2018-10-26 13:26:43,2018-10-26 13:26:48,5.069s,PASSED
click,Firefox 62.0,,2018-10-26 13:26:48,2018-10-26 13:26:49,0.565s,PASSED
waitForElementClickable,Firefox 62.0,,2018-10-26 13:26:49,2018-10-26 13:26:49,0.054s,PASSED
click,Firefox 62.0,,2018-10-26 13:26:49,2018-10-26 13:26:50,0.854s,PASSED
delay,Firefox 62.0,,2018-10-26 13:26:50,2018-10-26 13:26:56,6.076s,PASSED
click,Firefox 62.0,,2018-10-26 13:26:56,2018-10-26 13:26:56,0.135s,FAILED
,,,,,,
Test Cases/GETCRAFT/Create_BriefUnselected(DRAFT),Firefox 62.0,,2018-10-26 13:26:56,2018-10-26 13:27:51,54.949s,PASSED
Statement - RN = <not implemented yet for class: org.codehaus.groovy.ast.expr.EmptyExpression>,Firefox 62.0,,2018-10-26 13:26:56,2018-10-26 13:26:56,0.001s,PASSED
Statement - RN = java.lang.Math.random() * 599,Firefox 62.0,,2018-10-26 13:26:56,2018-10-26 13:26:56,0.001s,PASSED
Statement - name_project = project_name + RN,Firefox 62.0,,2018-10-26 13:26:56,2018-10-26 13:26:56,0.001s,PASSED
openBrowser,Firefox 62.0,,2018-10-26 13:26:56,2018-10-26 13:26:58,2.419s,PASSED
maximizeWindow,Firefox 62.0,,2018-10-26 13:26:58,2018-10-26 13:27:02,3.582s,PASSED
navigateToUrl,Firefox 62.0,,2018-10-26 13:27:02,2018-10-26 13:27:09,7.084s,PASSED
"Statement - If (com.kms.katalon.core.webui.keyword.WebUiBuiltInKeywords.verifyElementVisible(com.kms.katalon.core.testobject.ObjectRepository.findTestObject(Object Repository/GETCRAFT/create_brief/Language_indo), OPTIONAL))",Firefox 62.0,,2018-10-26 13:27:09,2018-10-26 13:27:15,6.244s,PASSED
setText,Firefox 62.0,,2018-10-26 13:27:15,2018-10-26 13:27:16,0.269s,PASSED
setText,Firefox 62.0,,2018-10-26 13:27:16,2018-10-26 13:27:16,0.054s,PASSED
click,Firefox 62.0,,2018-10-26 13:27:16,2018-10-26 13:27:16,0.259s,PASSED
verifyElementPresent,Firefox 62.0,,2018-10-26 13:27:16,2018-10-26 13:27:22,6.358s,PASSED
click,Firefox 62.0,,2018-10-26 13:27:22,2018-10-26 13:27:23,0.535s,PASSED
delay,Firefox 62.0,,2018-10-26 13:27:23,2018-10-26 13:27:28,5.074s,PASSED
click,Firefox 62.0,,2018-10-26 13:27:28,2018-10-26 13:27:28,0.349s,PASSED
click,Firefox 62.0,,2018-10-26 13:27:28,2018-10-26 13:27:29,0.331s,PASSED
waitForElementClickable,Firefox 62.0,,2018-10-26 13:27:29,2018-10-26 13:27:29,0.001s,NOT_RUN
click,Firefox 62.0,,2018-10-26 13:27:29,2018-10-26 13:27:29,0.284s,PASSED
click,Firefox 62.0,,2018-10-26 13:27:29,2018-10-26 13:27:29,0.263s,PASSED
scrollToElement,Firefox 62.0,,2018-10-26 13:27:29,2018-10-26 13:27:29,0.044s,PASSED
waitForElementClickable,Firefox 62.0,,2018-10-26 13:27:29,2018-10-26 13:27:29,0.045s,PASSED
delay,Firefox 62.0,,2018-10-26 13:27:29,2018-10-26 13:27:31,2.077s,PASSED
click,Firefox 62.0,,2018-10-26 13:27:31,2018-10-26 13:27:32,0.311s,PASSED
click,Firefox 62.0,,2018-10-26 13:27:32,2018-10-26 13:27:32,0.258s,PASSED
click,Firefox 62.0,,2018-10-26 13:27:32,2018-10-26 13:27:32,0.295s,PASSED
waitForElementClickable,Firefox 62.0,,2018-10-26 13:27:32,2018-10-26 13:27:32,0.022s,PASSED
delay,Firefox 62.0,,2018-10-26 13:27:32,2018-10-26 13:27:34,2.076s,PASSED
click,Firefox 62.0,,2018-10-26 13:27:34,2018-10-26 13:27:35,0.350s,PASSED
click,Firefox 62.0,,2018-10-26 13:27:35,2018-10-26 13:27:35,0.292s,PASSED
click,Firefox 62.0,,2018-10-26 13:27:35,2018-10-26 13:27:35,0.324s,PASSED
setText,Firefox 62.0,,2018-10-26 13:27:35,2018-10-26 13:27:36,0.407s,PASSED
setText,Firefox 62.0,,2018-10-26 13:27:36,2018-10-26 13:27:36,0.180s,PASSED
setText,Firefox 62.0,,2018-10-26 13:27:36,2018-10-26 13:27:36,0.133s,PASSED
setText,Firefox 62.0,,2018-10-26 13:27:36,2018-10-26 13:27:36,0.118s,PASSED
scrollToElement,Firefox 62.0,,2018-10-26 13:27:36,2018-10-26 13:27:36,0.035s,PASSED
uploadFiles.uploadFile,Firefox 62.0,,2018-10-26 13:27:36,2018-10-26 13:27:36,0.001s,NOT_RUN
Statement - java.lang.Thread.sleep(2000),Firefox 62.0,,2018-10-26 13:27:36,2018-10-26 13:27:36,0.001s,NOT_RUN
waitForElementClickable,Firefox 62.0,,2018-10-26 13:27:36,2018-10-26 13:27:36,0.000s,NOT_RUN
click,Firefox 62.0,,2018-10-26 13:27:36,2018-10-26 13:27:36,0.000s,NOT_RUN
delay,Firefox 62.0,,2018-10-26 13:27:36,2018-10-26 13:27:36,0.001s,NOT_RUN
click,Firefox 62.0,,2018-10-26 13:27:36,2018-10-26 13:27:36,0.336s,PASSED
setText,Firefox 62.0,,2018-10-26 13:27:36,2018-10-26 13:27:37,0.189s,PASSED
click,Firefox 62.0,,2018-10-26 13:27:37,2018-10-26 13:27:37,0.275s,PASSED
click,Firefox 62.0,,2018-10-26 13:27:37,2018-10-26 13:27:37,0.277s,PASSED
scrollToElement,Firefox 62.0,,2018-10-26 13:27:37,2018-10-26 13:27:37,0.019s,PASSED
delay,Firefox 62.0,,2018-10-26 13:27:37,2018-10-26 13:27:40,3.077s,PASSED
click,Firefox 62.0,,2018-10-26 13:27:40,2018-10-26 13:27:41,0.270s,PASSED
waitForElementPresent,Firefox 62.0,,2018-10-26 13:27:41,2018-10-26 13:27:42,1.757s,PASSED
delay,Firefox 62.0,,2018-10-26 13:27:42,2018-10-26 13:27:47,5.074s,PASSED
verifyElementText,Firefox 62.0,,2018-10-26 13:27:47,2018-10-26 13:27:47,0.046s,PASSED
verifyElementPresent,Firefox 62.0,,2018-10-26 13:27:47,2018-10-26 13:27:47,0.013s,PASSED
delay,Firefox 62.0,,2018-10-26 13:27:47,2018-10-26 13:27:50,3.076s,PASSED
closeBrowser,Firefox 62.0,,2018-10-26 13:27:50,2018-10-26 13:27:51,0.248s,PASSED
,,,,,,
Test Cases/GETCRAFT/Create_BriefUnselected(SENDtoCREATOR),Firefox 62.0,,2018-10-26 13:27:51,2018-10-26 13:28:54,1m - 3.028s,PASSED
Statement - RN = <not implemented yet for class: org.codehaus.groovy.ast.expr.EmptyExpression>,Firefox 62.0,,2018-10-26 13:27:51,2018-10-26 13:27:51,0.001s,PASSED
Statement - RN = java.lang.Math.random() * 599,Firefox 62.0,,2018-10-26 13:27:51,2018-10-26 13:27:51,0.001s,PASSED
Statement - name_project = project_name + RN,Firefox 62.0,,2018-10-26 13:27:51,2018-10-26 13:27:51,0.000s,PASSED
openBrowser,Firefox 62.0,,2018-10-26 13:27:51,2018-10-26 13:27:53,2.418s,PASSED
maximizeWindow,Firefox 62.0,,2018-10-26 13:27:53,2018-10-26 13:27:57,3.552s,PASSED
navigateToUrl,Firefox 62.0,,2018-10-26 13:27:57,2018-10-26 13:28:02,5.253s,PASSED
"Statement - If (com.kms.katalon.core.webui.keyword.WebUiBuiltInKeywords.verifyElementVisible(com.kms.katalon.core.testobject.ObjectRepository.findTestObject(Object Repository/GETCRAFT/create_brief/Language_indo), OPTIONAL))",Firefox 62.0,,2018-10-26 13:28:02,2018-10-26 13:28:09,6.763s,PASSED
setText,Firefox 62.0,,2018-10-26 13:28:09,2018-10-26 13:28:09,0.252s,PASSED
setText,Firefox 62.0,,2018-10-26 13:28:09,2018-10-26 13:28:09,0.054s,PASSED
click,Firefox 62.0,,2018-10-26 13:28:09,2018-10-26 13:28:09,0.248s,PASSED
verifyElementPresent,Firefox 62.0,,2018-10-26 13:28:09,2018-10-26 13:28:15,5.858s,PASSED
click,Firefox 62.0,,2018-10-26 13:28:15,2018-10-26 13:28:16,0.725s,PASSED
delay,Firefox 62.0,,2018-10-26 13:28:16,2018-10-26 13:28:23,7.076s,PASSED
click,Firefox 62.0,,2018-10-26 13:28:23,2018-10-26 13:28:23,0.338s,PASSED
delay,Firefox 62.0,,2018-10-26 13:28:23,2018-10-26 13:28:26,2.077s,PASSED
click,Firefox 62.0,,2018-10-26 13:28:26,2018-10-26 13:28:26,0.321s,PASSED
waitForElementClickable,Firefox 62.0,,2018-10-26 13:28:26,2018-10-26 13:28:26,0.001s,NOT_RUN
click,Firefox 62.0,,2018-10-26 13:28:26,2018-10-26 13:28:26,0.283s,PASSED
click,Firefox 62.0,,2018-10-26 13:28:26,2018-10-26 13:28:26,0.264s,PASSED
scrollToElement,Firefox 62.0,,2018-10-26 13:28:26,2018-10-26 13:28:26,0.016s,PASSED
waitForElementClickable,Firefox 62.0,,2018-10-26 13:28:26,2018-10-26 13:28:26,0.036s,PASSED
delay,Firefox 62.0,,2018-10-26 13:28:26,2018-10-26 13:28:29,2.075s,PASSED
click,Firefox 62.0,,2018-10-26 13:28:29,2018-10-26 13:28:29,0.347s,PASSED
click,Firefox 62.0,,2018-10-26 13:28:29,2018-10-26 13:28:29,0.264s,PASSED
click,Firefox 62.0,,2018-10-26 13:28:29,2018-10-26 13:28:29,0.307s,PASSED
waitForElementClickable,Firefox 62.0,,2018-10-26 13:28:29,2018-10-26 13:28:29,0.019s,PASSED
delay,Firefox 62.0,,2018-10-26 13:28:29,2018-10-26 13:28:32,2.075s,PASSED
click,Firefox 62.0,,2018-10-26 13:28:32,2018-10-26 13:28:32,0.431s,PASSED
click,Firefox 62.0,,2018-10-26 13:28:32,2018-10-26 13:28:32,0.302s,PASSED
click,Firefox 62.0,,2018-10-26 13:28:32,2018-10-26 13:28:33,0.279s,PASSED
setText,Firefox 62.0,,2018-10-26 13:28:33,2018-10-26 13:28:33,0.427s,PASSED
setText,Firefox 62.0,,2018-10-26 13:28:33,2018-10-26 13:28:33,0.184s,PASSED
setText,Firefox 62.0,,2018-10-26 13:28:33,2018-10-26 13:28:33,0.127s,PASSED
setText,Firefox 62.0,,2018-10-26 13:28:33,2018-10-26 13:28:33,0.118s,PASSED
scrollToElement,Firefox 62.0,,2018-10-26 13:28:33,2018-10-26 13:28:33,0.031s,PASSED
uploadFiles.uploadFile,Firefox 62.0,,2018-10-26 13:28:33,2018-10-26 13:28:33,0.001s,NOT_RUN
Statement - java.lang.Thread.sleep(2000),Firefox 62.0,,2018-10-26 13:28:33,2018-10-26 13:28:33,0.000s,NOT_RUN
waitForElementClickable,Firefox 62.0,,2018-10-26 13:28:33,2018-10-26 13:28:33,0.000s,NOT_RUN
click,Firefox 62.0,,2018-10-26 13:28:33,2018-10-26 13:28:33,0.001s,NOT_RUN
delay,Firefox 62.0,,2018-10-26 13:28:33,2018-10-26 13:28:33,0.001s,NOT_RUN
click,Firefox 62.0,,2018-10-26 13:28:33,2018-10-26 13:28:34,0.304s,PASSED
setText,Firefox 62.0,,2018-10-26 13:28:34,2018-10-26 13:28:34,0.167s,PASSED
click,Firefox 62.0,,2018-10-26 13:28:34,2018-10-26 13:28:34,0.271s,PASSED
click,Firefox 62.0,,2018-10-26 13:28:34,2018-10-26 13:28:34,0.274s,PASSED
scrollToElement,Firefox 62.0,,2018-10-26 13:28:34,2018-10-26 13:28:35,0.017s,PASSED
delay,Firefox 62.0,,2018-10-26 13:28:35,2018-10-26 13:28:38,3.074s,PASSED
click,Firefox 62.0,,2018-10-26 13:28:38,2018-10-26 13:28:38,0.259s,PASSED
waitForElementClickable,Firefox 62.0,,2018-10-26 13:28:38,2018-10-26 13:28:40,1.663s,PASSED
click,Firefox 62.0,,2018-10-26 13:28:40,2018-10-26 13:28:40,0.289s,PASSED
delay,Firefox 62.0,,2018-10-26 13:28:40,2018-10-26 13:28:43,3.070s,PASSED
click,Firefox 62.0,,2018-10-26 13:28:43,2018-10-26 13:28:44,0.659s,PASSED
waitForElementPresent,Firefox 62.0,,2018-10-26 13:28:44,2018-10-26 13:28:45,1.784s,PASSED
delay,Firefox 62.0,,2018-10-26 13:28:45,2018-10-26 13:28:50,5.074s,PASSED
verifyElementText,Firefox 62.0,,2018-10-26 13:28:50,2018-10-26 13:28:50,0.035s,PASSED
verifyElementPresent,Firefox 62.0,,2018-10-26 13:28:50,2018-10-26 13:28:50,0.027s,PASSED
delay,Firefox 62.0,,2018-10-26 13:28:50,2018-10-26 13:28:54,3.074s,PASSED
closeBrowser,Firefox 62.0,,2018-10-26 13:28:54,2018-10-26 13:28:54,0.233s,PASSED
,,,,,,
Test Cases/GETCRAFT/Create_BriefSelected(DRAFT),Firefox 62.0,,2018-10-26 13:28:54,2018-10-26 13:29:38,44.109s,PASSED
Statement - RN = <not implemented yet for class: org.codehaus.groovy.ast.expr.EmptyExpression>,Firefox 62.0,,2018-10-26 13:28:54,2018-10-26 13:28:54,0.001s,PASSED
Statement - RN = java.lang.Math.random() * 599,Firefox 62.0,,2018-10-26 13:28:54,2018-10-26 13:28:54,0.001s,PASSED
Statement - name_project = project_name + RN,Firefox 62.0,,2018-10-26 13:28:54,2018-10-26 13:28:54,0.000s,PASSED
openBrowser,Firefox 62.0,,2018-10-26 13:28:54,2018-10-26 13:28:56,2.333s,PASSED
maximizeWindow,Firefox 62.0,,2018-10-26 13:28:56,2018-10-26 13:29:00,3.612s,PASSED
navigateToUrl,Firefox 62.0,,2018-10-26 13:29:00,2018-10-26 13:29:05,4.714s,PASSED
"Statement - If (com.kms.katalon.core.webui.keyword.WebUiBuiltInKeywords.verifyElementVisible(com.kms.katalon.core.testobject.ObjectRepository.findTestObject(Object Repository/GETCRAFT/create_brief/Language_indo), OPTIONAL))",Firefox 62.0,,2018-10-26 13:29:05,2018-10-26 13:29:11,6.493s,PASSED
setText,Firefox 62.0,,2018-10-26 13:29:11,2018-10-26 13:29:11,0.265s,PASSED
setText,Firefox 62.0,,2018-10-26 13:29:11,2018-10-26 13:29:11,0.054s,PASSED
click,Firefox 62.0,,2018-10-26 13:29:11,2018-10-26 13:29:12,0.247s,PASSED
verifyElementPresent,Firefox 62.0,,2018-10-26 13:29:12,2018-10-26 13:29:17,4.813s,PASSED
click,Firefox 62.0,,2018-10-26 13:29:17,2018-10-26 13:29:17,0.290s,PASSED
click,Firefox 62.0,,2018-10-26 13:29:17,2018-10-26 13:29:17,0.521s,PASSED
delay,Firefox 62.0,,2018-10-26 13:29:17,2018-10-26 13:29:21,4.072s,PASSED
waitForElementClickable,Firefox 62.0,,2018-10-26 13:29:21,2018-10-26 13:29:21,0.043s,PASSED
scrollToElement,Firefox 62.0,,2018-10-26 13:29:21,2018-10-26 13:29:22,0.096s,PASSED
click,Firefox 62.0,,2018-10-26 13:29:22,2018-10-26 13:29:22,0.491s,PASSED
click,Firefox 62.0,,2018-10-26 13:29:22,2018-10-26 13:29:22,0.295s,PASSED
click,Firefox 62.0,,2018-10-26 13:29:22,2018-10-26 13:29:23,0.653s,PASSED
setText,Firefox 62.0,,2018-10-26 13:29:23,2018-10-26 13:29:23,0.424s,PASSED
setText,Firefox 62.0,,2018-10-26 13:29:23,2018-10-26 13:29:24,0.191s,PASSED
setText,Firefox 62.0,,2018-10-26 13:29:24,2018-10-26 13:29:24,0.124s,PASSED
setText,Firefox 62.0,,2018-10-26 13:29:24,2018-10-26 13:29:24,0.116s,PASSED
scrollToElement,Firefox 62.0,,2018-10-26 13:29:24,2018-10-26 13:29:24,0.020s,PASSED
uploadFiles.uploadFile,Firefox 62.0,,2018-10-26 13:29:24,2018-10-26 13:29:24,0.000s,NOT_RUN
Statement - java.lang.Thread.sleep(2000),Firefox 62.0,,2018-10-26 13:29:24,2018-10-26 13:29:24,0.001s,NOT_RUN
waitForElementClickable,Firefox 62.0,,2018-10-26 13:29:24,2018-10-26 13:29:24,0.000s,NOT_RUN
click,Firefox 62.0,,2018-10-26 13:29:24,2018-10-26 13:29:24,0.001s,NOT_RUN
delay,Firefox 62.0,,2018-10-26 13:29:24,2018-10-26 13:29:24,0.000s,NOT_RUN
click,Firefox 62.0,,2018-10-26 13:29:24,2018-10-26 13:29:24,0.309s,PASSED
setText,Firefox 62.0,,2018-10-26 13:29:24,2018-10-26 13:29:24,0.171s,PASSED
click,Firefox 62.0,,2018-10-26 13:29:24,2018-10-26 13:29:25,0.310s,PASSED
click,Firefox 62.0,,2018-10-26 13:29:25,2018-10-26 13:29:25,0.269s,PASSED
scrollToElement,Firefox 62.0,,2018-10-26 13:29:25,2018-10-26 13:29:25,0.023s,PASSED
delay,Firefox 62.0,,2018-10-26 13:29:25,2018-10-26 13:29:28,3.072s,PASSED
click,Firefox 62.0,,2018-10-26 13:29:28,2018-10-26 13:29:28,0.259s,PASSED
waitForElementPresent,Firefox 62.0,,2018-10-26 13:29:28,2018-10-26 13:29:29,1.170s,PASSED
delay,Firefox 62.0,,2018-10-26 13:29:29,2018-10-26 13:29:35,5.075s,PASSED
verifyElementText,Firefox 62.0,,2018-10-26 13:29:35,2018-10-26 13:29:35,0.026s,PASSED
verifyElementPresent,Firefox 62.0,,2018-10-26 13:29:35,2018-10-26 13:29:35,0.013s,PASSED
delay,Firefox 62.0,,2018-10-26 13:29:35,2018-10-26 13:29:38,3.072s,PASSED
closeBrowser,Firefox 62.0,,2018-10-26 13:29:38,2018-10-26 13:29:38,0.244s,PASSED
,,,,,,
Test Cases/GETCRAFT/Create_BriefSelected(SENDtoCREATOR),Firefox 62.0,,2018-10-26 13:29:38,2018-10-26 13:30:29,51.602s,PASSED
Statement - RN = <not implemented yet for class: org.codehaus.groovy.ast.expr.EmptyExpression>,Firefox 62.0,,2018-10-26 13:29:38,2018-10-26 13:29:38,0.000s,PASSED
Statement - RN = java.lang.Math.random() * 599,Firefox 62.0,,2018-10-26 13:29:38,2018-10-26 13:29:38,0.000s,PASSED
Statement - name_project = project_name + RN,Firefox 62.0,,2018-10-26 13:29:38,2018-10-26 13:29:38,0.001s,PASSED
openBrowser,Firefox 62.0,,2018-10-26 13:29:38,2018-10-26 13:29:40,2.137s,PASSED
maximizeWindow,Firefox 62.0,,2018-10-26 13:29:40,2018-10-26 13:29:44,3.549s,PASSED
navigateToUrl,Firefox 62.0,,2018-10-26 13:29:44,2018-10-26 13:29:49,5.409s,PASSED
"Statement - If (com.kms.katalon.core.webui.keyword.WebUiBuiltInKeywords.verifyElementVisible(com.kms.katalon.core.testobject.ObjectRepository.findTestObject(Object Repository/GETCRAFT/create_brief/Language_indo), OPTIONAL))",Firefox 62.0,,2018-10-26 13:29:49,2018-10-26 13:29:56,6.809s,PASSED
setText,Firefox 62.0,,2018-10-26 13:29:56,2018-10-26 13:29:56,0.246s,PASSED
setText,Firefox 62.0,,2018-10-26 13:29:56,2018-10-26 13:29:56,0.057s,PASSED
click,Firefox 62.0,,2018-10-26 13:29:56,2018-10-26 13:29:57,0.274s,PASSED
verifyElementPresent,Firefox 62.0,,2018-10-26 13:29:57,2018-10-26 13:30:03,6.269s,PASSED
click,Firefox 62.0,,2018-10-26 13:30:03,2018-10-26 13:30:03,0.314s,PASSED
click,Firefox 62.0,,2018-10-26 13:30:03,2018-10-26 13:30:04,0.439s,PASSED
delay,Firefox 62.0,,2018-10-26 13:30:04,2018-10-26 13:30:07,3.138s,PASSED
waitForElementClickable,Firefox 62.0,,2018-10-26 13:30:07,2018-10-26 13:30:07,0.026s,PASSED
scrollToElement,Firefox 62.0,,2018-10-26 13:30:07,2018-10-26 13:30:07,0.030s,PASSED
click,Firefox 62.0,,2018-10-26 13:30:07,2018-10-26 13:30:07,0.460s,PASSED
click,Firefox 62.0,,2018-10-26 13:30:07,2018-10-26 13:30:08,0.350s,PASSED
click,Firefox 62.0,,2018-10-26 13:30:08,2018-10-26 13:30:08,0.856s,PASSED
setText,Firefox 62.0,,2018-10-26 13:30:08,2018-10-26 13:30:09,0.538s,PASSED
setText,Firefox 62.0,,2018-10-26 13:30:09,2018-10-26 13:30:09,0.168s,PASSED
setText,Firefox 62.0,,2018-10-26 13:30:09,2018-10-26 13:30:09,0.204s,PASSED
setText,Firefox 62.0,,2018-10-26 13:30:09,2018-10-26 13:30:09,0.127s,PASSED
scrollToElement,Firefox 62.0,,2018-10-26 13:30:09,2018-10-26 13:30:09,0.023s,PASSED
uploadFiles.uploadFile,Firefox 62.0,,2018-10-26 13:30:09,2018-10-26 13:30:09,0.000s,NOT_RUN
Statement - java.lang.Thread.sleep(2000),Firefox 62.0,,2018-10-26 13:30:09,2018-10-26 13:30:09,0.001s,NOT_RUN
waitForElementClickable,Firefox 62.0,,2018-10-26 13:30:09,2018-10-26 13:30:09,0.000s,NOT_RUN
click,Firefox 62.0,,2018-10-26 13:30:09,2018-10-26 13:30:09,0.001s,NOT_RUN
delay,Firefox 62.0,,2018-10-26 13:30:09,2018-10-26 13:30:09,0.000s,NOT_RUN
click,Firefox 62.0,,2018-10-26 13:30:09,2018-10-26 13:30:10,0.363s,PASSED
setText,Firefox 62.0,,2018-10-26 13:30:10,2018-10-26 13:30:10,0.162s,PASSED
click,Firefox 62.0,,2018-10-26 13:30:10,2018-10-26 13:30:10,0.351s,PASSED
click,Firefox 62.0,,2018-10-26 13:30:10,2018-10-26 13:30:11,0.270s,PASSED
scrollToElement,Firefox 62.0,,2018-10-26 13:30:11,2018-10-26 13:30:11,0.020s,PASSED
delay,Firefox 62.0,,2018-10-26 13:30:11,2018-10-26 13:30:14,3.149s,PASSED
click,Firefox 62.0,,2018-10-26 13:30:14,2018-10-26 13:30:14,0.264s,PASSED
waitForElementClickable,Firefox 62.0,,2018-10-26 13:30:14,2018-10-26 13:30:15,1.441s,PASSED
click,Firefox 62.0,,2018-10-26 13:30:15,2018-10-26 13:30:16,0.271s,PASSED
delay,Firefox 62.0,,2018-10-26 13:30:16,2018-10-26 13:30:19,3.150s,PASSED
click,Firefox 62.0,,2018-10-26 13:30:19,2018-10-26 13:30:20,0.656s,PASSED
waitForElementPresent,Firefox 62.0,,2018-10-26 13:30:20,2018-10-26 13:30:21,1.319s,PASSED
delay,Firefox 62.0,,2018-10-26 13:30:21,2018-10-26 13:30:26,5.150s,PASSED
verifyElementText,Firefox 62.0,,2018-10-26 13:30:26,2018-10-26 13:30:26,0.036s,PASSED
verifyElementPresent,Firefox 62.0,,2018-10-26 13:30:26,2018-10-26 13:30:26,0.024s,PASSED
delay,Firefox 62.0,,2018-10-26 13:30:26,2018-10-26 13:30:29,3.151s,PASSED
closeBrowser,Firefox 62.0,,2018-10-26 13:30:29,2018-10-26 13:30:29,0.239s,PASSED
,,,,,,
Test Cases/GETCRAFT/Brief_phase2_unselected_login,Firefox 62.0,,2018-10-26 13:30:29,2018-10-26 13:32:14,1m - 44.477s,PASSED
Statement - RN = <not implemented yet for class: org.codehaus.groovy.ast.expr.EmptyExpression>,Firefox 62.0,,2018-10-26 13:30:30,2018-10-26 13:30:30,0.000s,PASSED
Statement - RN = java.lang.Math.random() * 599,Firefox 62.0,,2018-10-26 13:30:30,2018-10-26 13:30:30,0.000s,PASSED
Statement - name_project = project_name + RN,Firefox 62.0,,2018-10-26 13:30:30,2018-10-26 13:30:30,0.000s,PASSED
openBrowser,Firefox 62.0,,2018-10-26 13:30:30,2018-10-26 13:30:32,2.377s,PASSED
maximizeWindow,Firefox 62.0,,2018-10-26 13:30:32,2018-10-26 13:30:36,3.561s,PASSED
navigateToUrl,Firefox 62.0,,2018-10-26 13:30:36,2018-10-26 13:30:43,7.023s,PASSED
"Statement - If (com.kms.katalon.core.webui.keyword.WebUiBuiltInKeywords.verifyElementVisible(com.kms.katalon.core.testobject.ObjectRepository.findTestObject(Object Repository/GETCRAFT/create_brief/Language_indo), OPTIONAL))",Firefox 62.0,,2018-10-26 13:30:43,2018-10-26 13:30:49,6.507s,PASSED
click,Firefox 62.0,,2018-10-26 13:30:49,2018-10-26 13:30:50,0.794s,PASSED
delay,Firefox 62.0,,2018-10-26 13:30:50,2018-10-26 13:30:52,2.148s,PASSED
click,Firefox 62.0,,2018-10-26 13:30:52,2018-10-26 13:30:52,0.361s,PASSED
click,Firefox 62.0,,2018-10-26 13:30:52,2018-10-26 13:30:53,0.354s,PASSED
waitForElementClickable,Firefox 62.0,,2018-10-26 13:30:53,2018-10-26 13:30:53,0.001s,NOT_RUN
click,Firefox 62.0,,2018-10-26 13:30:53,2018-10-26 13:30:53,0.301s,PASSED
click,Firefox 62.0,,2018-10-26 13:30:53,2018-10-26 13:30:53,0.397s,PASSED
scrollToElement,Firefox 62.0,,2018-10-26 13:30:53,2018-10-26 13:30:53,0.020s,PASSED
waitForElementClickable,Firefox 62.0,,2018-10-26 13:30:53,2018-10-26 13:30:53,0.032s,PASSED
delay,Firefox 62.0,,2018-10-26 13:30:53,2018-10-26 13:30:56,2.150s,PASSED
click,Firefox 62.0,,2018-10-26 13:30:56,2018-10-26 13:30:56,0.513s,PASSED
click,Firefox 62.0,,2018-10-26 13:30:56,2018-10-26 13:30:56,0.285s,PASSED
click,Firefox 62.0,,2018-10-26 13:30:56,2018-10-26 13:30:57,0.323s,PASSED
waitForElementClickable,Firefox 62.0,,2018-10-26 13:30:57,2018-10-26 13:30:57,0.025s,PASSED
delay,Firefox 62.0,,2018-10-26 13:30:57,2018-10-26 13:30:59,2.144s,PASSED
click,Firefox 62.0,,2018-10-26 13:30:59,2018-10-26 13:30:59,0.412s,PASSED
click,Firefox 62.0,,2018-10-26 13:30:59,2018-10-26 13:31:00,0.302s,PASSED
click,Firefox 62.0,,2018-10-26 13:31:00,2018-10-26 13:31:00,0.299s,PASSED
setText,Firefox 62.0,,2018-10-26 13:31:00,2018-10-26 13:31:00,0.441s,PASSED
setText,Firefox 62.0,,2018-10-26 13:31:00,2018-10-26 13:31:01,0.215s,PASSED
setText,Firefox 62.0,,2018-10-26 13:31:01,2018-10-26 13:31:01,0.131s,PASSED
setText,Firefox 62.0,,2018-10-26 13:31:01,2018-10-26 13:31:01,0.145s,PASSED
scrollToElement,Firefox 62.0,,2018-10-26 13:31:01,2018-10-26 13:31:01,0.033s,PASSED
click,Firefox 62.0,,2018-10-26 13:31:01,2018-10-26 13:31:01,0.393s,PASSED
setText,Firefox 62.0,,2018-10-26 13:31:01,2018-10-26 13:31:01,0.173s,PASSED
click,Firefox 62.0,,2018-10-26 13:31:01,2018-10-26 13:31:02,0.283s,PASSED
click,Firefox 62.0,,2018-10-26 13:31:02,2018-10-26 13:31:02,0.266s,PASSED
scrollToElement,Firefox 62.0,,2018-10-26 13:31:02,2018-10-26 13:31:02,0.017s,PASSED
delay,Firefox 62.0,,2018-10-26 13:31:02,2018-10-26 13:31:05,3.150s,PASSED
click,Firefox 62.0,,2018-10-26 13:31:05,2018-10-26 13:31:05,0.284s,PASSED
scrollToElement,Firefox 62.0,,2018-10-26 13:31:05,2018-10-26 13:31:07,1.322s,PASSED
delay,Firefox 62.0,,2018-10-26 13:31:07,2018-10-26 13:31:10,3.148s,PASSED
click,Firefox 62.0,,2018-10-26 13:31:10,2018-10-26 13:31:10,0.292s,PASSED
setText,Firefox 62.0,,2018-10-26 13:31:10,2018-10-26 13:31:11,0.431s,PASSED
setText,Firefox 62.0,,2018-10-26 13:31:11,2018-10-26 13:31:11,0.067s,PASSED
delay,Firefox 62.0,,2018-10-26 13:31:11,2018-10-26 13:31:16,5.149s,PASSED
click,Firefox 62.0,,2018-10-26 13:31:16,2018-10-26 13:31:16,0.368s,PASSED
waitForElementPresent,Firefox 62.0,,2018-10-26 13:31:16,2018-10-26 13:32:08,51.289s,PASSED
delay,Firefox 62.0,,2018-10-26 13:32:08,2018-10-26 13:32:11,3.066s,PASSED
verifyElementText,Firefox 62.0,,2018-10-26 13:32:11,2018-10-26 13:32:11,0.033s,PASSED
verifyElementPresent,Firefox 62.0,,2018-10-26 13:32:11,2018-10-26 13:32:11,0.012s,PASSED
delay,Firefox 62.0,,2018-10-26 13:32:11,2018-10-26 13:32:14,3.074s,PASSED
closeBrowser,Firefox 62.0,,2018-10-26 13:32:14,2018-10-26 13:32:14,0.242s,PASSED
,,,,,,
Test Cases/GETCRAFT/Brief_phase2_selected_login ,Firefox 62.0,,2018-10-26 13:32:14,2018-10-26 13:33:12,58.379s,PASSED
Statement - RN = <not implemented yet for class: org.codehaus.groovy.ast.expr.EmptyExpression>,Firefox 62.0,,2018-10-26 13:32:14,2018-10-26 13:32:14,0.000s,PASSED
Statement - RN = java.lang.Math.random() * 599,Firefox 62.0,,2018-10-26 13:32:14,2018-10-26 13:32:14,0.000s,PASSED
Statement - name_project = project_name + RN,Firefox 62.0,,2018-10-26 13:32:14,2018-10-26 13:32:14,0.000s,PASSED
openBrowser,Firefox 62.0,,2018-10-26 13:32:14,2018-10-26 13:32:17,2.520s,PASSED
maximizeWindow,Firefox 62.0,,2018-10-26 13:32:17,2018-10-26 13:32:20,3.550s,PASSED
navigateToUrl,Firefox 62.0,,2018-10-26 13:32:20,2018-10-26 13:32:28,7.592s,PASSED
"Statement - If (com.kms.katalon.core.webui.keyword.WebUiBuiltInKeywords.verifyElementVisible(com.kms.katalon.core.testobject.ObjectRepository.findTestObject(Object Repository/GETCRAFT/create_brief/Language_indo), OPTIONAL))",Firefox 62.0,,2018-10-26 13:32:28,2018-10-26 13:32:35,6.865s,PASSED
click,Firefox 62.0,,2018-10-26 13:32:35,2018-10-26 13:32:35,0.569s,PASSED
delay,Firefox 62.0,,2018-10-26 13:32:35,2018-10-26 13:32:40,5.074s,PASSED
waitForElementClickable,Firefox 62.0,,2018-10-26 13:32:40,2018-10-26 13:32:40,0.033s,PASSED
scrollToElement,Firefox 62.0,,2018-10-26 13:32:40,2018-10-26 13:32:40,0.020s,PASSED
click,Firefox 62.0,,2018-10-26 13:32:40,2018-10-26 13:32:41,0.478s,PASSED
click,Firefox 62.0,,2018-10-26 13:32:41,2018-10-26 13:32:41,0.300s,PASSED
click,Firefox 62.0,,2018-10-26 13:32:41,2018-10-26 13:32:42,0.621s,PASSED
delay,Firefox 62.0,,2018-10-26 13:32:42,2018-10-26 13:32:44,2.074s,PASSED
setText,Firefox 62.0,,2018-10-26 13:32:44,2018-10-26 13:32:44,0.464s,PASSED
setText,Firefox 62.0,,2018-10-26 13:32:44,2018-10-26 13:32:44,0.166s,PASSED
setText,Firefox 62.0,,2018-10-26 13:32:44,2018-10-26 13:32:45,0.133s,PASSED
setText,Firefox 62.0,,2018-10-26 13:32:45,2018-10-26 13:32:45,0.117s,PASSED
scrollToElement,Firefox 62.0,,2018-10-26 13:32:45,2018-10-26 13:32:45,0.020s,PASSED
click,Firefox 62.0,,2018-10-26 13:32:45,2018-10-26 13:32:45,0.263s,PASSED
setText,Firefox 62.0,,2018-10-26 13:32:45,2018-10-26 13:32:45,0.158s,PASSED
click,Firefox 62.0,,2018-10-26 13:32:45,2018-10-26 13:32:45,0.279s,PASSED
click,Firefox 62.0,,2018-10-26 13:32:45,2018-10-26 13:32:46,0.282s,PASSED
scrollToElement,Firefox 62.0,,2018-10-26 13:32:46,2018-10-26 13:32:46,0.017s,PASSED
delay,Firefox 62.0,,2018-10-26 13:32:46,2018-10-26 13:32:49,3.076s,PASSED
click,Firefox 62.0,,2018-10-26 13:32:49,2018-10-26 13:32:49,0.310s,PASSED
scrollToElement,Firefox 62.0,,2018-10-26 13:32:49,2018-10-26 13:32:49,0.018s,PASSED
delay,Firefox 62.0,,2018-10-26 13:32:49,2018-10-26 13:32:52,3.075s,PASSED
click,Firefox 62.0,,2018-10-26 13:32:52,2018-10-26 13:32:53,0.323s,PASSED
setText,Firefox 62.0,,2018-10-26 13:32:53,2018-10-26 13:32:53,0.559s,PASSED
setText,Firefox 62.0,,2018-10-26 13:32:53,2018-10-26 13:32:53,0.063s,PASSED
delay,Firefox 62.0,,2018-10-26 13:32:53,2018-10-26 13:32:58,5.076s,PASSED
click,Firefox 62.0,,2018-10-26 13:32:58,2018-10-26 13:32:59,0.327s,PASSED
waitForElementPresent,Firefox 62.0,,2018-10-26 13:32:59,2018-10-26 13:33:06,7.343s,PASSED
delay,Firefox 62.0,,2018-10-26 13:33:06,2018-10-26 13:33:09,3.075s,PASSED
verifyElementText,Firefox 62.0,,2018-10-26 13:33:09,2018-10-26 13:33:09,0.025s,PASSED
verifyElementPresent,Firefox 62.0,,2018-10-26 13:33:09,2018-10-26 13:33:09,0.012s,PASSED
delay,Firefox 62.0,,2018-10-26 13:33:09,2018-10-26 13:33:12,3.076s,PASSED
closeBrowser,Firefox 62.0,,2018-10-26 13:33:12,2018-10-26 13:33:12,0.252s,PASSED
,,,,,,
Test Cases/GETCRAFT/Brief_phase2_unselected_loginMultiple,Firefox 62.0,,2018-10-26 13:33:12,2018-10-26 13:35:12,1m - 59.773s,PASSED
Statement - RN = <not implemented yet for class: org.codehaus.groovy.ast.expr.EmptyExpression>,Firefox 62.0,,2018-10-26 13:33:12,2018-10-26 13:33:12,0.000s,PASSED
Statement - RN = java.lang.Math.random() * 599,Firefox 62.0,,2018-10-26 13:33:12,2018-10-26 13:33:12,0.001s,PASSED
Statement - name_project = project_name + RN,Firefox 62.0,,2018-10-26 13:33:12,2018-10-26 13:33:12,0.000s,PASSED
openBrowser,Firefox 62.0,,2018-10-26 13:33:12,2018-10-26 13:33:15,2.232s,PASSED
maximizeWindow,Firefox 62.0,,2018-10-26 13:33:15,2018-10-26 13:33:18,3.516s,PASSED
navigateToUrl,Firefox 62.0,,2018-10-26 13:33:18,2018-10-26 13:33:28,9.375s,PASSED
"Statement - If (com.kms.katalon.core.webui.keyword.WebUiBuiltInKeywords.verifyElementVisible(com.kms.katalon.core.testobject.ObjectRepository.findTestObject(Object Repository/GETCRAFT/create_brief/Language_indo), OPTIONAL))",Firefox 62.0,,2018-10-26 13:33:28,2018-10-26 13:33:35,7.141s,PASSED
click,Firefox 62.0,,2018-10-26 13:33:35,2018-10-26 13:33:36,0.773s,PASSED
delay,Firefox 62.0,,2018-10-26 13:33:36,2018-10-26 13:33:38,2.072s,PASSED
click,Firefox 62.0,,2018-10-26 13:33:38,2018-10-26 13:33:38,0.360s,PASSED
click,Firefox 62.0,,2018-10-26 13:33:38,2018-10-26 13:33:38,0.334s,PASSED
waitForElementClickable,Firefox 62.0,,2018-10-26 13:33:38,2018-10-26 13:33:38,0.001s,NOT_RUN
click,Firefox 62.0,,2018-10-26 13:33:38,2018-10-26 13:33:39,0.299s,PASSED
click,Firefox 62.0,,2018-10-26 13:33:39,2018-10-26 13:33:39,0.341s,PASSED
scrollToElement,Firefox 62.0,,2018-10-26 13:33:39,2018-10-26 13:33:39,0.020s,PASSED
waitForElementClickable,Firefox 62.0,,2018-10-26 13:33:39,2018-10-26 13:33:39,0.029s,PASSED
delay,Firefox 62.0,,2018-10-26 13:33:39,2018-10-26 13:33:41,2.075s,PASSED
click,Firefox 62.0,,2018-10-26 13:33:41,2018-10-26 13:33:41,0.330s,PASSED
click,Firefox 62.0,,2018-10-26 13:33:41,2018-10-26 13:33:42,0.258s,PASSED
click,Firefox 62.0,,2018-10-26 13:33:42,2018-10-26 13:33:42,0.266s,PASSED
waitForElementClickable,Firefox 62.0,,2018-10-26 13:33:42,2018-10-26 13:33:42,0.020s,PASSED
delay,Firefox 62.0,,2018-10-26 13:33:42,2018-10-26 13:33:44,2.076s,PASSED
click,Firefox 62.0,,2018-10-26 13:33:44,2018-10-26 13:33:44,0.374s,PASSED
click,Firefox 62.0,,2018-10-26 13:33:44,2018-10-26 13:33:45,0.291s,PASSED
click,Firefox 62.0,,2018-10-26 13:33:45,2018-10-26 13:33:45,0.305s,PASSED
setText,Firefox 62.0,,2018-10-26 13:33:45,2018-10-26 13:33:45,0.431s,PASSED
setText,Firefox 62.0,,2018-10-26 13:33:45,2018-10-26 13:33:46,0.182s,PASSED
setText,Firefox 62.0,,2018-10-26 13:33:46,2018-10-26 13:33:46,0.151s,PASSED
setText,Firefox 62.0,,2018-10-26 13:33:46,2018-10-26 13:33:46,0.128s,PASSED
scrollToElement,Firefox 62.0,,2018-10-26 13:33:46,2018-10-26 13:33:46,0.029s,PASSED
click,Firefox 62.0,,2018-10-26 13:33:46,2018-10-26 13:33:46,0.260s,PASSED
setText,Firefox 62.0,,2018-10-26 13:33:46,2018-10-26 13:33:46,0.183s,PASSED
click,Firefox 62.0,,2018-10-26 13:33:46,2018-10-26 13:33:47,0.266s,PASSED
click,Firefox 62.0,,2018-10-26 13:33:47,2018-10-26 13:33:47,0.266s,PASSED
scrollToElement,Firefox 62.0,,2018-10-26 13:33:47,2018-10-26 13:33:47,0.016s,PASSED
delay,Firefox 62.0,,2018-10-26 13:33:47,2018-10-26 13:33:50,3.074s,PASSED
click,Firefox 62.0,,2018-10-26 13:33:50,2018-10-26 13:33:50,0.249s,PASSED
scrollToElement,Firefox 62.0,,2018-10-26 13:33:50,2018-10-26 13:33:52,1.321s,PASSED
delay,Firefox 62.0,,2018-10-26 13:33:52,2018-10-26 13:33:55,3.076s,PASSED
click,Firefox 62.0,,2018-10-26 13:33:55,2018-10-26 13:33:55,0.271s,PASSED
setText,Firefox 62.0,,2018-10-26 13:33:55,2018-10-26 13:33:55,0.319s,PASSED
setText,Firefox 62.0,,2018-10-26 13:33:55,2018-10-26 13:33:55,0.059s,PASSED
delay,Firefox 62.0,,2018-10-26 13:33:55,2018-10-26 13:34:00,5.073s,PASSED
click,Firefox 62.0,,2018-10-26 13:34:00,2018-10-26 13:34:01,0.295s,PASSED
waitForElementPresent,Firefox 62.0,,2018-10-26 13:34:01,2018-10-26 13:34:04,2.921s,PASSED
click,Firefox 62.0,,2018-10-26 13:34:04,2018-10-26 13:34:04,0.256s,PASSED
click,Firefox 62.0,,2018-10-26 13:34:04,2018-10-26 13:34:04,0.267s,PASSED
waitForElementPresent,Firefox 62.0,,2018-10-26 13:34:04,2018-10-26 13:35:06,1m - 1.593s,PASSED
delay,Firefox 62.0,,2018-10-26 13:35:06,2018-10-26 13:35:09,3.075s,PASSED
verifyElementText,Firefox 62.0,,2018-10-26 13:35:09,2018-10-26 13:35:09,0.042s,PASSED
verifyElementPresent,Firefox 62.0,,2018-10-26 13:35:09,2018-10-26 13:35:09,0.017s,PASSED
delay,Firefox 62.0,,2018-10-26 13:35:09,2018-10-26 13:35:12,3.074s,PASSED
closeBrowser,Firefox 62.0,,2018-10-26 13:35:12,2018-10-26 13:35:12,0.243s,PASSED
,,,,,,
Test Cases/GETCRAFT/SendTo_phase2_unselected_login,Firefox 62.0,,2018-10-26 13:35:12,2018-10-26 13:36:19,1m - 7.125s,PASSED
Statement - RN = <not implemented yet for class: org.codehaus.groovy.ast.expr.EmptyExpression>,Firefox 62.0,,2018-10-26 13:35:12,2018-10-26 13:35:12,0.001s,PASSED
Statement - RN = java.lang.Math.random() * 599,Firefox 62.0,,2018-10-26 13:35:12,2018-10-26 13:35:12,0.000s,PASSED
Statement - name_project = project_name + RN,Firefox 62.0,,2018-10-26 13:35:12,2018-10-26 13:35:12,0.000s,PASSED
openBrowser,Firefox 62.0,,2018-10-26 13:35:12,2018-10-26 13:35:15,2.367s,PASSED
maximizeWindow,Firefox 62.0,,2018-10-26 13:35:15,2018-10-26 13:35:18,3.560s,PASSED
navigateToUrl,Firefox 62.0,,2018-10-26 13:35:18,2018-10-26 13:35:24,5.651s,PASSED
"Statement - If (com.kms.katalon.core.webui.keyword.WebUiBuiltInKeywords.verifyElementVisible(com.kms.katalon.core.testobject.ObjectRepository.findTestObject(Object Repository/GETCRAFT/create_brief/Language_indo), OPTIONAL))",Firefox 62.0,,2018-10-26 13:35:24,2018-10-26 13:35:31,7.478s,PASSED
click,Firefox 62.0,,2018-10-26 13:35:31,2018-10-26 13:35:32,0.783s,PASSED
delay,Firefox 62.0,,2018-10-26 13:35:32,2018-10-26 13:35:34,2.068s,PASSED
click,Firefox 62.0,,2018-10-26 13:35:34,2018-10-26 13:35:34,0.310s,PASSED
click,Firefox 62.0,,2018-10-26 13:35:34,2018-10-26 13:35:35,0.300s,PASSED
waitForElementClickable,Firefox 62.0,,2018-10-26 13:35:35,2018-10-26 13:35:35,0.001s,NOT_RUN
click,Firefox 62.0,,2018-10-26 13:35:35,2018-10-26 13:35:35,0.261s,PASSED
click,Firefox 62.0,,2018-10-26 13:35:35,2018-10-26 13:35:35,0.266s,PASSED
scrollToElement,Firefox 62.0,,2018-10-26 13:35:35,2018-10-26 13:35:35,0.016s,PASSED
waitForElementClickable,Firefox 62.0,,2018-10-26 13:35:35,2018-10-26 13:35:35,0.037s,PASSED
delay,Firefox 62.0,,2018-10-26 13:35:35,2018-10-26 13:35:37,2.074s,PASSED
click,Firefox 62.0,,2018-10-26 13:35:37,2018-10-26 13:35:38,0.292s,PASSED
click,Firefox 62.0,,2018-10-26 13:35:38,2018-10-26 13:35:38,0.295s,PASSED
click,Firefox 62.0,,2018-10-26 13:35:38,2018-10-26 13:35:38,0.257s,PASSED
waitForElementClickable,Firefox 62.0,,2018-10-26 13:35:38,2018-10-26 13:35:38,0.016s,PASSED
delay,Firefox 62.0,,2018-10-26 13:35:38,2018-10-26 13:35:40,2.075s,PASSED
click,Firefox 62.0,,2018-10-26 13:35:40,2018-10-26 13:35:41,0.391s,PASSED
click,Firefox 62.0,,2018-10-26 13:35:41,2018-10-26 13:35:41,0.267s,PASSED
click,Firefox 62.0,,2018-10-26 13:35:41,2018-10-26 13:35:41,0.290s,PASSED
setText,Firefox 62.0,,2018-10-26 13:35:41,2018-10-26 13:35:42,0.437s,PASSED
setText,Firefox 62.0,,2018-10-26 13:35:42,2018-10-26 13:35:42,0.195s,PASSED
setText,Firefox 62.0,,2018-10-26 13:35:42,2018-10-26 13:35:42,0.127s,PASSED
setText,Firefox 62.0,,2018-10-26 13:35:42,2018-10-26 13:35:42,0.146s,PASSED
scrollToElement,Firefox 62.0,,2018-10-26 13:35:42,2018-10-26 13:35:42,0.021s,PASSED
click,Firefox 62.0,,2018-10-26 13:35:42,2018-10-26 13:35:42,0.245s,PASSED
setText,Firefox 62.0,,2018-10-26 13:35:42,2018-10-26 13:35:43,0.190s,PASSED
click,Firefox 62.0,,2018-10-26 13:35:43,2018-10-26 13:35:43,0.255s,PASSED
click,Firefox 62.0,,2018-10-26 13:35:43,2018-10-26 13:35:43,0.268s,PASSED
scrollToElement,Firefox 62.0,,2018-10-26 13:35:43,2018-10-26 13:35:43,0.019s,PASSED
delay,Firefox 62.0,,2018-10-26 13:35:43,2018-10-26 13:35:46,3.001s,PASSED
click,Firefox 62.0,,2018-10-26 13:35:46,2018-10-26 13:35:46,0.282s,PASSED
delay,Firefox 62.0,,2018-10-26 13:35:46,2018-10-26 13:35:50,3.076s,PASSED
scrollToElement,Firefox 62.0,,2018-10-26 13:35:50,2018-10-26 13:35:50,0.025s,PASSED
delay,Firefox 62.0,,2018-10-26 13:35:50,2018-10-26 13:35:53,3.001s,PASSED
click,Firefox 62.0,,2018-10-26 13:35:53,2018-10-26 13:35:53,0.271s,PASSED
setText,Firefox 62.0,,2018-10-26 13:35:53,2018-10-26 13:35:53,0.416s,PASSED
setText,Firefox 62.0,,2018-10-26 13:35:53,2018-10-26 13:35:53,0.062s,PASSED
delay,Firefox 62.0,,2018-10-26 13:35:53,2018-10-26 13:35:58,5.070s,PASSED
click,Firefox 62.0,,2018-10-26 13:35:58,2018-10-26 13:35:59,0.295s,PASSED
waitForElementPresent,Firefox 62.0,,2018-10-26 13:35:59,2018-10-26 13:36:06,6.894s,PASSED
click,Firefox 62.0,,2018-10-26 13:36:06,2018-10-26 13:36:06,0.494s,PASSED
waitForElementVisible,Firefox 62.0,,2018-10-26 13:36:06,2018-10-26 13:36:06,0.096s,PASSED
delay,Firefox 62.0,,2018-10-26 13:36:06,2018-10-26 13:36:11,5.073s,PASSED
click,Firefox 62.0,,2018-10-26 13:36:11,2018-10-26 13:36:12,0.357s,PASSED
waitForElementPresent,Firefox 62.0,,2018-10-26 13:36:12,2018-10-26 13:36:14,2.237s,PASSED
delay,Firefox 62.0,,2018-10-26 13:36:14,2018-10-26 13:36:19,5.075s,PASSED
verifyElementText,Firefox 62.0,,2018-10-26 13:36:19,2018-10-26 13:36:19,0.035s,PASSED
verifyElementPresent,Firefox 62.0,,2018-10-26 13:36:19,2018-10-26 13:36:19,0.030s,PASSED
closeBrowser,Firefox 62.0,,2018-10-26 13:36:19,2018-10-26 13:36:19,0.267s,PASSED
,,,,,,
Test Cases/GETCRAFT/SendTo_phase2_selected_login,Firefox 62.0,,2018-10-26 13:36:19,2018-10-26 13:37:26,1m - 6.987s,PASSED
Statement - RN = <not implemented yet for class: org.codehaus.groovy.ast.expr.EmptyExpression>,Firefox 62.0,,2018-10-26 13:36:19,2018-10-26 13:36:19,0.000s,PASSED
Statement - RN = java.lang.Math.random() * 599,Firefox 62.0,,2018-10-26 13:36:19,2018-10-26 13:36:19,0.001s,PASSED
Statement - name_project = project_name + RN,Firefox 62.0,,2018-10-26 13:36:19,2018-10-26 13:36:19,0.000s,PASSED
openBrowser,Firefox 62.0,,2018-10-26 13:36:19,2018-10-26 13:36:22,2.358s,PASSED
maximizeWindow,Firefox 62.0,,2018-10-26 13:36:22,2018-10-26 13:36:25,3.531s,PASSED
navigateToUrl,Firefox 62.0,,2018-10-26 13:36:25,2018-10-26 13:36:29,4.091s,PASSED
"Statement - If (com.kms.katalon.core.webui.keyword.WebUiBuiltInKeywords.verifyElementVisible(com.kms.katalon.core.testobject.ObjectRepository.findTestObject(Object Repository/GETCRAFT/create_brief/Language_indo), OPTIONAL))",Firefox 62.0,,2018-10-26 13:36:29,2018-10-26 13:36:40,10.358s,PASSED
click,Firefox 62.0,,2018-10-26 13:36:40,2018-10-26 13:36:41,0.972s,PASSED
delay,Firefox 62.0,,2018-10-26 13:36:41,2018-10-26 13:36:45,4.020s,PASSED
waitForElementClickable,Firefox 62.0,,2018-10-26 13:36:45,2018-10-26 13:36:45,0.055s,PASSED
scrollToElement,Firefox 62.0,,2018-10-26 13:36:45,2018-10-26 13:36:45,0.037s,PASSED
click,Firefox 62.0,,2018-10-26 13:36:45,2018-10-26 13:36:45,0.496s,PASSED
click,Firefox 62.0,,2018-10-26 13:36:45,2018-10-26 13:36:46,0.424s,PASSED
click,Firefox 62.0,,2018-10-26 13:36:46,2018-10-26 13:36:46,0.681s,PASSED
delay,Firefox 62.0,,2018-10-26 13:36:46,2018-10-26 13:36:48,2.001s,PASSED
setText,Firefox 62.0,,2018-10-26 13:36:48,2018-10-26 13:36:49,0.652s,PASSED
setText,Firefox 62.0,,2018-10-26 13:36:49,2018-10-26 13:36:49,0.214s,PASSED
setText,Firefox 62.0,,2018-10-26 13:36:49,2018-10-26 13:36:49,0.159s,PASSED
setText,Firefox 62.0,,2018-10-26 13:36:49,2018-10-26 13:36:50,0.130s,PASSED
scrollToElement,Firefox 62.0,,2018-10-26 13:36:50,2018-10-26 13:36:50,0.028s,PASSED
click,Firefox 62.0,,2018-10-26 13:36:50,2018-10-26 13:36:50,0.324s,PASSED
setText,Firefox 62.0,,2018-10-26 13:36:50,2018-10-26 13:36:50,0.199s,PASSED
click,Firefox 62.0,,2018-10-26 13:36:50,2018-10-26 13:36:51,0.346s,PASSED
click,Firefox 62.0,,2018-10-26 13:36:51,2018-10-26 13:36:51,0.281s,PASSED
scrollToElement,Firefox 62.0,,2018-10-26 13:36:51,2018-10-26 13:36:51,0.025s,PASSED
delay,Firefox 62.0,,2018-10-26 13:36:51,2018-10-26 13:36:54,3.078s,PASSED
click,Firefox 62.0,,2018-10-26 13:36:54,2018-10-26 13:36:54,0.301s,PASSED
delay,Firefox 62.0,,2018-10-26 13:36:54,2018-10-26 13:36:57,3.076s,PASSED
scrollToElement,Firefox 62.0,,2018-10-26 13:36:57,2018-10-26 13:36:57,0.026s,PASSED
delay,Firefox 62.0,,2018-10-26 13:36:57,2018-10-26 13:37:00,3.070s,PASSED
click,Firefox 62.0,,2018-10-26 13:37:00,2018-10-26 13:37:01,0.264s,PASSED
setText,Firefox 62.0,,2018-10-26 13:37:01,2018-10-26 13:37:01,0.417s,PASSED
setText,Firefox 62.0,,2018-10-26 13:37:01,2018-10-26 13:37:01,0.069s,PASSED
delay,Firefox 62.0,,2018-10-26 13:37:01,2018-10-26 13:37:06,5.074s,PASSED
click,Firefox 62.0,,2018-10-26 13:37:06,2018-10-26 13:37:07,0.321s,PASSED
waitForElementPresent,Firefox 62.0,,2018-10-26 13:37:07,2018-10-26 13:37:13,6.663s,PASSED
click,Firefox 62.0,,2018-10-26 13:37:13,2018-10-26 13:37:14,0.506s,PASSED
waitForElementVisible,Firefox 62.0,,2018-10-26 13:37:14,2018-10-26 13:37:14,0.036s,PASSED
delay,Firefox 62.0,,2018-10-26 13:37:14,2018-10-26 13:37:19,5.076s,PASSED
click,Firefox 62.0,,2018-10-26 13:37:19,2018-10-26 13:37:20,0.856s,PASSED
waitForElementPresent,Firefox 62.0,,2018-10-26 13:37:20,2018-10-26 13:37:21,1.167s,PASSED
delay,Firefox 62.0,,2018-10-26 13:37:21,2018-10-26 13:37:26,5.073s,PASSED
verifyElementText,Firefox 62.0,,2018-10-26 13:37:26,2018-10-26 13:37:26,0.094s,PASSED
verifyElementPresent,Firefox 62.0,,2018-10-26 13:37:26,2018-10-26 13:37:26,0.027s,PASSED
closeBrowser,Firefox 62.0,,2018-10-26 13:37:26,2018-10-26 13:37:26,0.201s,PASSED
,,,,,,
Test Cases/GETCRAFT/SendTo_phase2_selected_loginMultiple,Firefox 62.0,,2018-10-26 13:37:26,2018-10-26 13:38:39,1m - 12.890s,PASSED
Statement - RN = <not implemented yet for class: org.codehaus.groovy.ast.expr.EmptyExpression>,Firefox 62.0,,2018-10-26 13:37:26,2018-10-26 13:37:26,0.001s,PASSED
Statement - RN = java.lang.Math.random() * 599,Firefox 62.0,,2018-10-26 13:37:26,2018-10-26 13:37:26,0.000s,PASSED
Statement - name_project = project_name + RN,Firefox 62.0,,2018-10-26 13:37:26,2018-10-26 13:37:26,0.001s,PASSED
openBrowser,Firefox 62.0,,2018-10-26 13:37:26,2018-10-26 13:37:29,2.576s,PASSED
maximizeWindow,Firefox 62.0,,2018-10-26 13:37:29,2018-10-26 13:37:32,3.512s,PASSED
navigateToUrl,Firefox 62.0,,2018-10-26 13:37:32,2018-10-26 13:37:37,4.560s,PASSED
"Statement - If (com.kms.katalon.core.webui.keyword.WebUiBuiltInKeywords.verifyElementVisible(com.kms.katalon.core.testobject.ObjectRepository.findTestObject(Object Repository/GETCRAFT/create_brief/Language_indo), OPTIONAL))",Firefox 62.0,,2018-10-26 13:37:37,2018-10-26 13:37:49,12.336s,PASSED
click,Firefox 62.0,,2018-10-26 13:37:49,2018-10-26 13:37:50,0.579s,PASSED
delay,Firefox 62.0,,2018-10-26 13:37:50,2018-10-26 13:37:54,4.069s,PASSED
waitForElementClickable,Firefox 62.0,,2018-10-26 13:37:54,2018-10-26 13:37:54,0.271s,PASSED
scrollToElement,Firefox 62.0,,2018-10-26 13:37:54,2018-10-26 13:37:54,0.035s,PASSED
click,Firefox 62.0,,2018-10-26 13:37:54,2018-10-26 13:37:55,0.537s,PASSED
click,Firefox 62.0,,2018-10-26 13:37:55,2018-10-26 13:37:55,0.425s,PASSED
click,Firefox 62.0,,2018-10-26 13:37:55,2018-10-26 13:37:56,0.639s,PASSED
delay,Firefox 62.0,,2018-10-26 13:37:56,2018-10-26 13:37:58,2.001s,PASSED
setText,Firefox 62.0,,2018-10-26 13:37:58,2018-10-26 13:37:58,0.487s,PASSED
setText,Firefox 62.0,,2018-10-26 13:37:58,2018-10-26 13:37:59,0.193s,PASSED
setText,Firefox 62.0,,2018-10-26 13:37:59,2018-10-26 13:37:59,0.135s,PASSED
setText,Firefox 62.0,,2018-10-26 13:37:59,2018-10-26 13:37:59,0.124s,PASSED
scrollToElement,Firefox 62.0,,2018-10-26 13:37:59,2018-10-26 13:37:59,0.023s,PASSED
click,Firefox 62.0,,2018-10-26 13:37:59,2018-10-26 13:37:59,0.287s,PASSED
setText,Firefox 62.0,,2018-10-26 13:37:59,2018-10-26 13:37:59,0.241s,PASSED
click,Firefox 62.0,,2018-10-26 13:37:59,2018-10-26 13:38:00,0.322s,PASSED
click,Firefox 62.0,,2018-10-26 13:38:00,2018-10-26 13:38:00,0.277s,PASSED
scrollToElement,Firefox 62.0,,2018-10-26 13:38:00,2018-10-26 13:38:00,0.017s,PASSED
delay,Firefox 62.0,,2018-10-26 13:38:00,2018-10-26 13:38:03,3.073s,PASSED
click,Firefox 62.0,,2018-10-26 13:38:03,2018-10-26 13:38:03,0.304s,PASSED
delay,Firefox 62.0,,2018-10-26 13:38:03,2018-10-26 13:38:07,3.074s,PASSED
scrollToElement,Firefox 62.0,,2018-10-26 13:38:07,2018-10-26 13:38:07,0.022s,PASSED
delay,Firefox 62.0,,2018-10-26 13:38:07,2018-10-26 13:38:10,3.076s,PASSED
click,Firefox 62.0,,2018-10-26 13:38:10,2018-10-26 13:38:10,0.314s,PASSED
setText,Firefox 62.0,,2018-10-26 13:38:10,2018-10-26 13:38:10,0.542s,PASSED
setText,Firefox 62.0,,2018-10-26 13:38:10,2018-10-26 13:38:11,0.115s,PASSED
delay,Firefox 62.0,,2018-10-26 13:38:11,2018-10-26 13:38:16,5.075s,PASSED
click,Firefox 62.0,,2018-10-26 13:38:16,2018-10-26 13:38:16,0.369s,PASSED
waitForElementPresent,Firefox 62.0,,2018-10-26 13:38:16,2018-10-26 13:38:18,1.754s,PASSED
click,Firefox 62.0,,2018-10-26 13:38:18,2018-10-26 13:38:18,0.270s,PASSED
click,Firefox 62.0,,2018-10-26 13:38:18,2018-10-26 13:38:18,0.294s,PASSED
waitForElementPresent,Firefox 62.0,,2018-10-26 13:38:18,2018-10-26 13:38:26,7.271s,PASSED
click,Firefox 62.0,,2018-10-26 13:38:26,2018-10-26 13:38:26,0.436s,PASSED
waitForElementVisible,Firefox 62.0,,2018-10-26 13:38:26,2018-10-26 13:38:26,0.034s,PASSED
delay,Firefox 62.0,,2018-10-26 13:38:26,2018-10-26 13:38:31,5.067s,PASSED
click,Firefox 62.0,,2018-10-26 13:38:31,2018-10-26 13:38:32,0.735s,PASSED
waitForElementPresent,Firefox 62.0,,2018-10-26 13:38:32,2018-10-26 13:38:34,1.788s,PASSED
delay,Firefox 62.0,,2018-10-26 13:38:34,2018-10-26 13:38:39,5.001s,PASSED
verifyElementText,Firefox 62.0,,2018-10-26 13:38:39,2018-10-26 13:38:39,0.112s,PASSED
verifyElementPresent,Firefox 62.0,,2018-10-26 13:38:39,2018-10-26 13:38:39,0.039s,PASSED
closeBrowser,Firefox 62.0,,2018-10-26 13:38:39,2018-10-26 13:38:39,0.286s,PASSED
