Suite/Test/Step Name,Browser,Description,Start time,End time,Duration,Status
TES,Chrome 67.0.3396.99,,2018-07-12 15:55:50,2018-07-12 16:00:09,4m - 19.660s,PASSED
,,,,,,
Test Cases/FORSTOK/Print Order JD,Chrome 67.0.3396.99,,2018-07-12 15:55:50,2018-07-12 15:57:08,1m - 17.535s,PASSED
openBrowser,Chrome 67.0.3396.99,,2018-07-12 15:55:51,2018-07-12 15:55:55,4.385s,PASSED
maximizeWindow,Chrome 67.0.3396.99,,2018-07-12 15:55:55,2018-07-12 15:55:57,1.329s,PASSED
navigateToUrl,Chrome 67.0.3396.99,,2018-07-12 15:55:57,2018-07-12 15:56:01,4.685s,PASSED
click,Chrome 67.0.3396.99,,2018-07-12 15:56:01,2018-07-12 15:56:08,6.840s,PASSED
setText,Chrome 67.0.3396.99,,2018-07-12 15:56:08,2018-07-12 15:56:09,0.284s,PASSED
setText,Chrome 67.0.3396.99,,2018-07-12 15:56:09,2018-07-12 15:56:09,0.149s,PASSED
click,Chrome 67.0.3396.99,,2018-07-12 15:56:09,2018-07-12 15:56:18,9.740s,PASSED
click,Chrome 67.0.3396.99,,2018-07-12 15:56:18,2018-07-12 15:56:36,17.703s,PASSED
waitForPageLoad,Chrome 67.0.3396.99,,2018-07-12 15:56:36,2018-07-12 15:56:36,0.117s,PASSED
click,Chrome 67.0.3396.99,,2018-07-12 15:56:36,2018-07-12 15:56:36,0.236s,PASSED
click,Chrome 67.0.3396.99,,2018-07-12 15:56:36,2018-07-12 15:56:37,0.287s,PASSED
click,Chrome 67.0.3396.99,,2018-07-12 15:56:37,2018-07-12 15:56:37,0.242s,PASSED
click,Chrome 67.0.3396.99,,2018-07-12 15:56:37,2018-07-12 15:56:37,0.165s,PASSED
click,Chrome 67.0.3396.99,,2018-07-12 15:56:37,2018-07-12 15:56:37,0.130s,PASSED
click,Chrome 67.0.3396.99,,2018-07-12 15:56:37,2018-07-12 15:56:37,0.140s,PASSED
click,Chrome 67.0.3396.99,,2018-07-12 15:56:37,2018-07-12 15:56:38,0.772s,PASSED
Statement - orderID = com.kms.katalon.core.webui.keyword.WebUiBuiltInKeywords.getText(com.kms.katalon.core.testobject.ObjectRepository.findTestObject(FORSTOK/get order id)),Chrome 67.0.3396.99,,2018-07-12 15:56:38,2018-07-12 15:56:39,0.629s,PASSED
Statement - println(orderID),Chrome 67.0.3396.99,,2018-07-12 15:56:39,2018-07-12 15:56:39,0.006s,PASSED
click,Chrome 67.0.3396.99,,2018-07-12 15:56:39,2018-07-12 15:56:39,0.283s,PASSED
click,Chrome 67.0.3396.99,,2018-07-12 15:56:39,2018-07-12 15:56:40,0.376s,PASSED
click,Chrome 67.0.3396.99,,2018-07-12 15:56:40,2018-07-12 15:56:40,0.281s,PASSED
delay,Chrome 67.0.3396.99,,2018-07-12 15:56:40,2018-07-12 15:56:54,14.028s,PASSED
back,Chrome 67.0.3396.99,,2018-07-12 15:56:54,2018-07-12 15:56:54,0.076s,PASSED
back,Chrome 67.0.3396.99,,2018-07-12 15:56:54,2018-07-12 15:56:55,0.770s,PASSED
click,Chrome 67.0.3396.99,,2018-07-12 15:56:55,2018-07-12 15:57:00,5.731s,PASSED
setText,Chrome 67.0.3396.99,,2018-07-12 15:57:00,2018-07-12 15:57:01,0.364s,PASSED
verifyElementText,Chrome 67.0.3396.99,,2018-07-12 15:57:01,2018-07-12 15:57:01,0.072s,PASSED
waitForPageLoad,Chrome 67.0.3396.99,,2018-07-12 15:57:01,2018-07-12 15:57:01,0.013s,PASSED
delay,Chrome 67.0.3396.99,,2018-07-12 15:57:01,2018-07-12 15:57:07,6.003s,PASSED
closeBrowser,Chrome 67.0.3396.99,,2018-07-12 15:57:07,2018-07-12 15:57:08,1.083s,PASSED
,,,,,,
Test Cases/FORSTOK/Print Order Lazada,Chrome 67.0.3396.99,,2018-07-12 15:57:08,2018-07-12 15:58:05,57.399s,PASSED
openBrowser,Chrome 67.0.3396.99,,2018-07-12 15:57:08,2018-07-12 15:57:10,2.032s,PASSED
maximizeWindow,Chrome 67.0.3396.99,,2018-07-12 15:57:10,2018-07-12 15:57:11,1.132s,PASSED
navigateToUrl,Chrome 67.0.3396.99,,2018-07-12 15:57:11,2018-07-12 15:57:15,3.865s,PASSED
click,Chrome 67.0.3396.99,,2018-07-12 15:57:15,2018-07-12 15:57:23,8.211s,PASSED
setText,Chrome 67.0.3396.99,,2018-07-12 15:57:24,2018-07-12 15:57:24,0.689s,PASSED
setText,Chrome 67.0.3396.99,,2018-07-12 15:57:24,2018-07-12 15:57:24,0.231s,PASSED
click,Chrome 67.0.3396.99,,2018-07-12 15:57:24,2018-07-12 15:57:26,1.989s,PASSED
click,Chrome 67.0.3396.99,,2018-07-12 15:57:26,2018-07-12 15:57:32,5.718s,PASSED
waitForPageLoad,Chrome 67.0.3396.99,,2018-07-12 15:57:32,2018-07-12 15:57:32,0.035s,PASSED
click,Chrome 67.0.3396.99,,2018-07-12 15:57:32,2018-07-12 15:57:32,0.168s,PASSED
click,Chrome 67.0.3396.99,,2018-07-12 15:57:32,2018-07-12 15:57:32,0.128s,PASSED
click,Chrome 67.0.3396.99,,2018-07-12 15:57:32,2018-07-12 15:57:33,0.128s,PASSED
click,Chrome 67.0.3396.99,,2018-07-12 15:57:33,2018-07-12 15:57:33,0.462s,PASSED
click,Chrome 67.0.3396.99,,2018-07-12 15:57:33,2018-07-12 15:57:33,0.252s,PASSED
click,Chrome 67.0.3396.99,,2018-07-12 15:57:33,2018-07-12 15:57:33,0.147s,PASSED
click,Chrome 67.0.3396.99,,2018-07-12 15:57:33,2018-07-12 15:57:35,1.105s,PASSED
Statement - orderID = com.kms.katalon.core.webui.keyword.WebUiBuiltInKeywords.getText(com.kms.katalon.core.testobject.ObjectRepository.findTestObject(FORSTOK/get order id)),Chrome 67.0.3396.99,,2018-07-12 15:57:35,2018-07-12 15:57:35,0.563s,PASSED
Statement - println(orderID),Chrome 67.0.3396.99,,2018-07-12 15:57:35,2018-07-12 15:57:35,0.001s,PASSED
click,Chrome 67.0.3396.99,,2018-07-12 15:57:35,2018-07-12 15:57:35,0.123s,PASSED
click,Chrome 67.0.3396.99,,2018-07-12 15:57:35,2018-07-12 15:57:36,0.543s,PASSED
selectOptionByValue,Chrome 67.0.3396.99,,2018-07-12 15:57:36,2018-07-12 15:57:37,0.723s,PASSED
click,Chrome 67.0.3396.99,,2018-07-12 15:57:37,2018-07-12 15:57:37,0.167s,PASSED
delay,Chrome 67.0.3396.99,,2018-07-12 15:57:37,2018-07-12 15:57:51,14.002s,PASSED
closeWindowTitle,Chrome 67.0.3396.99,,2018-07-12 15:57:51,2018-07-12 15:57:51,0.003s,NOT_RUN
delay,Chrome 67.0.3396.99,,2018-07-12 15:57:51,2018-07-12 15:57:51,0.002s,NOT_RUN
back,Chrome 67.0.3396.99,,2018-07-12 15:57:51,2018-07-12 15:57:51,0.035s,PASSED
back,Chrome 67.0.3396.99,,2018-07-12 15:57:51,2018-07-12 15:57:52,0.860s,PASSED
click,Chrome 67.0.3396.99,,2018-07-12 15:57:52,2018-07-12 15:57:58,5.999s,PASSED
click,Chrome 67.0.3396.99,,2018-07-12 15:57:58,2018-07-12 15:57:58,0.002s,NOT_RUN
click,Chrome 67.0.3396.99,,2018-07-12 15:57:58,2018-07-12 15:57:58,0.001s,NOT_RUN
setText,Chrome 67.0.3396.99,,2018-07-12 15:57:58,2018-07-12 15:57:58,0.811s,PASSED
verifyElementText,Chrome 67.0.3396.99,,2018-07-12 15:57:58,2018-07-12 15:57:58,0.054s,PASSED
waitForPageLoad,Chrome 67.0.3396.99,,2018-07-12 15:57:58,2018-07-12 15:57:58,0.009s,PASSED
delay,Chrome 67.0.3396.99,,2018-07-12 15:57:58,2018-07-12 15:58:04,6.002s,PASSED
closeBrowser,Chrome 67.0.3396.99,,2018-07-12 15:58:04,2018-07-12 15:58:05,0.915s,PASSED
,,,,,,
Test Cases/FORSTOK/Fullfill Lazada,Chrome 67.0.3396.99,,2018-07-12 15:58:05,2018-07-12 15:59:11,1m - 5.894s,PASSED
openBrowser,Chrome 67.0.3396.99,,2018-07-12 15:58:06,2018-07-12 15:58:08,2.146s,PASSED
maximizeWindow,Chrome 67.0.3396.99,,2018-07-12 15:58:08,2018-07-12 15:58:09,1.151s,PASSED
navigateToUrl,Chrome 67.0.3396.99,,2018-07-12 15:58:09,2018-07-12 15:58:12,3.295s,PASSED
click,Chrome 67.0.3396.99,,2018-07-12 15:58:12,2018-07-12 15:58:16,3.623s,PASSED
setText,Chrome 67.0.3396.99,,2018-07-12 15:58:16,2018-07-12 15:58:16,0.242s,PASSED
setText,Chrome 67.0.3396.99,,2018-07-12 15:58:16,2018-07-12 15:58:16,0.154s,PASSED
click,Chrome 67.0.3396.99,,2018-07-12 15:58:16,2018-07-12 15:58:27,10.328s,PASSED
click,Chrome 67.0.3396.99,,2018-07-12 15:58:27,2018-07-12 15:58:44,17.730s,PASSED
waitForPageLoad,Chrome 67.0.3396.99,,2018-07-12 15:58:44,2018-07-12 15:58:44,0.034s,PASSED
click,Chrome 67.0.3396.99,,2018-07-12 15:58:44,2018-07-12 15:58:45,0.204s,PASSED
click,Chrome 67.0.3396.99,,2018-07-12 15:58:45,2018-07-12 15:58:45,0.291s,PASSED
click,Chrome 67.0.3396.99,,2018-07-12 15:58:45,2018-07-12 15:58:45,0.433s,PASSED
click,Chrome 67.0.3396.99,,2018-07-12 15:58:45,2018-07-12 15:58:46,0.290s,PASSED
click,Chrome 67.0.3396.99,,2018-07-12 15:58:46,2018-07-12 15:58:46,0.337s,PASSED
click,Chrome 67.0.3396.99,,2018-07-12 15:58:46,2018-07-12 15:58:46,0.604s,PASSED
click,Chrome 67.0.3396.99,,2018-07-12 15:58:46,2018-07-12 15:58:48,1.175s,PASSED
Statement - orderID = com.kms.katalon.core.webui.keyword.WebUiBuiltInKeywords.getText(com.kms.katalon.core.testobject.ObjectRepository.findTestObject(FORSTOK/get order id)),Chrome 67.0.3396.99,,2018-07-12 15:58:48,2018-07-12 15:58:48,0.623s,PASSED
Statement - println(orderID),Chrome 67.0.3396.99,,2018-07-12 15:58:48,2018-07-12 15:58:48,0.001s,PASSED
click,Chrome 67.0.3396.99,,2018-07-12 15:58:48,2018-07-12 15:58:48,0.173s,PASSED
click,Chrome 67.0.3396.99,,2018-07-12 15:58:48,2018-07-12 15:58:49,0.354s,PASSED
selectOptionByValue,Chrome 67.0.3396.99,,2018-07-12 15:58:49,2018-07-12 15:58:50,0.817s,PASSED
click,Chrome 67.0.3396.99,,2018-07-12 15:58:50,2018-07-12 15:58:50,0.165s,PASSED
waitForElementNotPresent,Chrome 67.0.3396.99,,2018-07-12 15:58:50,2018-07-12 15:59:04,14.198s,PASSED
setText,Chrome 67.0.3396.99,,2018-07-12 15:59:04,2018-07-12 15:59:04,0.410s,PASSED
verifyElementText,Chrome 67.0.3396.99,,2018-07-12 15:59:04,2018-07-12 15:59:04,0.055s,PASSED
delay,Chrome 67.0.3396.99,,2018-07-12 15:59:04,2018-07-12 15:59:10,6.001s,PASSED
closeBrowser,Chrome 67.0.3396.99,,2018-07-12 15:59:10,2018-07-12 15:59:11,0.840s,PASSED
,,,,,,
Test Cases/FORSTOK/Fullfill JD,Chrome 67.0.3396.99,,2018-07-12 15:59:11,2018-07-12 16:00:09,57.911s,PASSED
openBrowser,Chrome 67.0.3396.99,,2018-07-12 15:59:11,2018-07-12 15:59:14,2.092s,PASSED
maximizeWindow,Chrome 67.0.3396.99,,2018-07-12 15:59:14,2018-07-12 15:59:15,1.130s,PASSED
navigateToUrl,Chrome 67.0.3396.99,,2018-07-12 15:59:15,2018-07-12 15:59:20,4.986s,PASSED
click,Chrome 67.0.3396.99,,2018-07-12 15:59:20,2018-07-12 15:59:26,6.640s,PASSED
setText,Chrome 67.0.3396.99,,2018-07-12 15:59:26,2018-07-12 15:59:27,0.235s,PASSED
setText,Chrome 67.0.3396.99,,2018-07-12 15:59:27,2018-07-12 15:59:27,0.156s,PASSED
click,Chrome 67.0.3396.99,,2018-07-12 15:59:27,2018-07-12 15:59:45,18.259s,PASSED
click,Chrome 67.0.3396.99,,2018-07-12 15:59:45,2018-07-12 15:59:51,6.115s,PASSED
waitForPageLoad,Chrome 67.0.3396.99,,2018-07-12 15:59:51,2018-07-12 15:59:51,0.015s,PASSED
click,Chrome 67.0.3396.99,,2018-07-12 15:59:51,2018-07-12 15:59:51,0.163s,PASSED
click,Chrome 67.0.3396.99,,2018-07-12 15:59:51,2018-07-12 15:59:51,0.108s,PASSED
click,Chrome 67.0.3396.99,,2018-07-12 15:59:51,2018-07-12 15:59:52,0.144s,PASSED
click,Chrome 67.0.3396.99,,2018-07-12 15:59:52,2018-07-12 15:59:52,0.141s,PASSED
click,Chrome 67.0.3396.99,,2018-07-12 15:59:52,2018-07-12 15:59:52,0.114s,PASSED
click,Chrome 67.0.3396.99,,2018-07-12 15:59:52,2018-07-12 15:59:52,0.102s,PASSED
click,Chrome 67.0.3396.99,,2018-07-12 15:59:52,2018-07-12 15:59:53,1.181s,PASSED
Statement - orderID = com.kms.katalon.core.webui.keyword.WebUiBuiltInKeywords.getText(com.kms.katalon.core.testobject.ObjectRepository.findTestObject(FORSTOK/get order id)),Chrome 67.0.3396.99,,2018-07-12 15:59:53,2018-07-12 15:59:54,0.604s,PASSED
Statement - println(orderID),Chrome 67.0.3396.99,,2018-07-12 15:59:54,2018-07-12 15:59:54,0.001s,PASSED
click,Chrome 67.0.3396.99,,2018-07-12 15:59:54,2018-07-12 15:59:54,0.121s,PASSED
click,Chrome 67.0.3396.99,,2018-07-12 15:59:54,2018-07-12 15:59:54,0.280s,PASSED
selectOptionByValue,Chrome 67.0.3396.99,,2018-07-12 15:59:54,2018-07-12 15:59:54,0.001s,NOT_RUN
click,Chrome 67.0.3396.99,,2018-07-12 15:59:54,2018-07-12 15:59:54,0.137s,PASSED
waitForElementNotPresent,Chrome 67.0.3396.99,,2018-07-12 15:59:54,2018-07-12 16:00:02,7.465s,PASSED
setText,Chrome 67.0.3396.99,,2018-07-12 16:00:02,2018-07-12 16:00:02,0.284s,PASSED
verifyElementText,Chrome 67.0.3396.99,,2018-07-12 16:00:02,2018-07-12 16:00:02,0.045s,PASSED
delay,Chrome 67.0.3396.99,,2018-07-12 16:00:02,2018-07-12 16:00:08,6.002s,PASSED
closeBrowser,Chrome 67.0.3396.99,,2018-07-12 16:00:08,2018-07-12 16:00:09,1.177s,PASSED
