Suite/Test/Step Name,Browser,Description,Start time,End time,Duration,Status
check,Chrome 68.0.3440.106,,2018-08-30 17:58:06,2018-08-30 17:58:15,8.845s,PASSED
,,,,,,
Test Cases/GETCRAFT/Create_Brief,Chrome 68.0.3440.106,,2018-08-30 17:58:07,2018-08-30 17:58:15,8.294s,PASSED
Statement - RN = <not implemented yet for class: org.codehaus.groovy.ast.expr.EmptyExpression>,Chrome 68.0.3440.106,,2018-08-30 17:58:07,2018-08-30 17:58:07,0.004s,NOT_RUN
Statement - RN = java.lang.Math.random() * 500,Chrome 68.0.3440.106,,2018-08-30 17:58:07,2018-08-30 17:58:07,0.007s,NOT_RUN
Statement - name_project = project_name + RN,Chrome 68.0.3440.106,,2018-08-30 17:58:07,2018-08-30 17:58:07,0.009s,NOT_RUN
callTestCase,Chrome 68.0.3440.106,,2018-08-30 17:58:07,2018-08-30 17:58:07,0.002s,NOT_RUN
delay,Chrome 68.0.3440.106,,2018-08-30 17:58:07,2018-08-30 17:58:07,0.004s,NOT_RUN
openBrowser,Chrome 68.0.3440.106,,2018-08-30 17:58:07,2018-08-30 17:58:12,4.331s,PASSED
maximizeWindow,Chrome 68.0.3440.106,,2018-08-30 17:58:12,2018-08-30 17:58:12,0.409s,PASSED
navigateToUrl,Chrome 68.0.3440.106,,2018-08-30 17:58:12,2018-08-30 17:58:15,2.678s,PASSED
setText,Chrome 68.0.3440.106,,2018-08-30 17:58:15,2018-08-30 17:58:15,0.002s,NOT_RUN
setText,Chrome 68.0.3440.106,,2018-08-30 17:58:15,2018-08-30 17:58:15,0.002s,NOT_RUN
click,Chrome 68.0.3440.106,,2018-08-30 17:58:15,2018-08-30 17:58:15,0.001s,NOT_RUN
verifyElementPresent,Chrome 68.0.3440.106,,2018-08-30 17:58:15,2018-08-30 17:58:15,0.001s,NOT_RUN
click,Chrome 68.0.3440.106,,2018-08-30 17:58:15,2018-08-30 17:58:15,0.001s,NOT_RUN
click,Chrome 68.0.3440.106,,2018-08-30 17:58:15,2018-08-30 17:58:15,0.002s,NOT_RUN
delay,Chrome 68.0.3440.106,,2018-08-30 17:58:15,2018-08-30 17:58:15,0.002s,NOT_RUN
waitForElementClickable,Chrome 68.0.3440.106,,2018-08-30 17:58:15,2018-08-30 17:58:15,0.001s,NOT_RUN
scrollToElement,Chrome 68.0.3440.106,,2018-08-30 17:58:15,2018-08-30 17:58:15,0.001s,NOT_RUN
click,Chrome 68.0.3440.106,,2018-08-30 17:58:15,2018-08-30 17:58:15,0.001s,NOT_RUN
click,Chrome 68.0.3440.106,,2018-08-30 17:58:15,2018-08-30 17:58:15,0.001s,NOT_RUN
click,Chrome 68.0.3440.106,,2018-08-30 17:58:15,2018-08-30 17:58:15,0.002s,NOT_RUN
setText,Chrome 68.0.3440.106,,2018-08-30 17:58:15,2018-08-30 17:58:15,0.001s,NOT_RUN
setText,Chrome 68.0.3440.106,,2018-08-30 17:58:15,2018-08-30 17:58:15,0.001s,NOT_RUN
setText,Chrome 68.0.3440.106,,2018-08-30 17:58:15,2018-08-30 17:58:15,0.003s,NOT_RUN
setText,Chrome 68.0.3440.106,,2018-08-30 17:58:15,2018-08-30 17:58:15,0.001s,NOT_RUN
scrollToElement,Chrome 68.0.3440.106,,2018-08-30 17:58:15,2018-08-30 17:58:15,0.001s,NOT_RUN
uploadFiles.uploadFile,Chrome 68.0.3440.106,,2018-08-30 17:58:15,2018-08-30 17:58:15,0.002s,NOT_RUN
Statement - java.lang.Thread.sleep(2000),Chrome 68.0.3440.106,,2018-08-30 17:58:15,2018-08-30 17:58:15,0.001s,NOT_RUN
waitForElementClickable,Chrome 68.0.3440.106,,2018-08-30 17:58:15,2018-08-30 17:58:15,0.001s,NOT_RUN
click,Chrome 68.0.3440.106,,2018-08-30 17:58:15,2018-08-30 17:58:15,0.002s,NOT_RUN
delay,Chrome 68.0.3440.106,,2018-08-30 17:58:15,2018-08-30 17:58:15,0.001s,NOT_RUN
click,Chrome 68.0.3440.106,,2018-08-30 17:58:15,2018-08-30 17:58:15,0.001s,NOT_RUN
setText,Chrome 68.0.3440.106,,2018-08-30 17:58:15,2018-08-30 17:58:15,0.002s,NOT_RUN
click,Chrome 68.0.3440.106,,2018-08-30 17:58:15,2018-08-30 17:58:15,0.002s,NOT_RUN
click,Chrome 68.0.3440.106,,2018-08-30 17:58:15,2018-08-30 17:58:15,0.002s,NOT_RUN
scrollToElement,Chrome 68.0.3440.106,,2018-08-30 17:58:15,2018-08-30 17:58:15,0.001s,NOT_RUN
delay,Chrome 68.0.3440.106,,2018-08-30 17:58:15,2018-08-30 17:58:15,0.001s,NOT_RUN
click,Chrome 68.0.3440.106,,2018-08-30 17:58:15,2018-08-30 17:58:15,0.001s,NOT_RUN
click,Chrome 68.0.3440.106,,2018-08-30 17:58:15,2018-08-30 17:58:15,0.001s,NOT_RUN
waitForElementClickable,Chrome 68.0.3440.106,,2018-08-30 17:58:15,2018-08-30 17:58:15,0.001s,NOT_RUN
click,Chrome 68.0.3440.106,,2018-08-30 17:58:15,2018-08-30 17:58:15,0.001s,NOT_RUN
delay,Chrome 68.0.3440.106,,2018-08-30 17:58:15,2018-08-30 17:58:15,0.002s,NOT_RUN
click,Chrome 68.0.3440.106,,2018-08-30 17:58:15,2018-08-30 17:58:15,0.007s,NOT_RUN
waitForElementPresent,Chrome 68.0.3440.106,,2018-08-30 17:58:15,2018-08-30 17:58:15,0.001s,NOT_RUN
verifyElementPresent,Chrome 68.0.3440.106,,2018-08-30 17:58:15,2018-08-30 17:58:15,0.001s,NOT_RUN
delay,Chrome 68.0.3440.106,,2018-08-30 17:58:15,2018-08-30 17:58:15,0.001s,NOT_RUN
closeBrowser,Chrome 68.0.3440.106,,2018-08-30 17:58:15,2018-08-30 17:58:15,0.112s,PASSED
