Suite/Test/Step Name,Browser,Description,Start time,End time,Duration,Status
GETCRAFT_PROD,Firefox 64.0,,2018-12-17 11:40:47,2018-12-17 11:45:04,4m - 16.553s,PASSED
,,,,,,
Test Cases/Getcraft_Prod/Login-Akses my project,Firefox 64.0,,2018-12-17 11:40:48,2018-12-17 11:41:19,31.236s,PASSED
Statement - RN = <not implemented yet for class: org.codehaus.groovy.ast.expr.EmptyExpression>,Firefox 64.0,,2018-12-17 11:40:48,2018-12-17 11:40:48,0.009s,PASSED
Statement - RN = java.lang.Math.random() * 999,Firefox 64.0,,2018-12-17 11:40:48,2018-12-17 11:40:49,0.014s,PASSED
Statement - mailinator = email + RN,Firefox 64.0,,2018-12-17 11:40:49,2018-12-17 11:40:49,0.032s,PASSED
Statement - user = email + RN + domain,Firefox 64.0,,2018-12-17 11:40:49,2018-12-17 11:40:49,0.002s,PASSED
Statement - firstname = name + RN,Firefox 64.0,,2018-12-17 11:40:49,2018-12-17 11:40:49,0.002s,PASSED
Statement - lastname = name2 + RN,Firefox 64.0,,2018-12-17 11:40:49,2018-12-17 11:40:49,0.001s,PASSED
Statement - Phone = phonenumber + RN,Firefox 64.0,,2018-12-17 11:40:49,2018-12-17 11:40:49,0.002s,PASSED
Statement - println(user),Firefox 64.0,,2018-12-17 11:40:49,2018-12-17 11:40:49,0.016s,PASSED
openBrowser,Firefox 64.0,,2018-12-17 11:40:49,2018-12-17 11:40:54,5.723s,PASSED
maximizeWindow,Firefox 64.0,,2018-12-17 11:40:54,2018-12-17 11:40:58,3.560s,PASSED
navigateToUrl,Firefox 64.0,,2018-12-17 11:40:58,2018-12-17 11:41:09,11.610s,PASSED
"Statement - If (com.kms.katalon.core.webui.keyword.WebUiBuiltInKeywords.verifyElementVisible(com.kms.katalon.core.testobject.ObjectRepository.findTestObject(Object Repository/GETCRAFT/create_brief/Language_indo), OPTIONAL))",Firefox 64.0,,2018-12-17 11:41:09,2018-12-17 11:41:10,0.209s,PASSED
Statement - Else,Firefox 64.0,,2018-12-17 11:41:10,2018-12-17 11:41:13,3.089s,PASSED
waitForElementClickable,Firefox 64.0,,2018-12-17 11:41:13,2018-12-17 11:41:13,0.062s,PASSED
click,Firefox 64.0,,2018-12-17 11:41:13,2018-12-17 11:41:13,0.390s,PASSED
setText,Firefox 64.0,,2018-12-17 11:41:13,2018-12-17 11:41:13,0.253s,PASSED
setText,Firefox 64.0,,2018-12-17 11:41:13,2018-12-17 11:41:14,0.133s,PASSED
click,Firefox 64.0,,2018-12-17 11:41:14,2018-12-17 11:41:14,0.312s,PASSED
verifyElementPresent,Firefox 64.0,,2018-12-17 11:41:14,2018-12-17 11:41:18,4.380s,PASSED
closeBrowser,Firefox 64.0,,2018-12-17 11:41:18,2018-12-17 11:41:19,0.670s,PASSED
,,,,,,
Test Cases/Getcraft_Prod/Change_Workspace,Firefox 64.0,,2018-12-17 11:41:19,2018-12-17 11:41:50,31.083s,PASSED
Statement - RN = <not implemented yet for class: org.codehaus.groovy.ast.expr.EmptyExpression>,Firefox 64.0,,2018-12-17 11:41:19,2018-12-17 11:41:19,0.001s,PASSED
Statement - RN = java.lang.Math.random() * 599,Firefox 64.0,,2018-12-17 11:41:19,2018-12-17 11:41:19,0.001s,PASSED
Statement - name_project = project_name + RN,Firefox 64.0,,2018-12-17 11:41:19,2018-12-17 11:41:19,0.001s,PASSED
openBrowser,Firefox 64.0,,2018-12-17 11:41:19,2018-12-17 11:41:21,2.187s,PASSED
maximizeWindow,Firefox 64.0,,2018-12-17 11:41:21,2018-12-17 11:41:25,3.517s,PASSED
navigateToUrl,Firefox 64.0,,2018-12-17 11:41:25,2018-12-17 11:41:31,5.714s,PASSED
"Statement - If (com.kms.katalon.core.webui.keyword.WebUiBuiltInKeywords.verifyElementVisible(com.kms.katalon.core.testobject.ObjectRepository.findTestObject(Object Repository/GETCRAFT/create_brief/Language_indo), OPTIONAL))",Firefox 64.0,,2018-12-17 11:41:31,2018-12-17 11:41:31,0.658s,PASSED
Statement - Else,Firefox 64.0,,2018-12-17 11:41:31,2018-12-17 11:41:34,3.076s,PASSED
setText,Firefox 64.0,,2018-12-17 11:41:34,2018-12-17 11:41:35,0.300s,PASSED
setText,Firefox 64.0,,2018-12-17 11:41:35,2018-12-17 11:41:35,0.113s,PASSED
click,Firefox 64.0,,2018-12-17 11:41:35,2018-12-17 11:41:35,0.285s,PASSED
verifyElementPresent,Firefox 64.0,,2018-12-17 11:41:35,2018-12-17 11:41:40,5.460s,PASSED
click,Firefox 64.0,,2018-12-17 11:41:40,2018-12-17 11:41:41,0.538s,PASSED
Statement - text = com.kms.katalon.core.webui.keyword.WebUiBuiltInKeywords.getText(com.kms.katalon.core.testobject.ObjectRepository.findTestObject(GETCRAFT/general/select_workspace)),Firefox 64.0,,2018-12-17 11:41:41,2018-12-17 11:41:41,0.042s,PASSED
click,Firefox 64.0,,2018-12-17 11:41:41,2018-12-17 11:41:41,0.286s,PASSED
delay,Firefox 64.0,,2018-12-17 11:41:41,2018-12-17 11:41:46,5.074s,PASSED
verifyElementText,Firefox 64.0,,2018-12-17 11:41:46,2018-12-17 11:41:46,0.043s,PASSED
delay,Firefox 64.0,,2018-12-17 11:41:46,2018-12-17 11:41:50,3.072s,PASSED
closeBrowser,Firefox 64.0,,2018-12-17 11:41:50,2018-12-17 11:41:50,0.534s,PASSED
,,,,,,
Test Cases/Getcraft_Prod/Create_BriefSelected(DRAFT),Firefox 64.0,,2018-12-17 11:41:50,2018-12-17 11:42:32,42.067s,PASSED
Statement - RN = <not implemented yet for class: org.codehaus.groovy.ast.expr.EmptyExpression>,Firefox 64.0,,2018-12-17 11:41:50,2018-12-17 11:41:50,0.000s,PASSED
Statement - RN = java.lang.Math.random() * 599,Firefox 64.0,,2018-12-17 11:41:50,2018-12-17 11:41:50,0.001s,PASSED
Statement - name_project = project_name + RN,Firefox 64.0,,2018-12-17 11:41:50,2018-12-17 11:41:50,0.001s,PASSED
openBrowser,Firefox 64.0,,2018-12-17 11:41:50,2018-12-17 11:41:52,2.175s,PASSED
maximizeWindow,Firefox 64.0,,2018-12-17 11:41:52,2018-12-17 11:41:56,3.534s,PASSED
navigateToUrl,Firefox 64.0,,2018-12-17 11:41:56,2018-12-17 11:42:00,4.534s,PASSED
"Statement - If (com.kms.katalon.core.webui.keyword.WebUiBuiltInKeywords.verifyElementVisible(com.kms.katalon.core.testobject.ObjectRepository.findTestObject(Object Repository/GETCRAFT/create_brief/Language_indo), OPTIONAL))",Firefox 64.0,,2018-12-17 11:42:00,2018-12-17 11:42:01,0.667s,PASSED
Statement - Else,Firefox 64.0,,2018-12-17 11:42:01,2018-12-17 11:42:04,3.071s,PASSED
setText,Firefox 64.0,,2018-12-17 11:42:04,2018-12-17 11:42:04,0.222s,PASSED
setText,Firefox 64.0,,2018-12-17 11:42:04,2018-12-17 11:42:05,0.135s,PASSED
click,Firefox 64.0,,2018-12-17 11:42:05,2018-12-17 11:42:05,0.327s,PASSED
verifyElementPresent,Firefox 64.0,,2018-12-17 11:42:05,2018-12-17 11:42:10,5.366s,PASSED
click,Firefox 64.0,,2018-12-17 11:42:10,2018-12-17 11:42:11,0.404s,PASSED
click,Firefox 64.0,,2018-12-17 11:42:11,2018-12-17 11:42:11,0.620s,PASSED
delay,Firefox 64.0,,2018-12-17 11:42:11,2018-12-17 11:42:15,4.061s,PASSED
waitForElementClickable,Firefox 64.0,,2018-12-17 11:42:15,2018-12-17 11:42:15,0.072s,PASSED
scrollToElement,Firefox 64.0,,2018-12-17 11:42:15,2018-12-17 11:42:15,0.035s,PASSED
click,Firefox 64.0,,2018-12-17 11:42:15,2018-12-17 11:42:16,0.467s,PASSED
click,Firefox 64.0,,2018-12-17 11:42:16,2018-12-17 11:42:16,0.309s,PASSED
click,Firefox 64.0,,2018-12-17 11:42:16,2018-12-17 11:42:17,0.567s,PASSED
setText,Firefox 64.0,,2018-12-17 11:42:17,2018-12-17 11:42:17,0.435s,PASSED
setText,Firefox 64.0,,2018-12-17 11:42:17,2018-12-17 11:42:17,0.177s,PASSED
setText,Firefox 64.0,,2018-12-17 11:42:17,2018-12-17 11:42:18,0.136s,PASSED
setText,Firefox 64.0,,2018-12-17 11:42:18,2018-12-17 11:42:18,0.133s,PASSED
scrollToElement,Firefox 64.0,,2018-12-17 11:42:18,2018-12-17 11:42:18,0.026s,PASSED
uploadFiles.uploadFile,Firefox 64.0,,2018-12-17 11:42:18,2018-12-17 11:42:18,0.002s,NOT_RUN
Statement - java.lang.Thread.sleep(2000),Firefox 64.0,,2018-12-17 11:42:18,2018-12-17 11:42:18,0.000s,NOT_RUN
waitForElementClickable,Firefox 64.0,,2018-12-17 11:42:18,2018-12-17 11:42:18,0.000s,NOT_RUN
click,Firefox 64.0,,2018-12-17 11:42:18,2018-12-17 11:42:18,0.001s,NOT_RUN
delay,Firefox 64.0,,2018-12-17 11:42:18,2018-12-17 11:42:18,0.000s,NOT_RUN
click,Firefox 64.0,,2018-12-17 11:42:18,2018-12-17 11:42:18,0.324s,PASSED
setText,Firefox 64.0,,2018-12-17 11:42:18,2018-12-17 11:42:18,0.176s,PASSED
click,Firefox 64.0,,2018-12-17 11:42:18,2018-12-17 11:42:18,0.290s,PASSED
click,Firefox 64.0,,2018-12-17 11:42:18,2018-12-17 11:42:19,0.290s,PASSED
scrollToElement,Firefox 64.0,,2018-12-17 11:42:19,2018-12-17 11:42:19,0.035s,PASSED
delay,Firefox 64.0,,2018-12-17 11:42:19,2018-12-17 11:42:22,3.034s,PASSED
click,Firefox 64.0,,2018-12-17 11:42:22,2018-12-17 11:42:22,0.280s,PASSED
waitForElementPresent,Firefox 64.0,,2018-12-17 11:42:22,2018-12-17 11:42:23,1.229s,PASSED
delay,Firefox 64.0,,2018-12-17 11:42:23,2018-12-17 11:42:28,5.076s,PASSED
verifyElementText,Firefox 64.0,,2018-12-17 11:42:28,2018-12-17 11:42:28,0.041s,PASSED
verifyElementPresent,Firefox 64.0,,2018-12-17 11:42:28,2018-12-17 11:42:28,0.018s,PASSED
delay,Firefox 64.0,,2018-12-17 11:42:28,2018-12-17 11:42:32,3.076s,PASSED
closeBrowser,Firefox 64.0,,2018-12-17 11:42:32,2018-12-17 11:42:32,0.549s,PASSED
,,,,,,
Test Cases/Getcraft_Prod/Create_BriefUnselected(DRAFT),Firefox 64.0,,2018-12-17 11:42:32,2018-12-17 11:43:29,56.686s,PASSED
Statement - RN = <not implemented yet for class: org.codehaus.groovy.ast.expr.EmptyExpression>,Firefox 64.0,,2018-12-17 11:42:32,2018-12-17 11:42:32,0.001s,PASSED
Statement - RN = java.lang.Math.random() * 599,Firefox 64.0,,2018-12-17 11:42:32,2018-12-17 11:42:32,0.001s,PASSED
Statement - name_project = project_name + RN,Firefox 64.0,,2018-12-17 11:42:32,2018-12-17 11:42:32,0.002s,PASSED
openBrowser,Firefox 64.0,,2018-12-17 11:42:32,2018-12-17 11:42:35,2.245s,PASSED
maximizeWindow,Firefox 64.0,,2018-12-17 11:42:35,2018-12-17 11:42:38,3.524s,PASSED
navigateToUrl,Firefox 64.0,,2018-12-17 11:42:38,2018-12-17 11:42:50,12.251s,PASSED
"Statement - If (com.kms.katalon.core.webui.keyword.WebUiBuiltInKeywords.verifyElementVisible(com.kms.katalon.core.testobject.ObjectRepository.findTestObject(Object Repository/GETCRAFT/create_brief/Language_indo), OPTIONAL))",Firefox 64.0,,2018-12-17 11:42:50,2018-12-17 11:42:50,0.084s,PASSED
Statement - Else,Firefox 64.0,,2018-12-17 11:42:50,2018-12-17 11:42:53,3.050s,PASSED
setText,Firefox 64.0,,2018-12-17 11:42:53,2018-12-17 11:42:54,0.264s,PASSED
setText,Firefox 64.0,,2018-12-17 11:42:54,2018-12-17 11:42:54,0.116s,PASSED
click,Firefox 64.0,,2018-12-17 11:42:54,2018-12-17 11:42:54,0.409s,PASSED
verifyElementPresent,Firefox 64.0,,2018-12-17 11:42:54,2018-12-17 11:42:58,3.724s,PASSED
click,Firefox 64.0,,2018-12-17 11:42:58,2018-12-17 11:42:59,1.263s,PASSED
delay,Firefox 64.0,,2018-12-17 11:42:59,2018-12-17 11:43:04,5.146s,PASSED
click,Firefox 64.0,,2018-12-17 11:43:04,2018-12-17 11:43:05,0.506s,PASSED
click,Firefox 64.0,,2018-12-17 11:43:05,2018-12-17 11:43:05,0.335s,PASSED
waitForElementClickable,Firefox 64.0,,2018-12-17 11:43:05,2018-12-17 11:43:05,0.000s,NOT_RUN
click,Firefox 64.0,,2018-12-17 11:43:05,2018-12-17 11:43:06,0.317s,PASSED
click,Firefox 64.0,,2018-12-17 11:43:06,2018-12-17 11:43:06,0.364s,PASSED
scrollToElement,Firefox 64.0,,2018-12-17 11:43:06,2018-12-17 11:43:06,0.027s,PASSED
waitForElementClickable,Firefox 64.0,,2018-12-17 11:43:06,2018-12-17 11:43:06,0.042s,PASSED
delay,Firefox 64.0,,2018-12-17 11:43:06,2018-12-17 11:43:08,2.146s,PASSED
click,Firefox 64.0,,2018-12-17 11:43:08,2018-12-17 11:43:09,0.415s,PASSED
click,Firefox 64.0,,2018-12-17 11:43:09,2018-12-17 11:43:09,0.325s,PASSED
click,Firefox 64.0,,2018-12-17 11:43:09,2018-12-17 11:43:09,0.348s,PASSED
waitForElementClickable,Firefox 64.0,,2018-12-17 11:43:09,2018-12-17 11:43:09,0.034s,PASSED
delay,Firefox 64.0,,2018-12-17 11:43:09,2018-12-17 11:43:11,2.134s,PASSED
click,Firefox 64.0,,2018-12-17 11:43:11,2018-12-17 11:43:12,0.460s,PASSED
click,Firefox 64.0,,2018-12-17 11:43:12,2018-12-17 11:43:12,0.301s,PASSED
click,Firefox 64.0,,2018-12-17 11:43:12,2018-12-17 11:43:13,0.438s,PASSED
setText,Firefox 64.0,,2018-12-17 11:43:13,2018-12-17 11:43:13,0.441s,PASSED
setText,Firefox 64.0,,2018-12-17 11:43:13,2018-12-17 11:43:13,0.228s,PASSED
setText,Firefox 64.0,,2018-12-17 11:43:13,2018-12-17 11:43:13,0.147s,PASSED
setText,Firefox 64.0,,2018-12-17 11:43:13,2018-12-17 11:43:14,0.125s,PASSED
scrollToElement,Firefox 64.0,,2018-12-17 11:43:14,2018-12-17 11:43:14,0.029s,PASSED
uploadFiles.uploadFile,Firefox 64.0,,2018-12-17 11:43:14,2018-12-17 11:43:14,0.001s,NOT_RUN
Statement - java.lang.Thread.sleep(2000),Firefox 64.0,,2018-12-17 11:43:14,2018-12-17 11:43:14,0.000s,NOT_RUN
waitForElementClickable,Firefox 64.0,,2018-12-17 11:43:14,2018-12-17 11:43:14,0.001s,NOT_RUN
click,Firefox 64.0,,2018-12-17 11:43:14,2018-12-17 11:43:14,0.000s,NOT_RUN
delay,Firefox 64.0,,2018-12-17 11:43:14,2018-12-17 11:43:14,0.001s,NOT_RUN
click,Firefox 64.0,,2018-12-17 11:43:14,2018-12-17 11:43:14,0.338s,PASSED
setText,Firefox 64.0,,2018-12-17 11:43:14,2018-12-17 11:43:14,0.186s,PASSED
click,Firefox 64.0,,2018-12-17 11:43:14,2018-12-17 11:43:14,0.291s,PASSED
click,Firefox 64.0,,2018-12-17 11:43:14,2018-12-17 11:43:15,0.276s,PASSED
scrollToElement,Firefox 64.0,,2018-12-17 11:43:15,2018-12-17 11:43:15,0.031s,PASSED
delay,Firefox 64.0,,2018-12-17 11:43:15,2018-12-17 11:43:18,3.110s,PASSED
click,Firefox 64.0,,2018-12-17 11:43:18,2018-12-17 11:43:18,0.531s,PASSED
waitForElementPresent,Firefox 64.0,,2018-12-17 11:43:18,2018-12-17 11:43:20,1.504s,PASSED
delay,Firefox 64.0,,2018-12-17 11:43:20,2018-12-17 11:43:25,5.137s,PASSED
verifyElementText,Firefox 64.0,,2018-12-17 11:43:25,2018-12-17 11:43:25,0.051s,PASSED
verifyElementPresent,Firefox 64.0,,2018-12-17 11:43:25,2018-12-17 11:43:25,0.027s,PASSED
delay,Firefox 64.0,,2018-12-17 11:43:25,2018-12-17 11:43:28,3.140s,PASSED
closeBrowser,Firefox 64.0,,2018-12-17 11:43:28,2018-12-17 11:43:29,0.642s,PASSED
,,,,,,
Test Cases/Getcraft_Prod/Brief_phase2_selected_loginMultiple ,Firefox 64.0,,2018-12-17 11:43:29,2018-12-17 11:44:36,1m - 6.853s,PASSED
Statement - RN = <not implemented yet for class: org.codehaus.groovy.ast.expr.EmptyExpression>,Firefox 64.0,,2018-12-17 11:43:29,2018-12-17 11:43:29,0.000s,PASSED
Statement - RN = java.lang.Math.random() * 599,Firefox 64.0,,2018-12-17 11:43:29,2018-12-17 11:43:29,0.001s,PASSED
Statement - name_project = project_name + RN,Firefox 64.0,,2018-12-17 11:43:29,2018-12-17 11:43:29,0.000s,PASSED
openBrowser,Firefox 64.0,,2018-12-17 11:43:29,2018-12-17 11:43:31,2.407s,PASSED
maximizeWindow,Firefox 64.0,,2018-12-17 11:43:31,2018-12-17 11:43:35,3.610s,PASSED
navigateToUrl,Firefox 64.0,,2018-12-17 11:43:35,2018-12-17 11:43:51,16.237s,PASSED
"Statement - If (com.kms.katalon.core.webui.keyword.WebUiBuiltInKeywords.verifyElementVisible(com.kms.katalon.core.testobject.ObjectRepository.findTestObject(Object Repository/GETCRAFT/create_brief/Language_indo), OPTIONAL))",Firefox 64.0,,2018-12-17 11:43:51,2018-12-17 11:43:51,0.122s,PASSED
Statement - Else,Firefox 64.0,,2018-12-17 11:43:51,2018-12-17 11:43:54,3.070s,PASSED
click,Firefox 64.0,,2018-12-17 11:43:54,2018-12-17 11:43:55,0.480s,PASSED
delay,Firefox 64.0,,2018-12-17 11:43:55,2018-12-17 11:44:00,5.070s,PASSED
waitForElementClickable,Firefox 64.0,,2018-12-17 11:44:00,2018-12-17 11:44:00,0.026s,PASSED
scrollToElement,Firefox 64.0,,2018-12-17 11:44:00,2018-12-17 11:44:00,0.025s,PASSED
click,Firefox 64.0,,2018-12-17 11:44:00,2018-12-17 11:44:00,0.468s,PASSED
click,Firefox 64.0,,2018-12-17 11:44:00,2018-12-17 11:44:01,0.334s,PASSED
click,Firefox 64.0,,2018-12-17 11:44:01,2018-12-17 11:44:01,0.511s,PASSED
delay,Firefox 64.0,,2018-12-17 11:44:01,2018-12-17 11:44:03,2.076s,PASSED
setText,Firefox 64.0,,2018-12-17 11:44:03,2018-12-17 11:44:04,0.449s,PASSED
setText,Firefox 64.0,,2018-12-17 11:44:04,2018-12-17 11:44:04,0.172s,PASSED
setText,Firefox 64.0,,2018-12-17 11:44:04,2018-12-17 11:44:04,0.141s,PASSED
setText,Firefox 64.0,,2018-12-17 11:44:04,2018-12-17 11:44:04,0.119s,PASSED
scrollToElement,Firefox 64.0,,2018-12-17 11:44:04,2018-12-17 11:44:04,0.023s,PASSED
click,Firefox 64.0,,2018-12-17 11:44:04,2018-12-17 11:44:05,0.297s,PASSED
setText,Firefox 64.0,,2018-12-17 11:44:05,2018-12-17 11:44:05,0.167s,PASSED
click,Firefox 64.0,,2018-12-17 11:44:05,2018-12-17 11:44:05,0.317s,PASSED
click,Firefox 64.0,,2018-12-17 11:44:05,2018-12-17 11:44:05,0.270s,PASSED
scrollToElement,Firefox 64.0,,2018-12-17 11:44:05,2018-12-17 11:44:05,0.025s,PASSED
delay,Firefox 64.0,,2018-12-17 11:44:05,2018-12-17 11:44:08,3.070s,PASSED
click,Firefox 64.0,,2018-12-17 11:44:08,2018-12-17 11:44:09,0.416s,PASSED
scrollToElement,Firefox 64.0,,2018-12-17 11:44:09,2018-12-17 11:44:09,0.021s,PASSED
delay,Firefox 64.0,,2018-12-17 11:44:09,2018-12-17 11:44:12,3.068s,PASSED
click,Firefox 64.0,,2018-12-17 11:44:12,2018-12-17 11:44:12,0.309s,PASSED
setText,Firefox 64.0,,2018-12-17 11:44:12,2018-12-17 11:44:13,0.410s,PASSED
delay,Firefox 64.0,,2018-12-17 11:44:13,2018-12-17 11:44:16,3.079s,PASSED
setText,Firefox 64.0,,2018-12-17 11:44:16,2018-12-17 11:44:16,0.213s,PASSED
delay,Firefox 64.0,,2018-12-17 11:44:16,2018-12-17 11:44:21,5.070s,PASSED
click,Firefox 64.0,,2018-12-17 11:44:21,2018-12-17 11:44:21,0.301s,PASSED
waitForElementPresent,Firefox 64.0,,2018-12-17 11:44:21,2018-12-17 11:44:23,1.261s,PASSED
click,Firefox 64.0,,2018-12-17 11:44:23,2018-12-17 11:44:23,0.316s,PASSED
click,Firefox 64.0,,2018-12-17 11:44:23,2018-12-17 11:44:23,0.338s,PASSED
waitForElementPresent,Firefox 64.0,,2018-12-17 11:44:23,2018-12-17 11:44:29,5.512s,PASSED
delay,Firefox 64.0,,2018-12-17 11:44:29,2018-12-17 11:44:32,3.071s,PASSED
verifyElementText,Firefox 64.0,,2018-12-17 11:44:32,2018-12-17 11:44:32,0.084s,PASSED
verifyElementPresent,Firefox 64.0,,2018-12-17 11:44:32,2018-12-17 11:44:32,0.026s,PASSED
delay,Firefox 64.0,,2018-12-17 11:44:32,2018-12-17 11:44:35,3.073s,PASSED
closeBrowser,Firefox 64.0,,2018-12-17 11:44:35,2018-12-17 11:44:36,0.667s,PASSED
,,,,,,
Test Cases/Getcraft_Prod/OpenProject_Draft,Firefox 64.0,,2018-12-17 11:44:36,2018-12-17 11:45:04,27.987s,PASSED
Statement - RN = <not implemented yet for class: org.codehaus.groovy.ast.expr.EmptyExpression>,Firefox 64.0,,2018-12-17 11:44:36,2018-12-17 11:44:36,0.001s,PASSED
Statement - RN = java.lang.Math.random() * 599,Firefox 64.0,,2018-12-17 11:44:36,2018-12-17 11:44:36,0.000s,PASSED
Statement - name_project = project_name + RN,Firefox 64.0,,2018-12-17 11:44:36,2018-12-17 11:44:36,0.000s,PASSED
openBrowser,Firefox 64.0,,2018-12-17 11:44:36,2018-12-17 11:44:38,2.275s,PASSED
maximizeWindow,Firefox 64.0,,2018-12-17 11:44:38,2018-12-17 11:44:42,3.581s,PASSED
navigateToUrl,Firefox 64.0,,2018-12-17 11:44:42,2018-12-17 11:44:49,7.163s,PASSED
"Statement - If (com.kms.katalon.core.webui.keyword.WebUiBuiltInKeywords.verifyElementVisible(com.kms.katalon.core.testobject.ObjectRepository.findTestObject(Object Repository/GETCRAFT/create_brief/Language_indo), OPTIONAL))",Firefox 64.0,,2018-12-17 11:44:49,2018-12-17 11:44:49,0.080s,PASSED
Statement - Else,Firefox 64.0,,2018-12-17 11:44:49,2018-12-17 11:44:52,3.062s,PASSED
setText,Firefox 64.0,,2018-12-17 11:44:52,2018-12-17 11:44:52,0.252s,PASSED
setText,Firefox 64.0,,2018-12-17 11:44:52,2018-12-17 11:44:52,0.109s,PASSED
click,Firefox 64.0,,2018-12-17 11:44:52,2018-12-17 11:44:53,0.338s,PASSED
verifyElementPresent,Firefox 64.0,,2018-12-17 11:44:53,2018-12-17 11:44:57,4.296s,PASSED
click,Firefox 64.0,,2018-12-17 11:44:57,2018-12-17 11:44:58,0.785s,PASSED
click,Firefox 64.0,,2018-12-17 11:44:58,2018-12-17 11:44:59,1.070s,PASSED
delay,Firefox 64.0,,2018-12-17 11:44:59,2018-12-17 11:45:03,4.072s,PASSED
waitForElementPresent,Firefox 64.0,,2018-12-17 11:45:03,2018-12-17 11:45:03,0.022s,PASSED
verifyElementText,Firefox 64.0,,2018-12-17 11:45:03,2018-12-17 11:45:03,0.029s,PASSED
closeBrowser,Firefox 64.0,,2018-12-17 11:45:03,2018-12-17 11:45:04,0.639s,PASSED
