Suite/Test/Step Name,Browser,Description,Start time,End time,Duration,Status
GETCRAFT_STAGING,Firefox 63.0,,2018-12-03 17:56:50,2018-12-03 17:57:44,54.650s,INCOMPLETE
,,,,,,
Test Cases/GETCRAFT/Register_Creator,Firefox 63.0,,2018-12-03 17:56:51,2018-12-03 17:57:35,43.718s,FAILED
Statement - RN = <not implemented yet for class: org.codehaus.groovy.ast.expr.EmptyExpression>,Firefox 63.0,,2018-12-03 17:56:53,2018-12-03 17:56:53,0.004s,PASSED
Statement - RN = java.lang.Math.random() * 999,Firefox 63.0,,2018-12-03 17:56:53,2018-12-03 17:56:53,0.040s,PASSED
Statement - mailinator = email + RN,Firefox 63.0,,2018-12-03 17:56:53,2018-12-03 17:56:53,0.003s,PASSED
Statement - user = email + RN + domain,Firefox 63.0,,2018-12-03 17:56:53,2018-12-03 17:56:53,0.026s,PASSED
Statement - firstname = name + RN,Firefox 63.0,,2018-12-03 17:56:53,2018-12-03 17:56:53,0.002s,PASSED
Statement - lastname = name2 + RN,Firefox 63.0,,2018-12-03 17:56:53,2018-12-03 17:56:53,0.001s,PASSED
Statement - Phone = phonenumber + RN,Firefox 63.0,,2018-12-03 17:56:53,2018-12-03 17:56:53,0.001s,PASSED
Statement - println(user),Firefox 63.0,,2018-12-03 17:56:53,2018-12-03 17:56:53,0.012s,PASSED
openBrowser,Firefox 63.0,,2018-12-03 17:56:53,2018-12-03 17:57:09,15.983s,PASSED
maximizeWindow,Firefox 63.0,,2018-12-03 17:57:09,2018-12-03 17:57:13,3.973s,PASSED
navigateToUrl,Firefox 63.0,,2018-12-03 17:57:13,2018-12-03 17:57:21,7.883s,PASSED
waitForElementClickable,Firefox 63.0,,2018-12-03 17:57:21,2018-12-03 17:57:23,1.619s,PASSED
click,Firefox 63.0,,2018-12-03 17:57:23,2018-12-03 17:57:23,0.468s,PASSED
click,Firefox 63.0,,2018-12-03 17:57:23,2018-12-03 17:57:24,0.399s,PASSED
setText,Firefox 63.0,,2018-12-03 17:57:24,2018-12-03 17:57:24,0.880s,PASSED
setText,Firefox 63.0,,2018-12-03 17:57:24,2018-12-03 17:57:25,0.639s,PASSED
setText,Firefox 63.0,,2018-12-03 17:57:25,2018-12-03 17:57:25,0.205s,PASSED
setText,Firefox 63.0,,2018-12-03 17:57:25,2018-12-03 17:57:26,0.486s,PASSED
setText,Firefox 63.0,,2018-12-03 17:57:26,2018-12-03 17:57:26,0.194s,PASSED
click,Firefox 63.0,,2018-12-03 17:57:26,2018-12-03 17:57:26,0.348s,PASSED
click,Firefox 63.0,,2018-12-03 17:57:26,2018-12-03 17:57:27,0.314s,PASSED
setText,Firefox 63.0,,2018-12-03 17:57:27,2018-12-03 17:57:27,0.866s,PASSED
click,Firefox 63.0,,2018-12-03 17:57:27,2018-12-03 17:57:28,0.284s,PASSED
click,Firefox 63.0,,2018-12-03 17:57:28,2018-12-03 17:57:28,0.375s,PASSED
click,Firefox 63.0,,2018-12-03 17:57:28,2018-12-03 17:57:28,0.283s,PASSED
delay,Firefox 63.0,,2018-12-03 17:57:28,2018-12-03 17:57:34,5.179s,PASSED
click,Firefox 63.0,,2018-12-03 17:57:34,2018-12-03 17:57:35,0.940s,PASSED
waitForElementClickable,Firefox 63.0,,2018-12-03 17:57:35,2018-12-03 17:57:35,0.069s,PASSED
click,Firefox 63.0,,2018-12-03 17:57:35,2018-12-03 17:57:35,0.481s,FAILED
,,,,,,
Test Cases/GETCRAFT/Register_Client,Firefox 63.0,,2018-12-03 17:57:35,2018-12-03 17:57:44,9.365s,INCOMPLETE
Statement - RN = <not implemented yet for class: org.codehaus.groovy.ast.expr.EmptyExpression>,Firefox 63.0,,2018-12-03 17:57:36,2018-12-03 17:57:36,0.001s,PASSED
Statement - RN = java.lang.Math.random() * 999,Firefox 63.0,,2018-12-03 17:57:36,2018-12-03 17:57:36,0.006s,PASSED
Statement - mailinator = email + RN,Firefox 63.0,,2018-12-03 17:57:36,2018-12-03 17:57:36,0.000s,PASSED
Statement - user = email + RN + domain,Firefox 63.0,,2018-12-03 17:57:36,2018-12-03 17:57:36,0.003s,PASSED
Statement - firstname = name + RN,Firefox 63.0,,2018-12-03 17:57:36,2018-12-03 17:57:36,0.001s,PASSED
Statement - lastname = name2 + RN,Firefox 63.0,,2018-12-03 17:57:36,2018-12-03 17:57:36,0.001s,PASSED
Statement - Phone = phonenumber + RN,Firefox 63.0,,2018-12-03 17:57:36,2018-12-03 17:57:36,0.000s,PASSED
Statement - println(user),Firefox 63.0,,2018-12-03 17:57:36,2018-12-03 17:57:36,0.000s,PASSED
openBrowser,Firefox 63.0,,2018-12-03 17:57:36,2018-12-03 17:57:41,5.110s,PASSED
maximizeWindow,Firefox 63.0,,2018-12-03 17:57:41,2018-12-03 17:57:44,3.564s,PASSED
navigateToUrl,Firefox 63.0,,2018-12-03 17:57:44,2018-12-03 17:57:44,0.001s,INCOMPLETE
