Suite/Test/Step Name,Browser,Description,Start time,End time,Duration,Status
GETCRAFT_STAGING,Firefox 63.0,,2018-11-27 11:15:17,2018-11-27 11:41:56,26m - 39.293s,FAILED
,,,,,,
Test Cases/GETCRAFT/Register_Creator,Firefox 63.0,,2018-11-27 11:15:18,2018-11-27 11:16:50,1m - 32.443s,FAILED
Statement - RN = <not implemented yet for class: org.codehaus.groovy.ast.expr.EmptyExpression>,Firefox 63.0,,2018-11-27 11:15:18,2018-11-27 11:15:18,0.001s,PASSED
Statement - RN = java.lang.Math.random() * 999,Firefox 63.0,,2018-11-27 11:15:18,2018-11-27 11:15:18,0.015s,PASSED
Statement - mailinator = email + RN,Firefox 63.0,,2018-11-27 11:15:18,2018-11-27 11:15:18,0.007s,PASSED
Statement - user = email + RN + domain,Firefox 63.0,,2018-11-27 11:15:18,2018-11-27 11:15:18,0.002s,PASSED
Statement - firstname = name + RN,Firefox 63.0,,2018-11-27 11:15:18,2018-11-27 11:15:18,0.003s,PASSED
Statement - lastname = name2 + RN,Firefox 63.0,,2018-11-27 11:15:18,2018-11-27 11:15:18,0.002s,PASSED
Statement - Phone = phonenumber + RN,Firefox 63.0,,2018-11-27 11:15:18,2018-11-27 11:15:18,0.001s,PASSED
Statement - println(user),Firefox 63.0,,2018-11-27 11:15:18,2018-11-27 11:15:18,0.004s,PASSED
openBrowser,Firefox 63.0,,2018-11-27 11:15:18,2018-11-27 11:15:24,6.096s,PASSED
maximizeWindow,Firefox 63.0,,2018-11-27 11:15:24,2018-11-27 11:15:28,3.582s,PASSED
navigateToUrl,Firefox 63.0,,2018-11-27 11:15:28,2018-11-27 11:15:37,9.122s,PASSED
waitForElementClickable,Firefox 63.0,,2018-11-27 11:15:37,2018-11-27 11:15:41,4.307s,PASSED
click,Firefox 63.0,,2018-11-27 11:15:41,2018-11-27 11:15:42,0.565s,PASSED
click,Firefox 63.0,,2018-11-27 11:15:42,2018-11-27 11:15:42,0.320s,PASSED
setText,Firefox 63.0,,2018-11-27 11:15:42,2018-11-27 11:15:42,0.199s,PASSED
setText,Firefox 63.0,,2018-11-27 11:15:42,2018-11-27 11:15:43,0.130s,PASSED
setText,Firefox 63.0,,2018-11-27 11:15:43,2018-11-27 11:15:43,0.127s,PASSED
setText,Firefox 63.0,,2018-11-27 11:15:43,2018-11-27 11:15:43,0.202s,PASSED
setText,Firefox 63.0,,2018-11-27 11:15:43,2018-11-27 11:15:43,0.161s,PASSED
click,Firefox 63.0,,2018-11-27 11:15:43,2018-11-27 11:15:43,0.264s,PASSED
click,Firefox 63.0,,2018-11-27 11:15:43,2018-11-27 11:15:44,0.317s,PASSED
setText,Firefox 63.0,,2018-11-27 11:15:44,2018-11-27 11:15:44,0.302s,PASSED
click,Firefox 63.0,,2018-11-27 11:15:44,2018-11-27 11:15:44,0.312s,PASSED
click,Firefox 63.0,,2018-11-27 11:15:44,2018-11-27 11:15:45,0.345s,PASSED
click,Firefox 63.0,,2018-11-27 11:15:45,2018-11-27 11:15:47,2.207s,PASSED
delay,Firefox 63.0,,2018-11-27 11:15:47,2018-11-27 11:15:52,5.190s,PASSED
click,Firefox 63.0,,2018-11-27 11:15:52,2018-11-27 11:15:53,0.510s,PASSED
waitForElementClickable,Firefox 63.0,,2018-11-27 11:15:53,2018-11-27 11:15:53,0.046s,PASSED
click,Firefox 63.0,,2018-11-27 11:15:53,2018-11-27 11:15:53,0.491s,PASSED
delay,Firefox 63.0,,2018-11-27 11:15:53,2018-11-27 11:15:59,6.075s,PASSED
click,Firefox 63.0,,2018-11-27 11:15:59,2018-11-27 11:15:59,0.281s,PASSED
click,Firefox 63.0,,2018-11-27 11:15:59,2018-11-27 11:16:00,0.244s,PASSED
delay,Firefox 63.0,,2018-11-27 11:16:00,2018-11-27 11:16:06,6.072s,PASSED
executeJavaScript,Firefox 63.0,,2018-11-27 11:16:06,2018-11-27 11:16:06,0.156s,PASSED
Statement - currentWindow = com.kms.katalon.core.webui.keyword.WebUiBuiltInKeywords.getWindowIndex(),Firefox 63.0,,2018-11-27 11:16:06,2018-11-27 11:16:06,0.026s,PASSED
switchToWindowIndex,Firefox 63.0,,2018-11-27 11:16:06,2018-11-27 11:16:06,0.025s,PASSED
navigateToUrl,Firefox 63.0,,2018-11-27 11:16:06,2018-11-27 11:16:13,6.904s,PASSED
setText,Firefox 63.0,,2018-11-27 11:16:13,2018-11-27 11:16:13,0.071s,PASSED
click,Firefox 63.0,,2018-11-27 11:16:13,2018-11-27 11:16:15,1.632s,PASSED
click,Firefox 63.0,,2018-11-27 11:16:15,2018-11-27 11:16:50,35.380s,FAILED
,,,,,,
Test Cases/GETCRAFT/Register_Client,Firefox 63.0,,2018-11-27 11:16:50,2018-11-27 11:18:11,1m - 20.751s,FAILED
Statement - RN = <not implemented yet for class: org.codehaus.groovy.ast.expr.EmptyExpression>,Firefox 63.0,,2018-11-27 11:16:50,2018-11-27 11:16:50,0.001s,PASSED
Statement - RN = java.lang.Math.random() * 999,Firefox 63.0,,2018-11-27 11:16:50,2018-11-27 11:16:50,0.001s,PASSED
Statement - mailinator = email + RN,Firefox 63.0,,2018-11-27 11:16:50,2018-11-27 11:16:50,0.000s,PASSED
Statement - user = email + RN + domain,Firefox 63.0,,2018-11-27 11:16:50,2018-11-27 11:16:50,0.001s,PASSED
Statement - firstname = name + RN,Firefox 63.0,,2018-11-27 11:16:50,2018-11-27 11:16:50,0.000s,PASSED
Statement - lastname = name2 + RN,Firefox 63.0,,2018-11-27 11:16:50,2018-11-27 11:16:50,0.000s,PASSED
Statement - Phone = phonenumber + RN,Firefox 63.0,,2018-11-27 11:16:50,2018-11-27 11:16:50,0.001s,PASSED
Statement - println(user),Firefox 63.0,,2018-11-27 11:16:50,2018-11-27 11:16:50,0.001s,PASSED
openBrowser,Firefox 63.0,,2018-11-27 11:16:50,2018-11-27 11:16:53,2.982s,PASSED
maximizeWindow,Firefox 63.0,,2018-11-27 11:16:53,2018-11-27 11:16:57,3.607s,PASSED
navigateToUrl,Firefox 63.0,,2018-11-27 11:16:57,2018-11-27 11:17:02,5.200s,PASSED
waitForElementClickable,Firefox 63.0,,2018-11-27 11:17:02,2018-11-27 11:17:03,0.870s,PASSED
click,Firefox 63.0,,2018-11-27 11:17:03,2018-11-27 11:17:03,0.335s,PASSED
click,Firefox 63.0,,2018-11-27 11:17:03,2018-11-27 11:17:04,0.402s,PASSED
setText,Firefox 63.0,,2018-11-27 11:17:04,2018-11-27 11:17:04,0.206s,PASSED
setText,Firefox 63.0,,2018-11-27 11:17:04,2018-11-27 11:17:04,0.342s,PASSED
setText,Firefox 63.0,,2018-11-27 11:17:04,2018-11-27 11:17:04,0.205s,PASSED
setText,Firefox 63.0,,2018-11-27 11:17:04,2018-11-27 11:17:05,0.518s,PASSED
setText,Firefox 63.0,,2018-11-27 11:17:05,2018-11-27 11:17:05,0.112s,PASSED
click,Firefox 63.0,,2018-11-27 11:17:05,2018-11-27 11:17:05,0.442s,PASSED
click,Firefox 63.0,,2018-11-27 11:17:05,2018-11-27 11:17:06,0.284s,PASSED
setText,Firefox 63.0,,2018-11-27 11:17:06,2018-11-27 11:17:06,0.264s,PASSED
delay,Firefox 63.0,,2018-11-27 11:17:06,2018-11-27 11:17:11,5.173s,PASSED
click,Firefox 63.0,,2018-11-27 11:17:11,2018-11-27 11:17:11,0.339s,PASSED
click,Firefox 63.0,,2018-11-27 11:17:11,2018-11-27 11:17:12,0.290s,PASSED
delay,Firefox 63.0,,2018-11-27 11:17:12,2018-11-27 11:17:17,5.078s,PASSED
click,Firefox 63.0,,2018-11-27 11:17:17,2018-11-27 11:17:17,0.508s,PASSED
waitForElementClickable,Firefox 63.0,,2018-11-27 11:17:17,2018-11-27 11:17:17,0.028s,PASSED
click,Firefox 63.0,,2018-11-27 11:17:17,2018-11-27 11:17:18,0.480s,PASSED
delay,Firefox 63.0,,2018-11-27 11:17:18,2018-11-27 11:17:22,4.234s,PASSED
click,Firefox 63.0,,2018-11-27 11:17:22,2018-11-27 11:17:22,0.308s,PASSED
click,Firefox 63.0,,2018-11-27 11:17:22,2018-11-27 11:17:23,0.272s,PASSED
delay,Firefox 63.0,,2018-11-27 11:17:23,2018-11-27 11:17:29,6.068s,PASSED
executeJavaScript,Firefox 63.0,,2018-11-27 11:17:29,2018-11-27 11:17:29,0.165s,PASSED
Statement - currentWindow = com.kms.katalon.core.webui.keyword.WebUiBuiltInKeywords.getWindowIndex(),Firefox 63.0,,2018-11-27 11:17:29,2018-11-27 11:17:29,0.014s,PASSED
switchToWindowIndex,Firefox 63.0,,2018-11-27 11:17:29,2018-11-27 11:17:29,0.017s,PASSED
navigateToUrl,Firefox 63.0,,2018-11-27 11:17:29,2018-11-27 11:17:33,4.270s,PASSED
setText,Firefox 63.0,,2018-11-27 11:17:33,2018-11-27 11:17:33,0.067s,PASSED
click,Firefox 63.0,,2018-11-27 11:17:33,2018-11-27 11:17:36,2.551s,PASSED
click,Firefox 63.0,,2018-11-27 11:17:36,2018-11-27 11:18:11,34.873s,FAILED
,,,,,,
Test Cases/GETCRAFT/Create_BriefSelected(DRAFT),Firefox 63.0,,2018-11-27 11:18:11,2018-11-27 11:19:00,49.493s,PASSED
Statement - RN = <not implemented yet for class: org.codehaus.groovy.ast.expr.EmptyExpression>,Firefox 63.0,,2018-11-27 11:18:11,2018-11-27 11:18:11,0.001s,PASSED
Statement - RN = java.lang.Math.random() * 599,Firefox 63.0,,2018-11-27 11:18:11,2018-11-27 11:18:11,0.000s,PASSED
Statement - name_project = project_name + RN,Firefox 63.0,,2018-11-27 11:18:11,2018-11-27 11:18:11,0.000s,PASSED
openBrowser,Firefox 63.0,,2018-11-27 11:18:11,2018-11-27 11:18:14,2.836s,PASSED
maximizeWindow,Firefox 63.0,,2018-11-27 11:18:14,2018-11-27 11:18:17,3.545s,PASSED
navigateToUrl,Firefox 63.0,,2018-11-27 11:18:17,2018-11-27 11:18:24,6.693s,PASSED
"Statement - If (com.kms.katalon.core.webui.keyword.WebUiBuiltInKeywords.verifyElementVisible(com.kms.katalon.core.testobject.ObjectRepository.findTestObject(Object Repository/GETCRAFT/create_brief/Language_indo), OPTIONAL))",Firefox 63.0,,2018-11-27 11:18:24,2018-11-27 11:18:31,6.414s,PASSED
setText,Firefox 63.0,,2018-11-27 11:18:31,2018-11-27 11:18:31,0.393s,PASSED
setText,Firefox 63.0,,2018-11-27 11:18:31,2018-11-27 11:18:31,0.064s,PASSED
click,Firefox 63.0,,2018-11-27 11:18:31,2018-11-27 11:18:31,0.250s,PASSED
verifyElementPresent,Firefox 63.0,,2018-11-27 11:18:31,2018-11-27 11:18:37,5.315s,PASSED
click,Firefox 63.0,,2018-11-27 11:18:37,2018-11-27 11:18:37,0.475s,PASSED
click,Firefox 63.0,,2018-11-27 11:18:37,2018-11-27 11:18:38,0.527s,PASSED
delay,Firefox 63.0,,2018-11-27 11:18:38,2018-11-27 11:18:42,4.069s,PASSED
waitForElementClickable,Firefox 63.0,,2018-11-27 11:18:42,2018-11-27 11:18:42,0.038s,PASSED
scrollToElement,Firefox 63.0,,2018-11-27 11:18:42,2018-11-27 11:18:42,0.045s,PASSED
click,Firefox 63.0,,2018-11-27 11:18:42,2018-11-27 11:18:42,0.542s,PASSED
click,Firefox 63.0,,2018-11-27 11:18:42,2018-11-27 11:18:43,0.378s,PASSED
click,Firefox 63.0,,2018-11-27 11:18:43,2018-11-27 11:18:43,0.610s,PASSED
setText,Firefox 63.0,,2018-11-27 11:18:43,2018-11-27 11:18:44,0.460s,PASSED
setText,Firefox 63.0,,2018-11-27 11:18:44,2018-11-27 11:18:44,0.216s,PASSED
setText,Firefox 63.0,,2018-11-27 11:18:44,2018-11-27 11:18:44,0.145s,PASSED
setText,Firefox 63.0,,2018-11-27 11:18:44,2018-11-27 11:18:44,0.190s,PASSED
scrollToElement,Firefox 63.0,,2018-11-27 11:18:44,2018-11-27 11:18:44,0.027s,PASSED
uploadFiles.uploadFile,Firefox 63.0,,2018-11-27 11:18:44,2018-11-27 11:18:44,0.001s,NOT_RUN
Statement - java.lang.Thread.sleep(2000),Firefox 63.0,,2018-11-27 11:18:44,2018-11-27 11:18:44,0.001s,NOT_RUN
waitForElementClickable,Firefox 63.0,,2018-11-27 11:18:44,2018-11-27 11:18:44,0.001s,NOT_RUN
click,Firefox 63.0,,2018-11-27 11:18:44,2018-11-27 11:18:44,0.001s,NOT_RUN
delay,Firefox 63.0,,2018-11-27 11:18:44,2018-11-27 11:18:44,0.000s,NOT_RUN
click,Firefox 63.0,,2018-11-27 11:18:44,2018-11-27 11:18:45,0.266s,PASSED
setText,Firefox 63.0,,2018-11-27 11:18:45,2018-11-27 11:18:45,0.222s,PASSED
click,Firefox 63.0,,2018-11-27 11:18:45,2018-11-27 11:18:45,0.301s,PASSED
click,Firefox 63.0,,2018-11-27 11:18:45,2018-11-27 11:18:45,0.315s,PASSED
scrollToElement,Firefox 63.0,,2018-11-27 11:18:45,2018-11-27 11:18:45,0.028s,PASSED
delay,Firefox 63.0,,2018-11-27 11:18:45,2018-11-27 11:18:48,3.075s,PASSED
click,Firefox 63.0,,2018-11-27 11:18:48,2018-11-27 11:18:49,0.278s,PASSED
waitForElementPresent,Firefox 63.0,,2018-11-27 11:18:49,2018-11-27 11:18:51,2.291s,PASSED
delay,Firefox 63.0,,2018-11-27 11:18:51,2018-11-27 11:18:56,5.078s,PASSED
verifyElementText,Firefox 63.0,,2018-11-27 11:18:56,2018-11-27 11:18:56,0.151s,PASSED
verifyElementPresent,Firefox 63.0,,2018-11-27 11:18:56,2018-11-27 11:18:56,0.067s,PASSED
delay,Firefox 63.0,,2018-11-27 11:18:56,2018-11-27 11:18:59,3.077s,PASSED
closeBrowser,Firefox 63.0,,2018-11-27 11:18:59,2018-11-27 11:19:00,0.763s,PASSED
,,,,,,
Test Cases/GETCRAFT/Create_BriefUnselected(DRAFT),Firefox 63.0,,2018-11-27 11:19:00,2018-11-27 11:19:56,55.345s,PASSED
Statement - RN = <not implemented yet for class: org.codehaus.groovy.ast.expr.EmptyExpression>,Firefox 63.0,,2018-11-27 11:19:00,2018-11-27 11:19:00,0.001s,PASSED
Statement - RN = java.lang.Math.random() * 599,Firefox 63.0,,2018-11-27 11:19:00,2018-11-27 11:19:00,0.000s,PASSED
Statement - name_project = project_name + RN,Firefox 63.0,,2018-11-27 11:19:00,2018-11-27 11:19:00,0.001s,PASSED
openBrowser,Firefox 63.0,,2018-11-27 11:19:00,2018-11-27 11:19:02,1.999s,PASSED
maximizeWindow,Firefox 63.0,,2018-11-27 11:19:02,2018-11-27 11:19:06,3.588s,PASSED
navigateToUrl,Firefox 63.0,,2018-11-27 11:19:06,2018-11-27 11:19:11,5.389s,PASSED
"Statement - If (com.kms.katalon.core.webui.keyword.WebUiBuiltInKeywords.verifyElementVisible(com.kms.katalon.core.testobject.ObjectRepository.findTestObject(Object Repository/GETCRAFT/create_brief/Language_indo), OPTIONAL))",Firefox 63.0,,2018-11-27 11:19:11,2018-11-27 11:19:18,7.097s,PASSED
setText,Firefox 63.0,,2018-11-27 11:19:18,2018-11-27 11:19:19,0.291s,PASSED
setText,Firefox 63.0,,2018-11-27 11:19:19,2018-11-27 11:19:19,0.063s,PASSED
click,Firefox 63.0,,2018-11-27 11:19:19,2018-11-27 11:19:19,0.266s,PASSED
verifyElementPresent,Firefox 63.0,,2018-11-27 11:19:19,2018-11-27 11:19:24,5.075s,PASSED
click,Firefox 63.0,,2018-11-27 11:19:24,2018-11-27 11:19:25,0.733s,PASSED
delay,Firefox 63.0,,2018-11-27 11:19:25,2018-11-27 11:19:30,5.073s,PASSED
click,Firefox 63.0,,2018-11-27 11:19:30,2018-11-27 11:19:30,0.313s,PASSED
click,Firefox 63.0,,2018-11-27 11:19:30,2018-11-27 11:19:31,0.304s,PASSED
waitForElementClickable,Firefox 63.0,,2018-11-27 11:19:31,2018-11-27 11:19:31,0.001s,NOT_RUN
click,Firefox 63.0,,2018-11-27 11:19:31,2018-11-27 11:19:31,0.282s,PASSED
click,Firefox 63.0,,2018-11-27 11:19:31,2018-11-27 11:19:31,0.260s,PASSED
scrollToElement,Firefox 63.0,,2018-11-27 11:19:31,2018-11-27 11:19:31,0.020s,PASSED
waitForElementClickable,Firefox 63.0,,2018-11-27 11:19:31,2018-11-27 11:19:31,0.038s,PASSED
delay,Firefox 63.0,,2018-11-27 11:19:31,2018-11-27 11:19:33,2.066s,PASSED
click,Firefox 63.0,,2018-11-27 11:19:33,2018-11-27 11:19:34,0.304s,PASSED
click,Firefox 63.0,,2018-11-27 11:19:34,2018-11-27 11:19:34,0.275s,PASSED
click,Firefox 63.0,,2018-11-27 11:19:34,2018-11-27 11:19:34,0.295s,PASSED
waitForElementClickable,Firefox 63.0,,2018-11-27 11:19:34,2018-11-27 11:19:34,0.025s,PASSED
delay,Firefox 63.0,,2018-11-27 11:19:34,2018-11-27 11:19:36,2.070s,PASSED
click,Firefox 63.0,,2018-11-27 11:19:36,2018-11-27 11:19:37,0.387s,PASSED
click,Firefox 63.0,,2018-11-27 11:19:37,2018-11-27 11:19:37,0.299s,PASSED
click,Firefox 63.0,,2018-11-27 11:19:37,2018-11-27 11:19:37,0.278s,PASSED
setText,Firefox 63.0,,2018-11-27 11:19:37,2018-11-27 11:19:38,0.424s,PASSED
setText,Firefox 63.0,,2018-11-27 11:19:38,2018-11-27 11:19:38,0.186s,PASSED
setText,Firefox 63.0,,2018-11-27 11:19:38,2018-11-27 11:19:38,0.128s,PASSED
setText,Firefox 63.0,,2018-11-27 11:19:38,2018-11-27 11:19:38,0.136s,PASSED
scrollToElement,Firefox 63.0,,2018-11-27 11:19:38,2018-11-27 11:19:38,0.030s,PASSED
uploadFiles.uploadFile,Firefox 63.0,,2018-11-27 11:19:38,2018-11-27 11:19:38,0.001s,NOT_RUN
Statement - java.lang.Thread.sleep(2000),Firefox 63.0,,2018-11-27 11:19:38,2018-11-27 11:19:38,0.000s,NOT_RUN
waitForElementClickable,Firefox 63.0,,2018-11-27 11:19:38,2018-11-27 11:19:38,0.001s,NOT_RUN
click,Firefox 63.0,,2018-11-27 11:19:38,2018-11-27 11:19:38,0.000s,NOT_RUN
delay,Firefox 63.0,,2018-11-27 11:19:38,2018-11-27 11:19:38,0.000s,NOT_RUN
click,Firefox 63.0,,2018-11-27 11:19:38,2018-11-27 11:19:38,0.304s,PASSED
setText,Firefox 63.0,,2018-11-27 11:19:38,2018-11-27 11:19:39,0.181s,PASSED
click,Firefox 63.0,,2018-11-27 11:19:39,2018-11-27 11:19:39,0.275s,PASSED
click,Firefox 63.0,,2018-11-27 11:19:39,2018-11-27 11:19:39,0.277s,PASSED
scrollToElement,Firefox 63.0,,2018-11-27 11:19:39,2018-11-27 11:19:39,0.027s,PASSED
delay,Firefox 63.0,,2018-11-27 11:19:39,2018-11-27 11:19:42,3.076s,PASSED
click,Firefox 63.0,,2018-11-27 11:19:42,2018-11-27 11:19:42,0.271s,PASSED
waitForElementPresent,Firefox 63.0,,2018-11-27 11:19:42,2018-11-27 11:19:47,4.113s,PASSED
delay,Firefox 63.0,,2018-11-27 11:19:47,2018-11-27 11:19:52,5.068s,PASSED
verifyElementText,Firefox 63.0,,2018-11-27 11:19:52,2018-11-27 11:19:52,0.058s,PASSED
verifyElementPresent,Firefox 63.0,,2018-11-27 11:19:52,2018-11-27 11:19:52,0.049s,PASSED
delay,Firefox 63.0,,2018-11-27 11:19:52,2018-11-27 11:19:55,3.055s,PASSED
closeBrowser,Firefox 63.0,,2018-11-27 11:19:55,2018-11-27 11:19:56,0.708s,PASSED
,,,,,,
Test Cases/GETCRAFT/Create_BriefSelected(SENDtoCREATOR),Firefox 63.0,,2018-11-27 11:19:56,2018-11-27 11:20:48,52.748s,PASSED
Statement - RN = <not implemented yet for class: org.codehaus.groovy.ast.expr.EmptyExpression>,Firefox 63.0,,2018-11-27 11:19:56,2018-11-27 11:19:56,0.000s,PASSED
Statement - RN = java.lang.Math.random() * 599,Firefox 63.0,,2018-11-27 11:19:56,2018-11-27 11:19:56,0.001s,PASSED
Statement - name_project = project_name + RN,Firefox 63.0,,2018-11-27 11:19:56,2018-11-27 11:19:56,0.000s,PASSED
openBrowser,Firefox 63.0,,2018-11-27 11:19:56,2018-11-27 11:19:58,2.220s,PASSED
maximizeWindow,Firefox 63.0,,2018-11-27 11:19:58,2018-11-27 11:20:02,3.546s,PASSED
navigateToUrl,Firefox 63.0,,2018-11-27 11:20:02,2018-11-27 11:20:08,6.064s,PASSED
"Statement - If (com.kms.katalon.core.webui.keyword.WebUiBuiltInKeywords.verifyElementVisible(com.kms.katalon.core.testobject.ObjectRepository.findTestObject(Object Repository/GETCRAFT/create_brief/Language_indo), OPTIONAL))",Firefox 63.0,,2018-11-27 11:20:08,2018-11-27 11:20:17,9.431s,PASSED
setText,Firefox 63.0,,2018-11-27 11:20:17,2018-11-27 11:20:17,0.275s,PASSED
setText,Firefox 63.0,,2018-11-27 11:20:17,2018-11-27 11:20:17,0.059s,PASSED
click,Firefox 63.0,,2018-11-27 11:20:17,2018-11-27 11:20:18,0.275s,PASSED
verifyElementPresent,Firefox 63.0,,2018-11-27 11:20:18,2018-11-27 11:20:22,4.862s,PASSED
click,Firefox 63.0,,2018-11-27 11:20:22,2018-11-27 11:20:23,0.430s,PASSED
click,Firefox 63.0,,2018-11-27 11:20:23,2018-11-27 11:20:23,0.525s,PASSED
delay,Firefox 63.0,,2018-11-27 11:20:23,2018-11-27 11:20:26,3.069s,PASSED
waitForElementClickable,Firefox 63.0,,2018-11-27 11:20:26,2018-11-27 11:20:27,0.030s,PASSED
scrollToElement,Firefox 63.0,,2018-11-27 11:20:27,2018-11-27 11:20:27,0.024s,PASSED
click,Firefox 63.0,,2018-11-27 11:20:27,2018-11-27 11:20:27,0.432s,PASSED
click,Firefox 63.0,,2018-11-27 11:20:27,2018-11-27 11:20:27,0.335s,PASSED
click,Firefox 63.0,,2018-11-27 11:20:27,2018-11-27 11:20:28,0.561s,PASSED
setText,Firefox 63.0,,2018-11-27 11:20:28,2018-11-27 11:20:28,0.453s,PASSED
setText,Firefox 63.0,,2018-11-27 11:20:28,2018-11-27 11:20:29,0.192s,PASSED
setText,Firefox 63.0,,2018-11-27 11:20:29,2018-11-27 11:20:29,0.139s,PASSED
setText,Firefox 63.0,,2018-11-27 11:20:29,2018-11-27 11:20:29,0.115s,PASSED
scrollToElement,Firefox 63.0,,2018-11-27 11:20:29,2018-11-27 11:20:29,0.024s,PASSED
uploadFiles.uploadFile,Firefox 63.0,,2018-11-27 11:20:29,2018-11-27 11:20:29,0.001s,NOT_RUN
Statement - java.lang.Thread.sleep(2000),Firefox 63.0,,2018-11-27 11:20:29,2018-11-27 11:20:29,0.000s,NOT_RUN
waitForElementClickable,Firefox 63.0,,2018-11-27 11:20:29,2018-11-27 11:20:29,0.001s,NOT_RUN
click,Firefox 63.0,,2018-11-27 11:20:29,2018-11-27 11:20:29,0.000s,NOT_RUN
delay,Firefox 63.0,,2018-11-27 11:20:29,2018-11-27 11:20:29,0.001s,NOT_RUN
click,Firefox 63.0,,2018-11-27 11:20:29,2018-11-27 11:20:29,0.277s,PASSED
setText,Firefox 63.0,,2018-11-27 11:20:29,2018-11-27 11:20:29,0.171s,PASSED
click,Firefox 63.0,,2018-11-27 11:20:29,2018-11-27 11:20:30,0.271s,PASSED
click,Firefox 63.0,,2018-11-27 11:20:30,2018-11-27 11:20:30,0.260s,PASSED
scrollToElement,Firefox 63.0,,2018-11-27 11:20:30,2018-11-27 11:20:30,0.022s,PASSED
delay,Firefox 63.0,,2018-11-27 11:20:30,2018-11-27 11:20:33,3.075s,PASSED
click,Firefox 63.0,,2018-11-27 11:20:33,2018-11-27 11:20:33,0.280s,PASSED
waitForElementClickable,Firefox 63.0,,2018-11-27 11:20:33,2018-11-27 11:20:34,1.135s,PASSED
click,Firefox 63.0,,2018-11-27 11:20:34,2018-11-27 11:20:35,0.256s,PASSED
delay,Firefox 63.0,,2018-11-27 11:20:35,2018-11-27 11:20:38,3.075s,PASSED
click,Firefox 63.0,,2018-11-27 11:20:38,2018-11-27 11:20:38,0.514s,PASSED
waitForElementPresent,Firefox 63.0,,2018-11-27 11:20:38,2018-11-27 11:20:39,1.301s,PASSED
delay,Firefox 63.0,,2018-11-27 11:20:39,2018-11-27 11:20:48,8.075s,PASSED
verifyElementText,Firefox 63.0,,2018-11-27 11:20:48,2018-11-27 11:20:48,0.064s,PASSED
verifyElementPresent,Firefox 63.0,,2018-11-27 11:20:48,2018-11-27 11:20:48,0.065s,PASSED
closeBrowser,Firefox 63.0,,2018-11-27 11:20:48,2018-11-27 11:20:48,0.658s,PASSED
,,,,,,
Test Cases/GETCRAFT/Create_BriefUnselected(SENDtoCREATOR),Firefox 63.0,,2018-11-27 11:20:48,2018-11-27 11:21:54,1m - 5.196s,PASSED
Statement - RN = <not implemented yet for class: org.codehaus.groovy.ast.expr.EmptyExpression>,Firefox 63.0,,2018-11-27 11:20:48,2018-11-27 11:20:48,0.001s,PASSED
Statement - RN = java.lang.Math.random() * 599,Firefox 63.0,,2018-11-27 11:20:48,2018-11-27 11:20:48,0.001s,PASSED
Statement - name_project = project_name + RN,Firefox 63.0,,2018-11-27 11:20:48,2018-11-27 11:20:48,0.000s,PASSED
openBrowser,Firefox 63.0,,2018-11-27 11:20:48,2018-11-27 11:20:51,2.207s,PASSED
maximizeWindow,Firefox 63.0,,2018-11-27 11:20:51,2018-11-27 11:20:54,3.556s,PASSED
navigateToUrl,Firefox 63.0,,2018-11-27 11:20:54,2018-11-27 11:21:01,6.566s,PASSED
"Statement - If (com.kms.katalon.core.webui.keyword.WebUiBuiltInKeywords.verifyElementVisible(com.kms.katalon.core.testobject.ObjectRepository.findTestObject(Object Repository/GETCRAFT/create_brief/Language_indo), OPTIONAL))",Firefox 63.0,,2018-11-27 11:21:01,2018-11-27 11:21:07,6.333s,PASSED
setText,Firefox 63.0,,2018-11-27 11:21:07,2018-11-27 11:21:07,0.264s,PASSED
setText,Firefox 63.0,,2018-11-27 11:21:07,2018-11-27 11:21:07,0.065s,PASSED
click,Firefox 63.0,,2018-11-27 11:21:07,2018-11-27 11:21:08,0.256s,PASSED
verifyElementPresent,Firefox 63.0,,2018-11-27 11:21:08,2018-11-27 11:21:14,5.959s,PASSED
click,Firefox 63.0,,2018-11-27 11:21:14,2018-11-27 11:21:14,0.740s,PASSED
delay,Firefox 63.0,,2018-11-27 11:21:14,2018-11-27 11:21:21,7.008s,PASSED
click,Firefox 63.0,,2018-11-27 11:21:21,2018-11-27 11:21:22,0.353s,PASSED
delay,Firefox 63.0,,2018-11-27 11:21:22,2018-11-27 11:21:24,2.075s,PASSED
click,Firefox 63.0,,2018-11-27 11:21:24,2018-11-27 11:21:24,0.343s,PASSED
waitForElementClickable,Firefox 63.0,,2018-11-27 11:21:24,2018-11-27 11:21:24,0.000s,NOT_RUN
click,Firefox 63.0,,2018-11-27 11:21:24,2018-11-27 11:21:24,0.301s,PASSED
click,Firefox 63.0,,2018-11-27 11:21:24,2018-11-27 11:21:25,0.296s,PASSED
scrollToElement,Firefox 63.0,,2018-11-27 11:21:25,2018-11-27 11:21:25,0.024s,PASSED
waitForElementClickable,Firefox 63.0,,2018-11-27 11:21:25,2018-11-27 11:21:25,0.050s,PASSED
delay,Firefox 63.0,,2018-11-27 11:21:25,2018-11-27 11:21:27,2.059s,PASSED
click,Firefox 63.0,,2018-11-27 11:21:27,2018-11-27 11:21:27,0.374s,PASSED
click,Firefox 63.0,,2018-11-27 11:21:27,2018-11-27 11:21:28,0.300s,PASSED
click,Firefox 63.0,,2018-11-27 11:21:28,2018-11-27 11:21:28,0.313s,PASSED
waitForElementClickable,Firefox 63.0,,2018-11-27 11:21:28,2018-11-27 11:21:28,0.031s,PASSED
delay,Firefox 63.0,,2018-11-27 11:21:28,2018-11-27 11:21:30,2.052s,PASSED
click,Firefox 63.0,,2018-11-27 11:21:30,2018-11-27 11:21:30,0.399s,PASSED
click,Firefox 63.0,,2018-11-27 11:21:30,2018-11-27 11:21:31,0.295s,PASSED
click,Firefox 63.0,,2018-11-27 11:21:31,2018-11-27 11:21:31,0.313s,PASSED
setText,Firefox 63.0,,2018-11-27 11:21:31,2018-11-27 11:21:31,0.448s,PASSED
setText,Firefox 63.0,,2018-11-27 11:21:31,2018-11-27 11:21:32,0.180s,PASSED
setText,Firefox 63.0,,2018-11-27 11:21:32,2018-11-27 11:21:32,0.162s,PASSED
setText,Firefox 63.0,,2018-11-27 11:21:32,2018-11-27 11:21:32,0.121s,PASSED
scrollToElement,Firefox 63.0,,2018-11-27 11:21:32,2018-11-27 11:21:32,0.029s,PASSED
uploadFiles.uploadFile,Firefox 63.0,,2018-11-27 11:21:32,2018-11-27 11:21:32,0.000s,NOT_RUN
Statement - java.lang.Thread.sleep(2000),Firefox 63.0,,2018-11-27 11:21:32,2018-11-27 11:21:32,0.001s,NOT_RUN
waitForElementClickable,Firefox 63.0,,2018-11-27 11:21:32,2018-11-27 11:21:32,0.001s,NOT_RUN
click,Firefox 63.0,,2018-11-27 11:21:32,2018-11-27 11:21:32,0.000s,NOT_RUN
delay,Firefox 63.0,,2018-11-27 11:21:32,2018-11-27 11:21:32,0.001s,NOT_RUN
click,Firefox 63.0,,2018-11-27 11:21:32,2018-11-27 11:21:32,0.250s,PASSED
setText,Firefox 63.0,,2018-11-27 11:21:32,2018-11-27 11:21:32,0.209s,PASSED
click,Firefox 63.0,,2018-11-27 11:21:32,2018-11-27 11:21:33,0.327s,PASSED
click,Firefox 63.0,,2018-11-27 11:21:33,2018-11-27 11:21:33,0.270s,PASSED
scrollToElement,Firefox 63.0,,2018-11-27 11:21:33,2018-11-27 11:21:33,0.027s,PASSED
delay,Firefox 63.0,,2018-11-27 11:21:33,2018-11-27 11:21:36,3.075s,PASSED
click,Firefox 63.0,,2018-11-27 11:21:36,2018-11-27 11:21:36,0.302s,PASSED
waitForElementClickable,Firefox 63.0,,2018-11-27 11:21:36,2018-11-27 11:21:38,1.680s,PASSED
click,Firefox 63.0,,2018-11-27 11:21:38,2018-11-27 11:21:38,0.248s,PASSED
delay,Firefox 63.0,,2018-11-27 11:21:38,2018-11-27 11:21:41,3.071s,PASSED
click,Firefox 63.0,,2018-11-27 11:21:41,2018-11-27 11:21:42,0.341s,PASSED
waitForElementPresent,Firefox 63.0,,2018-11-27 11:21:42,2018-11-27 11:21:45,2.978s,PASSED
delay,Firefox 63.0,,2018-11-27 11:21:45,2018-11-27 11:21:50,5.068s,PASSED
verifyElementText,Firefox 63.0,,2018-11-27 11:21:50,2018-11-27 11:21:50,0.068s,PASSED
verifyElementPresent,Firefox 63.0,,2018-11-27 11:21:50,2018-11-27 11:21:50,0.072s,PASSED
delay,Firefox 63.0,,2018-11-27 11:21:50,2018-11-27 11:21:53,3.072s,PASSED
closeBrowser,Firefox 63.0,,2018-11-27 11:21:53,2018-11-27 11:21:54,0.543s,PASSED
,,,,,,
Test Cases/GETCRAFT/Brief_phase2_selected_login ,Firefox 63.0,,2018-11-27 11:21:54,2018-11-27 11:22:54,1m - 0.938s,PASSED
Statement - RN = <not implemented yet for class: org.codehaus.groovy.ast.expr.EmptyExpression>,Firefox 63.0,,2018-11-27 11:21:54,2018-11-27 11:21:54,0.000s,PASSED
Statement - RN = java.lang.Math.random() * 599,Firefox 63.0,,2018-11-27 11:21:54,2018-11-27 11:21:54,0.001s,PASSED
Statement - name_project = project_name + RN,Firefox 63.0,,2018-11-27 11:21:54,2018-11-27 11:21:54,0.000s,PASSED
openBrowser,Firefox 63.0,,2018-11-27 11:21:54,2018-11-27 11:21:56,2.163s,PASSED
maximizeWindow,Firefox 63.0,,2018-11-27 11:21:56,2018-11-27 11:21:59,3.586s,PASSED
navigateToUrl,Firefox 63.0,,2018-11-27 11:21:59,2018-11-27 11:22:05,5.863s,PASSED
"Statement - If (com.kms.katalon.core.webui.keyword.WebUiBuiltInKeywords.verifyElementVisible(com.kms.katalon.core.testobject.ObjectRepository.findTestObject(Object Repository/GETCRAFT/create_brief/Language_indo), OPTIONAL))",Firefox 63.0,,2018-11-27 11:22:05,2018-11-27 11:22:12,7.177s,PASSED
click,Firefox 63.0,,2018-11-27 11:22:12,2018-11-27 11:22:13,0.580s,PASSED
delay,Firefox 63.0,,2018-11-27 11:22:13,2018-11-27 11:22:18,5.060s,PASSED
waitForElementClickable,Firefox 63.0,,2018-11-27 11:22:18,2018-11-27 11:22:18,0.035s,PASSED
scrollToElement,Firefox 63.0,,2018-11-27 11:22:18,2018-11-27 11:22:18,0.030s,PASSED
click,Firefox 63.0,,2018-11-27 11:22:18,2018-11-27 11:22:19,0.400s,PASSED
click,Firefox 63.0,,2018-11-27 11:22:19,2018-11-27 11:22:19,0.343s,PASSED
click,Firefox 63.0,,2018-11-27 11:22:19,2018-11-27 11:22:19,0.609s,PASSED
delay,Firefox 63.0,,2018-11-27 11:22:19,2018-11-27 11:22:22,2.074s,PASSED
setText,Firefox 63.0,,2018-11-27 11:22:22,2018-11-27 11:22:22,0.515s,PASSED
setText,Firefox 63.0,,2018-11-27 11:22:22,2018-11-27 11:22:22,0.190s,PASSED
setText,Firefox 63.0,,2018-11-27 11:22:22,2018-11-27 11:22:22,0.134s,PASSED
setText,Firefox 63.0,,2018-11-27 11:22:22,2018-11-27 11:22:22,0.107s,PASSED
scrollToElement,Firefox 63.0,,2018-11-27 11:22:22,2018-11-27 11:22:23,0.022s,PASSED
click,Firefox 63.0,,2018-11-27 11:22:23,2018-11-27 11:22:23,0.304s,PASSED
setText,Firefox 63.0,,2018-11-27 11:22:23,2018-11-27 11:22:23,0.169s,PASSED
click,Firefox 63.0,,2018-11-27 11:22:23,2018-11-27 11:22:23,0.296s,PASSED
click,Firefox 63.0,,2018-11-27 11:22:23,2018-11-27 11:22:24,0.270s,PASSED
scrollToElement,Firefox 63.0,,2018-11-27 11:22:24,2018-11-27 11:22:24,0.028s,PASSED
delay,Firefox 63.0,,2018-11-27 11:22:24,2018-11-27 11:22:27,3.023s,PASSED
click,Firefox 63.0,,2018-11-27 11:22:27,2018-11-27 11:22:27,0.318s,PASSED
scrollToElement,Firefox 63.0,,2018-11-27 11:22:27,2018-11-27 11:22:27,0.024s,PASSED
delay,Firefox 63.0,,2018-11-27 11:22:27,2018-11-27 11:22:30,3.065s,PASSED
click,Firefox 63.0,,2018-11-27 11:22:30,2018-11-27 11:22:30,0.296s,PASSED
setText,Firefox 63.0,,2018-11-27 11:22:30,2018-11-27 11:22:31,0.480s,PASSED
delay,Firefox 63.0,,2018-11-27 11:22:31,2018-11-27 11:22:34,3.058s,PASSED
setText,Firefox 63.0,,2018-11-27 11:22:34,2018-11-27 11:22:34,0.071s,PASSED
delay,Firefox 63.0,,2018-11-27 11:22:34,2018-11-27 11:22:39,5.073s,PASSED
click,Firefox 63.0,,2018-11-27 11:22:39,2018-11-27 11:22:39,0.308s,PASSED
waitForElementPresent,Firefox 63.0,,2018-11-27 11:22:39,2018-11-27 11:22:48,8.351s,PASSED
delay,Firefox 63.0,,2018-11-27 11:22:48,2018-11-27 11:22:51,3.075s,PASSED
verifyElementText,Firefox 63.0,,2018-11-27 11:22:51,2018-11-27 11:22:51,0.047s,PASSED
verifyElementPresent,Firefox 63.0,,2018-11-27 11:22:51,2018-11-27 11:22:51,0.045s,PASSED
delay,Firefox 63.0,,2018-11-27 11:22:51,2018-11-27 11:22:54,3.065s,PASSED
closeBrowser,Firefox 63.0,,2018-11-27 11:22:54,2018-11-27 11:22:54,0.571s,PASSED
,,,,,,
Test Cases/GETCRAFT/Brief_phase2_unselected_login,Firefox 63.0,,2018-11-27 11:22:54,2018-11-27 11:33:35,10m - 40.118s,FAILED
Statement - RN = <not implemented yet for class: org.codehaus.groovy.ast.expr.EmptyExpression>,Firefox 63.0,,2018-11-27 11:22:55,2018-11-27 11:22:55,0.000s,PASSED
Statement - RN = java.lang.Math.random() * 599,Firefox 63.0,,2018-11-27 11:22:55,2018-11-27 11:22:55,0.000s,PASSED
Statement - name_project = project_name + RN,Firefox 63.0,,2018-11-27 11:22:55,2018-11-27 11:22:55,0.000s,PASSED
openBrowser,Firefox 63.0,,2018-11-27 11:22:55,2018-11-27 11:22:57,2.066s,PASSED
maximizeWindow,Firefox 63.0,,2018-11-27 11:22:57,2018-11-27 11:23:00,3.585s,PASSED
navigateToUrl,Firefox 63.0,,2018-11-27 11:23:00,2018-11-27 11:23:07,6.395s,PASSED
"Statement - If (com.kms.katalon.core.webui.keyword.WebUiBuiltInKeywords.verifyElementVisible(com.kms.katalon.core.testobject.ObjectRepository.findTestObject(Object Repository/GETCRAFT/create_brief/Language_indo), OPTIONAL))",Firefox 63.0,,2018-11-27 11:23:07,2018-11-27 11:23:13,6.580s,PASSED
click,Firefox 63.0,,2018-11-27 11:23:13,2018-11-27 11:23:14,0.805s,PASSED
delay,Firefox 63.0,,2018-11-27 11:23:14,2018-11-27 11:23:16,2.075s,PASSED
click,Firefox 63.0,,2018-11-27 11:23:16,2018-11-27 11:23:16,0.316s,PASSED
click,Firefox 63.0,,2018-11-27 11:23:16,2018-11-27 11:23:17,0.330s,PASSED
waitForElementClickable,Firefox 63.0,,2018-11-27 11:23:17,2018-11-27 11:23:17,0.001s,NOT_RUN
click,Firefox 63.0,,2018-11-27 11:23:17,2018-11-27 11:23:17,0.300s,PASSED
click,Firefox 63.0,,2018-11-27 11:23:17,2018-11-27 11:23:17,0.302s,PASSED
scrollToElement,Firefox 63.0,,2018-11-27 11:23:17,2018-11-27 11:23:17,0.017s,PASSED
waitForElementClickable,Firefox 63.0,,2018-11-27 11:23:17,2018-11-27 11:23:17,0.043s,PASSED
delay,Firefox 63.0,,2018-11-27 11:23:17,2018-11-27 11:23:19,2.074s,PASSED
click,Firefox 63.0,,2018-11-27 11:23:19,2018-11-27 11:23:20,0.392s,PASSED
click,Firefox 63.0,,2018-11-27 11:23:20,2018-11-27 11:23:20,0.277s,PASSED
click,Firefox 63.0,,2018-11-27 11:23:20,2018-11-27 11:23:20,0.292s,PASSED
waitForElementClickable,Firefox 63.0,,2018-11-27 11:23:20,2018-11-27 11:23:20,0.025s,PASSED
delay,Firefox 63.0,,2018-11-27 11:23:20,2018-11-27 11:23:22,2.073s,PASSED
click,Firefox 63.0,,2018-11-27 11:23:22,2018-11-27 11:23:23,0.388s,PASSED
click,Firefox 63.0,,2018-11-27 11:23:23,2018-11-27 11:23:23,0.307s,PASSED
click,Firefox 63.0,,2018-11-27 11:23:23,2018-11-27 11:23:24,0.346s,PASSED
setText,Firefox 63.0,,2018-11-27 11:23:24,2018-11-27 11:23:24,0.457s,PASSED
setText,Firefox 63.0,,2018-11-27 11:23:24,2018-11-27 11:23:24,0.200s,PASSED
setText,Firefox 63.0,,2018-11-27 11:23:24,2018-11-27 11:23:24,0.141s,PASSED
setText,Firefox 63.0,,2018-11-27 11:23:24,2018-11-27 11:23:24,0.118s,PASSED
scrollToElement,Firefox 63.0,,2018-11-27 11:23:24,2018-11-27 11:23:24,0.034s,PASSED
click,Firefox 63.0,,2018-11-27 11:23:24,2018-11-27 11:23:25,0.281s,PASSED
setText,Firefox 63.0,,2018-11-27 11:23:25,2018-11-27 11:23:25,0.187s,PASSED
click,Firefox 63.0,,2018-11-27 11:23:25,2018-11-27 11:23:25,0.277s,PASSED
click,Firefox 63.0,,2018-11-27 11:23:25,2018-11-27 11:23:26,0.277s,PASSED
scrollToElement,Firefox 63.0,,2018-11-27 11:23:26,2018-11-27 11:23:26,0.018s,PASSED
delay,Firefox 63.0,,2018-11-27 11:23:26,2018-11-27 11:23:29,3.074s,PASSED
click,Firefox 63.0,,2018-11-27 11:23:29,2018-11-27 11:23:29,0.305s,PASSED
scrollToElement,Firefox 63.0,,2018-11-27 11:23:29,2018-11-27 11:23:30,1.368s,PASSED
delay,Firefox 63.0,,2018-11-27 11:23:30,2018-11-27 11:23:33,3.075s,PASSED
click,Firefox 63.0,,2018-11-27 11:23:33,2018-11-27 11:23:34,0.370s,PASSED
setText,Firefox 63.0,,2018-11-27 11:23:34,2018-11-27 11:23:34,0.579s,PASSED
setText,Firefox 63.0,,2018-11-27 11:23:34,2018-11-27 11:23:34,0.067s,PASSED
delay,Firefox 63.0,,2018-11-27 11:23:34,2018-11-27 11:23:39,5.064s,PASSED
click,Firefox 63.0,,2018-11-27 11:23:39,2018-11-27 11:23:40,0.278s,PASSED
waitForElementPresent,Firefox 63.0,,2018-11-27 11:23:40,2018-11-27 11:32:53,9m - 13.315s,PASSED
delay,Firefox 63.0,,2018-11-27 11:32:53,2018-11-27 11:32:56,3.043s,PASSED
verifyElementText,Firefox 63.0,,2018-11-27 11:32:56,2018-11-27 11:33:35,38.499s,FAILED
,,,,,,
Test Cases/GETCRAFT/Brief_phase2_unselected_loginMultiple,Firefox 63.0,,2018-11-27 11:33:35,2018-11-27 11:36:45,3m - 10.595s,FAILED
Statement - RN = <not implemented yet for class: org.codehaus.groovy.ast.expr.EmptyExpression>,Firefox 63.0,,2018-11-27 11:33:35,2018-11-27 11:33:35,0.000s,PASSED
Statement - RN = java.lang.Math.random() * 599,Firefox 63.0,,2018-11-27 11:33:35,2018-11-27 11:33:35,0.000s,PASSED
Statement - name_project = project_name + RN,Firefox 63.0,,2018-11-27 11:33:35,2018-11-27 11:33:35,0.001s,PASSED
openBrowser,Firefox 63.0,,2018-11-27 11:33:35,2018-11-27 11:33:37,2.749s,PASSED
maximizeWindow,Firefox 63.0,,2018-11-27 11:33:37,2018-11-27 11:33:41,3.609s,PASSED
navigateToUrl,Firefox 63.0,,2018-11-27 11:33:41,2018-11-27 11:33:46,5.379s,PASSED
"Statement - If (com.kms.katalon.core.webui.keyword.WebUiBuiltInKeywords.verifyElementVisible(com.kms.katalon.core.testobject.ObjectRepository.findTestObject(Object Repository/GETCRAFT/create_brief/Language_indo), OPTIONAL))",Firefox 63.0,,2018-11-27 11:33:46,2018-11-27 11:33:55,8.903s,PASSED
click,Firefox 63.0,,2018-11-27 11:33:55,2018-11-27 11:33:56,0.706s,PASSED
delay,Firefox 63.0,,2018-11-27 11:33:56,2018-11-27 11:33:58,2.073s,PASSED
click,Firefox 63.0,,2018-11-27 11:33:58,2018-11-27 11:33:58,0.311s,PASSED
click,Firefox 63.0,,2018-11-27 11:33:58,2018-11-27 11:33:59,0.334s,PASSED
waitForElementClickable,Firefox 63.0,,2018-11-27 11:33:59,2018-11-27 11:33:59,0.000s,NOT_RUN
click,Firefox 63.0,,2018-11-27 11:33:59,2018-11-27 11:33:59,0.309s,PASSED
click,Firefox 63.0,,2018-11-27 11:33:59,2018-11-27 11:33:59,0.292s,PASSED
scrollToElement,Firefox 63.0,,2018-11-27 11:33:59,2018-11-27 11:33:59,0.020s,PASSED
waitForElementClickable,Firefox 63.0,,2018-11-27 11:33:59,2018-11-27 11:33:59,0.040s,PASSED
delay,Firefox 63.0,,2018-11-27 11:33:59,2018-11-27 11:34:01,2.070s,PASSED
click,Firefox 63.0,,2018-11-27 11:34:01,2018-11-27 11:34:02,0.305s,PASSED
click,Firefox 63.0,,2018-11-27 11:34:02,2018-11-27 11:34:02,0.284s,PASSED
click,Firefox 63.0,,2018-11-27 11:34:02,2018-11-27 11:34:02,0.316s,PASSED
waitForElementClickable,Firefox 63.0,,2018-11-27 11:34:02,2018-11-27 11:34:02,0.029s,PASSED
delay,Firefox 63.0,,2018-11-27 11:34:02,2018-11-27 11:34:04,2.068s,PASSED
click,Firefox 63.0,,2018-11-27 11:34:04,2018-11-27 11:34:05,0.348s,PASSED
click,Firefox 63.0,,2018-11-27 11:34:05,2018-11-27 11:34:05,0.289s,PASSED
click,Firefox 63.0,,2018-11-27 11:34:05,2018-11-27 11:34:05,0.291s,PASSED
setText,Firefox 63.0,,2018-11-27 11:34:05,2018-11-27 11:34:06,0.420s,PASSED
setText,Firefox 63.0,,2018-11-27 11:34:06,2018-11-27 11:34:06,0.180s,PASSED
setText,Firefox 63.0,,2018-11-27 11:34:06,2018-11-27 11:34:06,0.127s,PASSED
setText,Firefox 63.0,,2018-11-27 11:34:06,2018-11-27 11:34:06,0.118s,PASSED
scrollToElement,Firefox 63.0,,2018-11-27 11:34:06,2018-11-27 11:34:06,0.031s,PASSED
click,Firefox 63.0,,2018-11-27 11:34:06,2018-11-27 11:34:07,0.300s,PASSED
setText,Firefox 63.0,,2018-11-27 11:34:07,2018-11-27 11:34:07,0.227s,PASSED
click,Firefox 63.0,,2018-11-27 11:34:07,2018-11-27 11:34:07,0.270s,PASSED
click,Firefox 63.0,,2018-11-27 11:34:07,2018-11-27 11:34:07,0.269s,PASSED
scrollToElement,Firefox 63.0,,2018-11-27 11:34:07,2018-11-27 11:34:07,0.021s,PASSED
delay,Firefox 63.0,,2018-11-27 11:34:07,2018-11-27 11:34:10,3.069s,PASSED
click,Firefox 63.0,,2018-11-27 11:34:10,2018-11-27 11:34:11,0.302s,PASSED
scrollToElement,Firefox 63.0,,2018-11-27 11:34:11,2018-11-27 11:34:13,1.761s,PASSED
delay,Firefox 63.0,,2018-11-27 11:34:13,2018-11-27 11:34:16,3.074s,PASSED
click,Firefox 63.0,,2018-11-27 11:34:16,2018-11-27 11:34:16,0.296s,PASSED
setText,Firefox 63.0,,2018-11-27 11:34:16,2018-11-27 11:34:16,0.337s,PASSED
delay,Firefox 63.0,,2018-11-27 11:34:16,2018-11-27 11:34:19,3.053s,PASSED
setText,Firefox 63.0,,2018-11-27 11:34:19,2018-11-27 11:34:19,0.079s,PASSED
delay,Firefox 63.0,,2018-11-27 11:34:19,2018-11-27 11:34:24,5.048s,PASSED
click,Firefox 63.0,,2018-11-27 11:34:24,2018-11-27 11:34:25,0.267s,PASSED
waitForElementPresent,Firefox 63.0,,2018-11-27 11:34:25,2018-11-27 11:36:09,1m - 44.670s,PASSED
click,Firefox 63.0,,2018-11-27 11:36:09,2018-11-27 11:36:45,35.827s,FAILED
,,,,,,
Test Cases/GETCRAFT/SendTo_phase2_selected_login,Firefox 63.0,,2018-11-27 11:36:45,2018-11-27 11:37:55,1m - 9.704s,PASSED
Statement - RN = <not implemented yet for class: org.codehaus.groovy.ast.expr.EmptyExpression>,Firefox 63.0,,2018-11-27 11:36:45,2018-11-27 11:36:45,0.000s,PASSED
Statement - RN = java.lang.Math.random() * 599,Firefox 63.0,,2018-11-27 11:36:45,2018-11-27 11:36:45,0.000s,PASSED
Statement - name_project = project_name + RN,Firefox 63.0,,2018-11-27 11:36:45,2018-11-27 11:36:45,0.000s,PASSED
openBrowser,Firefox 63.0,,2018-11-27 11:36:45,2018-11-27 11:36:48,2.612s,PASSED
maximizeWindow,Firefox 63.0,,2018-11-27 11:36:48,2018-11-27 11:36:51,3.521s,PASSED
navigateToUrl,Firefox 63.0,,2018-11-27 11:36:51,2018-11-27 11:36:56,4.407s,PASSED
"Statement - If (com.kms.katalon.core.webui.keyword.WebUiBuiltInKeywords.verifyElementVisible(com.kms.katalon.core.testobject.ObjectRepository.findTestObject(Object Repository/GETCRAFT/create_brief/Language_indo), OPTIONAL))",Firefox 63.0,,2018-11-27 11:36:56,2018-11-27 11:37:07,11.222s,PASSED
click,Firefox 63.0,,2018-11-27 11:37:07,2018-11-27 11:37:08,0.944s,PASSED
delay,Firefox 63.0,,2018-11-27 11:37:08,2018-11-27 11:37:12,4.065s,PASSED
waitForElementClickable,Firefox 63.0,,2018-11-27 11:37:12,2018-11-27 11:37:12,0.070s,PASSED
scrollToElement,Firefox 63.0,,2018-11-27 11:37:12,2018-11-27 11:37:12,0.028s,PASSED
click,Firefox 63.0,,2018-11-27 11:37:12,2018-11-27 11:37:13,0.451s,PASSED
click,Firefox 63.0,,2018-11-27 11:37:13,2018-11-27 11:37:13,0.326s,PASSED
click,Firefox 63.0,,2018-11-27 11:37:13,2018-11-27 11:37:13,0.588s,PASSED
delay,Firefox 63.0,,2018-11-27 11:37:13,2018-11-27 11:37:16,2.061s,PASSED
setText,Firefox 63.0,,2018-11-27 11:37:16,2018-11-27 11:37:16,0.544s,PASSED
setText,Firefox 63.0,,2018-11-27 11:37:16,2018-11-27 11:37:16,0.188s,PASSED
setText,Firefox 63.0,,2018-11-27 11:37:16,2018-11-27 11:37:16,0.169s,PASSED
setText,Firefox 63.0,,2018-11-27 11:37:16,2018-11-27 11:37:17,0.125s,PASSED
scrollToElement,Firefox 63.0,,2018-11-27 11:37:17,2018-11-27 11:37:17,0.019s,PASSED
click,Firefox 63.0,,2018-11-27 11:37:17,2018-11-27 11:37:17,0.324s,PASSED
setText,Firefox 63.0,,2018-11-27 11:37:17,2018-11-27 11:37:17,0.203s,PASSED
click,Firefox 63.0,,2018-11-27 11:37:17,2018-11-27 11:37:17,0.271s,PASSED
click,Firefox 63.0,,2018-11-27 11:37:17,2018-11-27 11:37:18,0.276s,PASSED
scrollToElement,Firefox 63.0,,2018-11-27 11:37:18,2018-11-27 11:37:18,0.025s,PASSED
delay,Firefox 63.0,,2018-11-27 11:37:18,2018-11-27 11:37:21,3.066s,PASSED
click,Firefox 63.0,,2018-11-27 11:37:21,2018-11-27 11:37:21,0.320s,PASSED
delay,Firefox 63.0,,2018-11-27 11:37:21,2018-11-27 11:37:24,3.070s,PASSED
scrollToElement,Firefox 63.0,,2018-11-27 11:37:24,2018-11-27 11:37:24,0.039s,PASSED
delay,Firefox 63.0,,2018-11-27 11:37:24,2018-11-27 11:37:27,3.122s,PASSED
click,Firefox 63.0,,2018-11-27 11:37:27,2018-11-27 11:37:28,0.340s,PASSED
setText,Firefox 63.0,,2018-11-27 11:37:28,2018-11-27 11:37:28,0.472s,PASSED
setText,Firefox 63.0,,2018-11-27 11:37:28,2018-11-27 11:37:28,0.073s,PASSED
delay,Firefox 63.0,,2018-11-27 11:37:28,2018-11-27 11:37:33,5.148s,PASSED
click,Firefox 63.0,,2018-11-27 11:37:33,2018-11-27 11:37:34,0.341s,PASSED
waitForElementPresent,Firefox 63.0,,2018-11-27 11:37:34,2018-11-27 11:37:41,6.959s,PASSED
click,Firefox 63.0,,2018-11-27 11:37:41,2018-11-27 11:37:41,0.267s,PASSED
waitForElementVisible,Firefox 63.0,,2018-11-27 11:37:41,2018-11-27 11:37:41,0.048s,PASSED
delay,Firefox 63.0,,2018-11-27 11:37:41,2018-11-27 11:37:46,5.107s,PASSED
click,Firefox 63.0,,2018-11-27 11:37:46,2018-11-27 11:37:47,0.768s,PASSED
waitForElementPresent,Firefox 63.0,,2018-11-27 11:37:47,2018-11-27 11:37:49,2.028s,PASSED
delay,Firefox 63.0,,2018-11-27 11:37:49,2018-11-27 11:37:54,5.153s,PASSED
verifyElementText,Firefox 63.0,,2018-11-27 11:37:54,2018-11-27 11:37:54,0.125s,PASSED
verifyElementPresent,Firefox 63.0,,2018-11-27 11:37:54,2018-11-27 11:37:54,0.069s,PASSED
closeBrowser,Firefox 63.0,,2018-11-27 11:37:54,2018-11-27 11:37:55,0.662s,PASSED
,,,,,,
Test Cases/GETCRAFT/SendTo_phase2_unselected_login,Firefox 63.0,,2018-11-27 11:37:55,2018-11-27 11:39:03,1m - 8.475s,PASSED
Statement - RN = <not implemented yet for class: org.codehaus.groovy.ast.expr.EmptyExpression>,Firefox 63.0,,2018-11-27 11:37:55,2018-11-27 11:37:55,0.000s,PASSED
Statement - RN = java.lang.Math.random() * 599,Firefox 63.0,,2018-11-27 11:37:55,2018-11-27 11:37:55,0.001s,PASSED
Statement - name_project = project_name + RN,Firefox 63.0,,2018-11-27 11:37:55,2018-11-27 11:37:55,0.000s,PASSED
openBrowser,Firefox 63.0,,2018-11-27 11:37:55,2018-11-27 11:37:57,2.116s,PASSED
maximizeWindow,Firefox 63.0,,2018-11-27 11:37:57,2018-11-27 11:38:01,3.683s,PASSED
navigateToUrl,Firefox 63.0,,2018-11-27 11:38:01,2018-11-27 11:38:09,8.353s,PASSED
"Statement - If (com.kms.katalon.core.webui.keyword.WebUiBuiltInKeywords.verifyElementVisible(com.kms.katalon.core.testobject.ObjectRepository.findTestObject(Object Repository/GETCRAFT/create_brief/Language_indo), OPTIONAL))",Firefox 63.0,,2018-11-27 11:38:09,2018-11-27 11:38:16,6.576s,PASSED
click,Firefox 63.0,,2018-11-27 11:38:16,2018-11-27 11:38:17,0.812s,PASSED
delay,Firefox 63.0,,2018-11-27 11:38:17,2018-11-27 11:38:19,2.073s,PASSED
click,Firefox 63.0,,2018-11-27 11:38:19,2018-11-27 11:38:19,0.336s,PASSED
click,Firefox 63.0,,2018-11-27 11:38:19,2018-11-27 11:38:19,0.306s,PASSED
waitForElementClickable,Firefox 63.0,,2018-11-27 11:38:19,2018-11-27 11:38:19,0.000s,NOT_RUN
click,Firefox 63.0,,2018-11-27 11:38:19,2018-11-27 11:38:20,0.275s,PASSED
click,Firefox 63.0,,2018-11-27 11:38:20,2018-11-27 11:38:20,0.266s,PASSED
scrollToElement,Firefox 63.0,,2018-11-27 11:38:20,2018-11-27 11:38:20,0.022s,PASSED
waitForElementClickable,Firefox 63.0,,2018-11-27 11:38:20,2018-11-27 11:38:20,0.039s,PASSED
delay,Firefox 63.0,,2018-11-27 11:38:20,2018-11-27 11:38:22,2.067s,PASSED
click,Firefox 63.0,,2018-11-27 11:38:22,2018-11-27 11:38:22,0.321s,PASSED
click,Firefox 63.0,,2018-11-27 11:38:22,2018-11-27 11:38:22,0.272s,PASSED
click,Firefox 63.0,,2018-11-27 11:38:22,2018-11-27 11:38:23,0.305s,PASSED
waitForElementClickable,Firefox 63.0,,2018-11-27 11:38:23,2018-11-27 11:38:23,0.019s,PASSED
delay,Firefox 63.0,,2018-11-27 11:38:23,2018-11-27 11:38:25,2.067s,PASSED
click,Firefox 63.0,,2018-11-27 11:38:25,2018-11-27 11:38:25,0.461s,PASSED
click,Firefox 63.0,,2018-11-27 11:38:25,2018-11-27 11:38:26,0.314s,PASSED
click,Firefox 63.0,,2018-11-27 11:38:26,2018-11-27 11:38:26,0.286s,PASSED
setText,Firefox 63.0,,2018-11-27 11:38:26,2018-11-27 11:38:26,0.473s,PASSED
setText,Firefox 63.0,,2018-11-27 11:38:26,2018-11-27 11:38:27,0.185s,PASSED
setText,Firefox 63.0,,2018-11-27 11:38:27,2018-11-27 11:38:27,0.162s,PASSED
setText,Firefox 63.0,,2018-11-27 11:38:27,2018-11-27 11:38:27,0.130s,PASSED
scrollToElement,Firefox 63.0,,2018-11-27 11:38:27,2018-11-27 11:38:27,0.033s,PASSED
click,Firefox 63.0,,2018-11-27 11:38:27,2018-11-27 11:38:27,0.263s,PASSED
setText,Firefox 63.0,,2018-11-27 11:38:27,2018-11-27 11:38:27,0.174s,PASSED
click,Firefox 63.0,,2018-11-27 11:38:27,2018-11-27 11:38:28,0.265s,PASSED
click,Firefox 63.0,,2018-11-27 11:38:28,2018-11-27 11:38:28,0.275s,PASSED
scrollToElement,Firefox 63.0,,2018-11-27 11:38:28,2018-11-27 11:38:28,0.024s,PASSED
delay,Firefox 63.0,,2018-11-27 11:38:28,2018-11-27 11:38:31,3.074s,PASSED
click,Firefox 63.0,,2018-11-27 11:38:31,2018-11-27 11:38:31,0.276s,PASSED
delay,Firefox 63.0,,2018-11-27 11:38:31,2018-11-27 11:38:34,3.068s,PASSED
scrollToElement,Firefox 63.0,,2018-11-27 11:38:34,2018-11-27 11:38:34,0.029s,PASSED
delay,Firefox 63.0,,2018-11-27 11:38:34,2018-11-27 11:38:37,3.063s,PASSED
click,Firefox 63.0,,2018-11-27 11:38:37,2018-11-27 11:38:38,0.283s,PASSED
setText,Firefox 63.0,,2018-11-27 11:38:38,2018-11-27 11:38:38,0.379s,PASSED
setText,Firefox 63.0,,2018-11-27 11:38:38,2018-11-27 11:38:38,0.061s,PASSED
delay,Firefox 63.0,,2018-11-27 11:38:38,2018-11-27 11:38:43,5.076s,PASSED
click,Firefox 63.0,,2018-11-27 11:38:43,2018-11-27 11:38:44,0.297s,PASSED
waitForElementPresent,Firefox 63.0,,2018-11-27 11:38:44,2018-11-27 11:38:51,6.965s,PASSED
click,Firefox 63.0,,2018-11-27 11:38:51,2018-11-27 11:38:51,0.245s,PASSED
waitForElementVisible,Firefox 63.0,,2018-11-27 11:38:51,2018-11-27 11:38:51,0.044s,PASSED
delay,Firefox 63.0,,2018-11-27 11:38:51,2018-11-27 11:38:56,5.029s,PASSED
click,Firefox 63.0,,2018-11-27 11:38:56,2018-11-27 11:38:56,0.412s,PASSED
waitForElementPresent,Firefox 63.0,,2018-11-27 11:38:56,2018-11-27 11:38:57,1.238s,PASSED
delay,Firefox 63.0,,2018-11-27 11:38:57,2018-11-27 11:39:03,5.054s,PASSED
verifyElementText,Firefox 63.0,,2018-11-27 11:39:03,2018-11-27 11:39:03,0.061s,PASSED
verifyElementPresent,Firefox 63.0,,2018-11-27 11:39:03,2018-11-27 11:39:03,0.069s,PASSED
closeBrowser,Firefox 63.0,,2018-11-27 11:39:03,2018-11-27 11:39:03,0.688s,PASSED
,,,,,,
Test Cases/GETCRAFT/SendTo_phase2_selected_loginMultiple,Firefox 63.0,,2018-11-27 11:39:03,2018-11-27 11:40:13,1m - 9.881s,PASSED
Statement - RN = <not implemented yet for class: org.codehaus.groovy.ast.expr.EmptyExpression>,Firefox 63.0,,2018-11-27 11:39:03,2018-11-27 11:39:03,0.000s,PASSED
Statement - RN = java.lang.Math.random() * 599,Firefox 63.0,,2018-11-27 11:39:03,2018-11-27 11:39:03,0.000s,PASSED
Statement - name_project = project_name + RN,Firefox 63.0,,2018-11-27 11:39:03,2018-11-27 11:39:03,0.001s,PASSED
openBrowser,Firefox 63.0,,2018-11-27 11:39:03,2018-11-27 11:39:05,1.958s,PASSED
maximizeWindow,Firefox 63.0,,2018-11-27 11:39:05,2018-11-27 11:39:09,3.609s,PASSED
navigateToUrl,Firefox 63.0,,2018-11-27 11:39:09,2018-11-27 11:39:15,5.813s,PASSED
"Statement - If (com.kms.katalon.core.webui.keyword.WebUiBuiltInKeywords.verifyElementVisible(com.kms.katalon.core.testobject.ObjectRepository.findTestObject(Object Repository/GETCRAFT/create_brief/Language_indo), OPTIONAL))",Firefox 63.0,,2018-11-27 11:39:15,2018-11-27 11:39:22,6.788s,PASSED
click,Firefox 63.0,,2018-11-27 11:39:22,2018-11-27 11:39:22,0.582s,PASSED
delay,Firefox 63.0,,2018-11-27 11:39:22,2018-11-27 11:39:26,4.065s,PASSED
waitForElementClickable,Firefox 63.0,,2018-11-27 11:39:26,2018-11-27 11:39:26,0.089s,PASSED
scrollToElement,Firefox 63.0,,2018-11-27 11:39:26,2018-11-27 11:39:26,0.026s,PASSED
click,Firefox 63.0,,2018-11-27 11:39:26,2018-11-27 11:39:27,0.455s,PASSED
click,Firefox 63.0,,2018-11-27 11:39:27,2018-11-27 11:39:27,0.303s,PASSED
click,Firefox 63.0,,2018-11-27 11:39:27,2018-11-27 11:39:28,0.594s,PASSED
delay,Firefox 63.0,,2018-11-27 11:39:28,2018-11-27 11:39:30,2.071s,PASSED
setText,Firefox 63.0,,2018-11-27 11:39:30,2018-11-27 11:39:30,0.520s,PASSED
setText,Firefox 63.0,,2018-11-27 11:39:30,2018-11-27 11:39:31,0.199s,PASSED
setText,Firefox 63.0,,2018-11-27 11:39:31,2018-11-27 11:39:31,0.181s,PASSED
setText,Firefox 63.0,,2018-11-27 11:39:31,2018-11-27 11:39:31,0.135s,PASSED
scrollToElement,Firefox 63.0,,2018-11-27 11:39:31,2018-11-27 11:39:31,0.027s,PASSED
click,Firefox 63.0,,2018-11-27 11:39:31,2018-11-27 11:39:31,0.294s,PASSED
setText,Firefox 63.0,,2018-11-27 11:39:31,2018-11-27 11:39:31,0.209s,PASSED
click,Firefox 63.0,,2018-11-27 11:39:31,2018-11-27 11:39:32,0.326s,PASSED
click,Firefox 63.0,,2018-11-27 11:39:32,2018-11-27 11:39:32,0.279s,PASSED
scrollToElement,Firefox 63.0,,2018-11-27 11:39:32,2018-11-27 11:39:32,0.017s,PASSED
delay,Firefox 63.0,,2018-11-27 11:39:32,2018-11-27 11:39:35,3.043s,PASSED
click,Firefox 63.0,,2018-11-27 11:39:35,2018-11-27 11:39:35,0.316s,PASSED
delay,Firefox 63.0,,2018-11-27 11:39:35,2018-11-27 11:39:38,3.072s,PASSED
scrollToElement,Firefox 63.0,,2018-11-27 11:39:38,2018-11-27 11:39:39,0.070s,PASSED
delay,Firefox 63.0,,2018-11-27 11:39:39,2018-11-27 11:39:42,3.052s,PASSED
click,Firefox 63.0,,2018-11-27 11:39:42,2018-11-27 11:39:42,0.333s,PASSED
setText,Firefox 63.0,,2018-11-27 11:39:42,2018-11-27 11:39:42,0.446s,PASSED
delay,Firefox 63.0,,2018-11-27 11:39:42,2018-11-27 11:39:45,3.074s,PASSED
setText,Firefox 63.0,,2018-11-27 11:39:45,2018-11-27 11:39:46,0.147s,PASSED
delay,Firefox 63.0,,2018-11-27 11:39:46,2018-11-27 11:39:51,5.054s,PASSED
click,Firefox 63.0,,2018-11-27 11:39:51,2018-11-27 11:39:51,0.321s,PASSED
waitForElementPresent,Firefox 63.0,,2018-11-27 11:39:51,2018-11-27 11:39:53,1.745s,PASSED
click,Firefox 63.0,,2018-11-27 11:39:53,2018-11-27 11:39:53,0.274s,PASSED
click,Firefox 63.0,,2018-11-27 11:39:53,2018-11-27 11:39:53,0.278s,PASSED
waitForElementPresent,Firefox 63.0,,2018-11-27 11:39:53,2018-11-27 11:40:00,6.574s,PASSED
click,Firefox 63.0,,2018-11-27 11:40:00,2018-11-27 11:40:00,0.255s,PASSED
waitForElementVisible,Firefox 63.0,,2018-11-27 11:40:00,2018-11-27 11:40:00,0.041s,PASSED
delay,Firefox 63.0,,2018-11-27 11:40:00,2018-11-27 11:40:05,5.071s,PASSED
click,Firefox 63.0,,2018-11-27 11:40:05,2018-11-27 11:40:06,0.661s,PASSED
waitForElementPresent,Firefox 63.0,,2018-11-27 11:40:06,2018-11-27 11:40:07,1.003s,PASSED
delay,Firefox 63.0,,2018-11-27 11:40:07,2018-11-27 11:40:12,5.048s,PASSED
verifyElementText,Firefox 63.0,,2018-11-27 11:40:12,2018-11-27 11:40:12,0.228s,PASSED
verifyElementPresent,Firefox 63.0,,2018-11-27 11:40:12,2018-11-27 11:40:12,0.090s,PASSED
closeBrowser,Firefox 63.0,,2018-11-27 11:40:12,2018-11-27 11:40:13,1.012s,PASSED
,,,,,,
Test Cases/GETCRAFT/OpenProject_Draft,Firefox 63.0,,2018-11-27 11:40:13,2018-11-27 11:40:49,35.903s,PASSED
Statement - RN = <not implemented yet for class: org.codehaus.groovy.ast.expr.EmptyExpression>,Firefox 63.0,,2018-11-27 11:40:13,2018-11-27 11:40:13,0.000s,PASSED
Statement - RN = java.lang.Math.random() * 599,Firefox 63.0,,2018-11-27 11:40:13,2018-11-27 11:40:13,0.001s,PASSED
Statement - name_project = project_name + RN,Firefox 63.0,,2018-11-27 11:40:13,2018-11-27 11:40:13,0.001s,PASSED
openBrowser,Firefox 63.0,,2018-11-27 11:40:13,2018-11-27 11:40:18,4.523s,PASSED
maximizeWindow,Firefox 63.0,,2018-11-27 11:40:18,2018-11-27 11:40:21,3.537s,PASSED
navigateToUrl,Firefox 63.0,,2018-11-27 11:40:21,2018-11-27 11:40:29,7.509s,PASSED
"Statement - If (com.kms.katalon.core.webui.keyword.WebUiBuiltInKeywords.verifyElementVisible(com.kms.katalon.core.testobject.ObjectRepository.findTestObject(Object Repository/GETCRAFT/create_brief/Language_indo), OPTIONAL))",Firefox 63.0,,2018-11-27 11:40:29,2018-11-27 11:40:35,6.412s,PASSED
setText,Firefox 63.0,,2018-11-27 11:40:35,2018-11-27 11:40:36,0.318s,PASSED
setText,Firefox 63.0,,2018-11-27 11:40:36,2018-11-27 11:40:36,0.066s,PASSED
click,Firefox 63.0,,2018-11-27 11:40:36,2018-11-27 11:40:36,0.420s,PASSED
verifyElementPresent,Firefox 63.0,,2018-11-27 11:40:36,2018-11-27 11:40:41,4.959s,PASSED
click,Firefox 63.0,,2018-11-27 11:40:41,2018-11-27 11:40:42,0.552s,PASSED
click,Firefox 63.0,,2018-11-27 11:40:42,2018-11-27 11:40:44,2.607s,PASSED
delay,Firefox 63.0,,2018-11-27 11:40:44,2018-11-27 11:40:48,4.067s,PASSED
waitForElementPresent,Firefox 63.0,,2018-11-27 11:40:48,2018-11-27 11:40:48,0.021s,PASSED
verifyElementText,Firefox 63.0,,2018-11-27 11:40:48,2018-11-27 11:40:48,0.051s,PASSED
closeBrowser,Firefox 63.0,,2018-11-27 11:40:48,2018-11-27 11:40:49,0.690s,PASSED
,,,,,,
Test Cases/GETCRAFT/OpenProject_InvitationSend,Firefox 63.0,,2018-11-27 11:40:49,2018-11-27 11:41:21,32.339s,PASSED
Statement - RN = <not implemented yet for class: org.codehaus.groovy.ast.expr.EmptyExpression>,Firefox 63.0,,2018-11-27 11:40:49,2018-11-27 11:40:49,0.000s,PASSED
Statement - RN = java.lang.Math.random() * 599,Firefox 63.0,,2018-11-27 11:40:49,2018-11-27 11:40:49,0.001s,PASSED
Statement - name_project = project_name + RN,Firefox 63.0,,2018-11-27 11:40:49,2018-11-27 11:40:49,0.000s,PASSED
openBrowser,Firefox 63.0,,2018-11-27 11:40:49,2018-11-27 11:40:52,2.186s,PASSED
maximizeWindow,Firefox 63.0,,2018-11-27 11:40:52,2018-11-27 11:40:55,3.609s,PASSED
navigateToUrl,Firefox 63.0,,2018-11-27 11:40:55,2018-11-27 11:41:02,6.899s,PASSED
"Statement - If (com.kms.katalon.core.webui.keyword.WebUiBuiltInKeywords.verifyElementVisible(com.kms.katalon.core.testobject.ObjectRepository.findTestObject(Object Repository/GETCRAFT/create_brief/Language_indo), OPTIONAL))",Firefox 63.0,,2018-11-27 11:41:02,2018-11-27 11:41:09,6.640s,PASSED
setText,Firefox 63.0,,2018-11-27 11:41:09,2018-11-27 11:41:09,0.305s,PASSED
setText,Firefox 63.0,,2018-11-27 11:41:09,2018-11-27 11:41:09,0.063s,PASSED
click,Firefox 63.0,,2018-11-27 11:41:09,2018-11-27 11:41:09,0.270s,PASSED
verifyElementPresent,Firefox 63.0,,2018-11-27 11:41:09,2018-11-27 11:41:14,4.796s,PASSED
click,Firefox 63.0,,2018-11-27 11:41:14,2018-11-27 11:41:15,0.390s,PASSED
click,Firefox 63.0,,2018-11-27 11:41:15,2018-11-27 11:41:17,2.863s,PASSED
delay,Firefox 63.0,,2018-11-27 11:41:17,2018-11-27 11:41:21,4.053s,PASSED
waitForElementPresent,Firefox 63.0,,2018-11-27 11:41:21,2018-11-27 11:41:21,0.042s,PASSED
closeBrowser,Firefox 63.0,,2018-11-27 11:41:21,2018-11-27 11:41:21,0.000s,NOT_RUN
,,,,,,
Test Cases/GETCRAFT/Change_Workspace,Firefox 63.0,,2018-11-27 11:41:21,2018-11-27 11:41:56,34.675s,PASSED
Statement - RN = <not implemented yet for class: org.codehaus.groovy.ast.expr.EmptyExpression>,Firefox 63.0,,2018-11-27 11:41:22,2018-11-27 11:41:22,0.000s,PASSED
Statement - RN = java.lang.Math.random() * 599,Firefox 63.0,,2018-11-27 11:41:22,2018-11-27 11:41:22,0.000s,PASSED
Statement - name_project = project_name + RN,Firefox 63.0,,2018-11-27 11:41:22,2018-11-27 11:41:22,0.001s,PASSED
openBrowser,Firefox 63.0,,2018-11-27 11:41:22,2018-11-27 11:41:24,2.719s,PASSED
maximizeWindow,Firefox 63.0,,2018-11-27 11:41:24,2018-11-27 11:41:28,3.598s,PASSED
navigateToUrl,Firefox 63.0,,2018-11-27 11:41:28,2018-11-27 11:41:34,6.470s,PASSED
"Statement - If (com.kms.katalon.core.webui.keyword.WebUiBuiltInKeywords.verifyElementVisible(com.kms.katalon.core.testobject.ObjectRepository.findTestObject(Object Repository/GETCRAFT/create_brief/Language_indo), OPTIONAL))",Firefox 63.0,,2018-11-27 11:41:34,2018-11-27 11:41:41,6.250s,PASSED
setText,Firefox 63.0,,2018-11-27 11:41:41,2018-11-27 11:41:41,0.247s,PASSED
setText,Firefox 63.0,,2018-11-27 11:41:41,2018-11-27 11:41:41,0.068s,PASSED
click,Firefox 63.0,,2018-11-27 11:41:41,2018-11-27 11:41:41,0.257s,PASSED
verifyElementPresent,Firefox 63.0,,2018-11-27 11:41:41,2018-11-27 11:41:46,5.213s,PASSED
click,Firefox 63.0,,2018-11-27 11:41:46,2018-11-27 11:41:47,0.586s,PASSED
Statement - text = com.kms.katalon.core.webui.keyword.WebUiBuiltInKeywords.getText(com.kms.katalon.core.testobject.ObjectRepository.findTestObject(GETCRAFT/general/select_workspace)),Firefox 63.0,,2018-11-27 11:41:47,2018-11-27 11:41:47,0.037s,PASSED
click,Firefox 63.0,,2018-11-27 11:41:47,2018-11-27 11:41:47,0.292s,PASSED
delay,Firefox 63.0,,2018-11-27 11:41:47,2018-11-27 11:41:52,5.077s,PASSED
verifyElementText,Firefox 63.0,,2018-11-27 11:41:52,2018-11-27 11:41:53,0.034s,PASSED
delay,Firefox 63.0,,2018-11-27 11:41:53,2018-11-27 11:41:56,3.067s,PASSED
closeBrowser,Firefox 63.0,,2018-11-27 11:41:56,2018-11-27 11:41:56,0.566s,PASSED
