Suite/Test/Step Name,Browser,Description,Start time,End time,Duration,Status
Register Getcraft,Firefox 61.0,,2018-08-31 15:17:40,2018-08-31 15:20:21,2m - 40.625s,FAILED
,,,,,,
Test Cases/GETCRAFT/Register_Client,Firefox 61.0,,2018-08-31 15:17:40,2018-08-31 15:19:06,1m - 25.335s,FAILED
Statement - RN = <not implemented yet for class: org.codehaus.groovy.ast.expr.EmptyExpression>,Firefox 61.0,,2018-08-31 15:17:41,2018-08-31 15:17:41,0.002s,PASSED
Statement - RN = java.lang.Math.random() * 500,Firefox 61.0,,2018-08-31 15:17:41,2018-08-31 15:17:41,0.007s,PASSED
Statement - mailinator = email + RN,Firefox 61.0,,2018-08-31 15:17:41,2018-08-31 15:17:41,0.002s,PASSED
Statement - user = email + RN + domain,Firefox 61.0,,2018-08-31 15:17:41,2018-08-31 15:17:41,0.001s,PASSED
Statement - firstname = name + RN,Firefox 61.0,,2018-08-31 15:17:41,2018-08-31 15:17:41,0.001s,PASSED
Statement - lastname = name2 + RN,Firefox 61.0,,2018-08-31 15:17:41,2018-08-31 15:17:41,0.002s,PASSED
Statement - Phone = phonenumber + RN,Firefox 61.0,,2018-08-31 15:17:41,2018-08-31 15:17:41,0.001s,PASSED
Statement - println(user),Firefox 61.0,,2018-08-31 15:17:41,2018-08-31 15:17:41,0.003s,PASSED
openBrowser,Firefox 61.0,,2018-08-31 15:17:41,2018-08-31 15:17:44,3.297s,PASSED
maximizeWindow,Firefox 61.0,,2018-08-31 15:17:44,2018-08-31 15:17:45,0.356s,PASSED
navigateToUrl,Firefox 61.0,,2018-08-31 15:17:45,2018-08-31 15:19:00,1m - 15.164s,PASSED
waitForElementClickable,Firefox 61.0,,2018-08-31 15:19:00,2018-08-31 15:19:00,0.126s,PASSED
click,Firefox 61.0,,2018-08-31 15:19:00,2018-08-31 15:19:01,0.819s,PASSED
click,Firefox 61.0,,2018-08-31 15:19:01,2018-08-31 15:19:01,0.585s,PASSED
setText,Firefox 61.0,,2018-08-31 15:19:01,2018-08-31 15:19:01,0.160s,PASSED
setText,Firefox 61.0,,2018-08-31 15:19:01,2018-08-31 15:19:01,0.096s,PASSED
setText,Firefox 61.0,,2018-08-31 15:19:01,2018-08-31 15:19:02,0.093s,PASSED
setText,Firefox 61.0,,2018-08-31 15:19:02,2018-08-31 15:19:02,0.184s,PASSED
setText,Firefox 61.0,,2018-08-31 15:19:02,2018-08-31 15:19:02,0.086s,PASSED
click,Firefox 61.0,,2018-08-31 15:19:02,2018-08-31 15:19:02,0.466s,PASSED
click,Firefox 61.0,,2018-08-31 15:19:02,2018-08-31 15:19:03,0.780s,PASSED
click,Firefox 61.0,,2018-08-31 15:19:03,2018-08-31 15:19:04,0.579s,PASSED
setText,Firefox 61.0,,2018-08-31 15:19:04,2018-08-31 15:19:04,0.254s,PASSED
click,Firefox 61.0,,2018-08-31 15:19:04,2018-08-31 15:19:05,0.878s,PASSED
click,Firefox 61.0,,2018-08-31 15:19:05,2018-08-31 15:19:05,0.547s,PASSED
click,Firefox 61.0,,2018-08-31 15:19:05,2018-08-31 15:19:06,0.427s,FAILED
,,,,,,
Test Cases/GETCRAFT/Register_Creator,Firefox 61.0,,2018-08-31 15:19:06,2018-08-31 15:20:21,1m - 14.982s,PASSED
Statement - RN = <not implemented yet for class: org.codehaus.groovy.ast.expr.EmptyExpression>,Firefox 61.0,,2018-08-31 15:19:06,2018-08-31 15:19:06,0.001s,PASSED
Statement - RN = java.lang.Math.random() * 500,Firefox 61.0,,2018-08-31 15:19:06,2018-08-31 15:19:06,0.001s,PASSED
Statement - mailinator = email + RN,Firefox 61.0,,2018-08-31 15:19:06,2018-08-31 15:19:06,0.000s,PASSED
Statement - user = email + RN + domain,Firefox 61.0,,2018-08-31 15:19:06,2018-08-31 15:19:06,0.001s,PASSED
Statement - firstname = name + RN,Firefox 61.0,,2018-08-31 15:19:06,2018-08-31 15:19:06,0.001s,PASSED
Statement - lastname = name2 + RN,Firefox 61.0,,2018-08-31 15:19:06,2018-08-31 15:19:06,0.001s,PASSED
Statement - Phone = phonenumber + RN,Firefox 61.0,,2018-08-31 15:19:06,2018-08-31 15:19:06,0.001s,PASSED
Statement - println(user),Firefox 61.0,,2018-08-31 15:19:06,2018-08-31 15:19:06,0.001s,PASSED
openBrowser,Firefox 61.0,,2018-08-31 15:19:06,2018-08-31 15:19:09,2.814s,PASSED
maximizeWindow,Firefox 61.0,,2018-08-31 15:19:09,2018-08-31 15:19:09,0.012s,PASSED
navigateToUrl,Firefox 61.0,,2018-08-31 15:19:09,2018-08-31 15:19:33,24.104s,PASSED
click,Firefox 61.0,,2018-08-31 15:19:33,2018-08-31 15:19:33,0.391s,PASSED
click,Firefox 61.0,,2018-08-31 15:19:33,2018-08-31 15:19:34,0.320s,PASSED
setText,Firefox 61.0,,2018-08-31 15:19:34,2018-08-31 15:19:34,0.129s,PASSED
setText,Firefox 61.0,,2018-08-31 15:19:34,2018-08-31 15:19:34,0.114s,PASSED
setText,Firefox 61.0,,2018-08-31 15:19:34,2018-08-31 15:19:34,0.102s,PASSED
setText,Firefox 61.0,,2018-08-31 15:19:34,2018-08-31 15:19:34,0.190s,PASSED
setText,Firefox 61.0,,2018-08-31 15:19:34,2018-08-31 15:19:34,0.089s,PASSED
click,Firefox 61.0,,2018-08-31 15:19:34,2018-08-31 15:19:35,0.246s,PASSED
click,Firefox 61.0,,2018-08-31 15:19:35,2018-08-31 15:19:35,0.383s,PASSED
click,Firefox 61.0,,2018-08-31 15:19:35,2018-08-31 15:19:35,0.270s,PASSED
setText,Firefox 61.0,,2018-08-31 15:19:35,2018-08-31 15:19:35,0.156s,PASSED
click,Firefox 61.0,,2018-08-31 15:19:35,2018-08-31 15:19:36,0.301s,PASSED
click,Firefox 61.0,,2018-08-31 15:19:36,2018-08-31 15:19:36,0.329s,PASSED
click,Firefox 61.0,,2018-08-31 15:19:36,2018-08-31 15:19:36,0.270s,PASSED
delay,Firefox 61.0,,2018-08-31 15:19:36,2018-08-31 15:19:38,2.103s,PASSED
click,Firefox 61.0,,2018-08-31 15:19:38,2018-08-31 15:19:39,0.512s,PASSED
waitForElementClickable,Firefox 61.0,,2018-08-31 15:19:39,2018-08-31 15:19:39,0.031s,PASSED
click,Firefox 61.0,,2018-08-31 15:19:39,2018-08-31 15:19:39,0.474s,PASSED
delay,Firefox 61.0,,2018-08-31 15:19:39,2018-08-31 15:19:41,2.053s,PASSED
click,Firefox 61.0,,2018-08-31 15:19:41,2018-08-31 15:19:42,0.300s,PASSED
executeJavaScript,Firefox 61.0,,2018-08-31 15:19:42,2018-08-31 15:19:42,0.368s,PASSED
Statement - currentWindow = com.kms.katalon.core.webui.keyword.WebUiBuiltInKeywords.getWindowIndex(),Firefox 61.0,,2018-08-31 15:19:42,2018-08-31 15:19:42,0.043s,PASSED
switchToWindowIndex,Firefox 61.0,,2018-08-31 15:19:42,2018-08-31 15:19:42,0.034s,PASSED
navigateToUrl,Firefox 61.0,,2018-08-31 15:19:42,2018-08-31 15:19:47,5.050s,PASSED
setText,Firefox 61.0,,2018-08-31 15:19:47,2018-08-31 15:19:47,0.085s,PASSED
click,Firefox 61.0,,2018-08-31 15:19:47,2018-08-31 15:19:50,2.651s,PASSED
click,Firefox 61.0,,2018-08-31 15:19:50,2018-08-31 15:19:50,0.044s,PASSED
click,Firefox 61.0,,2018-08-31 15:19:50,2018-08-31 15:19:52,1.525s,PASSED
delay,Firefox 61.0,,2018-08-31 15:19:52,2018-08-31 15:20:00,8.073s,PASSED
closeBrowser,Firefox 61.0,,2018-08-31 15:20:00,2018-08-31 15:20:00,0.416s,PASSED
openBrowser,Firefox 61.0,,2018-08-31 15:20:00,2018-08-31 15:20:02,2.380s,PASSED
maximizeWindow,Firefox 61.0,,2018-08-31 15:20:02,2018-08-31 15:20:02,0.019s,PASSED
navigateToUrl,Firefox 61.0,,2018-08-31 15:20:02,2018-08-31 15:20:14,11.641s,PASSED
setText,Firefox 61.0,,2018-08-31 15:20:14,2018-08-31 15:20:14,0.171s,PASSED
setText,Firefox 61.0,,2018-08-31 15:20:14,2018-08-31 15:20:14,0.205s,PASSED
click,Firefox 61.0,,2018-08-31 15:20:14,2018-08-31 15:20:15,0.273s,PASSED
delay,Firefox 61.0,,2018-08-31 15:20:15,2018-08-31 15:20:20,5.076s,PASSED
waitForElementPresent,Firefox 61.0,,2018-08-31 15:20:20,2018-08-31 15:20:20,0.613s,PASSED
verifyElementPresent,Firefox 61.0,,2018-08-31 15:20:20,2018-08-31 15:20:20,0.045s,PASSED
closeBrowser,Firefox 61.0,,2018-08-31 15:20:20,2018-08-31 15:20:21,0.263s,PASSED
