Suite/Test/Step Name,Browser,Description,Start time,End time,Duration,Status
check,Firefox 61.0,,2018-08-30 15:59:50,2018-08-30 15:59:59,9.540s,PASSED
,,,,,,
Test Cases/GETCRAFT/Create_Brief,Firefox 61.0,,2018-08-30 15:59:50,2018-08-30 15:59:59,9.002s,PASSED
Statement - RN = <not implemented yet for class: org.codehaus.groovy.ast.expr.EmptyExpression>,Firefox 61.0,,2018-08-30 15:59:51,2018-08-30 15:59:51,0.005s,NOT_RUN
Statement - RN = java.lang.Math.random() * 500,Firefox 61.0,,2018-08-30 15:59:51,2018-08-30 15:59:51,0.003s,NOT_RUN
Statement - name_project = project_name + RN,Firefox 61.0,,2018-08-30 15:59:51,2018-08-30 15:59:51,0.003s,NOT_RUN
callTestCase,Firefox 61.0,,2018-08-30 15:59:51,2018-08-30 15:59:51,0.001s,NOT_RUN
delay,Firefox 61.0,,2018-08-30 15:59:51,2018-08-30 15:59:51,0.003s,NOT_RUN
openBrowser,Firefox 61.0,,2018-08-30 15:59:51,2018-08-30 15:59:55,3.864s,PASSED
maximizeWindow,Firefox 61.0,,2018-08-30 15:59:55,2018-08-30 15:59:55,0.415s,PASSED
navigateToUrl,Firefox 61.0,,2018-08-30 15:59:55,2018-08-30 15:59:59,3.687s,PASSED
setText,Firefox 61.0,,2018-08-30 15:59:59,2018-08-30 15:59:59,0.001s,NOT_RUN
setText,Firefox 61.0,,2018-08-30 15:59:59,2018-08-30 15:59:59,0.001s,NOT_RUN
click,Firefox 61.0,,2018-08-30 15:59:59,2018-08-30 15:59:59,0.003s,NOT_RUN
verifyElementPresent,Firefox 61.0,,2018-08-30 15:59:59,2018-08-30 15:59:59,0.002s,NOT_RUN
click,Firefox 61.0,,2018-08-30 15:59:59,2018-08-30 15:59:59,0.006s,NOT_RUN
click,Firefox 61.0,,2018-08-30 15:59:59,2018-08-30 15:59:59,0.002s,NOT_RUN
delay,Firefox 61.0,,2018-08-30 15:59:59,2018-08-30 15:59:59,0.003s,NOT_RUN
waitForElementClickable,Firefox 61.0,,2018-08-30 15:59:59,2018-08-30 15:59:59,0.002s,NOT_RUN
scrollToElement,Firefox 61.0,,2018-08-30 15:59:59,2018-08-30 15:59:59,0.001s,NOT_RUN
click,Firefox 61.0,,2018-08-30 15:59:59,2018-08-30 15:59:59,0.001s,NOT_RUN
click,Firefox 61.0,,2018-08-30 15:59:59,2018-08-30 15:59:59,0.001s,NOT_RUN
click,Firefox 61.0,,2018-08-30 15:59:59,2018-08-30 15:59:59,0.001s,NOT_RUN
setText,Firefox 61.0,,2018-08-30 15:59:59,2018-08-30 15:59:59,0.001s,NOT_RUN
setText,Firefox 61.0,,2018-08-30 15:59:59,2018-08-30 15:59:59,0.001s,NOT_RUN
setText,Firefox 61.0,,2018-08-30 15:59:59,2018-08-30 15:59:59,0.003s,NOT_RUN
setText,Firefox 61.0,,2018-08-30 15:59:59,2018-08-30 15:59:59,0.001s,NOT_RUN
scrollToElement,Firefox 61.0,,2018-08-30 15:59:59,2018-08-30 15:59:59,0.001s,NOT_RUN
uploadFiles.uploadFile,Firefox 61.0,,2018-08-30 15:59:59,2018-08-30 15:59:59,0.001s,NOT_RUN
Statement - java.lang.Thread.sleep(2000),Firefox 61.0,,2018-08-30 15:59:59,2018-08-30 15:59:59,0.001s,NOT_RUN
waitForElementClickable,Firefox 61.0,,2018-08-30 15:59:59,2018-08-30 15:59:59,0.001s,NOT_RUN
click,Firefox 61.0,,2018-08-30 15:59:59,2018-08-30 15:59:59,0.001s,NOT_RUN
delay,Firefox 61.0,,2018-08-30 15:59:59,2018-08-30 15:59:59,0.001s,NOT_RUN
click,Firefox 61.0,,2018-08-30 15:59:59,2018-08-30 15:59:59,0.001s,NOT_RUN
setText,Firefox 61.0,,2018-08-30 15:59:59,2018-08-30 15:59:59,0.002s,NOT_RUN
click,Firefox 61.0,,2018-08-30 15:59:59,2018-08-30 15:59:59,0.001s,NOT_RUN
click,Firefox 61.0,,2018-08-30 15:59:59,2018-08-30 15:59:59,0.001s,NOT_RUN
scrollToElement,Firefox 61.0,,2018-08-30 15:59:59,2018-08-30 15:59:59,0.001s,NOT_RUN
delay,Firefox 61.0,,2018-08-30 15:59:59,2018-08-30 15:59:59,0.001s,NOT_RUN
click,Firefox 61.0,,2018-08-30 15:59:59,2018-08-30 15:59:59,0.001s,NOT_RUN
click,Firefox 61.0,,2018-08-30 15:59:59,2018-08-30 15:59:59,0.001s,NOT_RUN
waitForElementClickable,Firefox 61.0,,2018-08-30 15:59:59,2018-08-30 15:59:59,0.001s,NOT_RUN
click,Firefox 61.0,,2018-08-30 15:59:59,2018-08-30 15:59:59,0.001s,NOT_RUN
delay,Firefox 61.0,,2018-08-30 15:59:59,2018-08-30 15:59:59,0.001s,NOT_RUN
click,Firefox 61.0,,2018-08-30 15:59:59,2018-08-30 15:59:59,0.017s,NOT_RUN
waitForElementPresent,Firefox 61.0,,2018-08-30 15:59:59,2018-08-30 15:59:59,0.000s,NOT_RUN
verifyElementPresent,Firefox 61.0,,2018-08-30 15:59:59,2018-08-30 15:59:59,0.001s,NOT_RUN
delay,Firefox 61.0,,2018-08-30 15:59:59,2018-08-30 15:59:59,0.029s,NOT_RUN
closeBrowser,Firefox 61.0,,2018-08-30 15:59:59,2018-08-30 15:59:59,0.348s,PASSED
