Suite/Test/Step Name,Browser,Description,Start time,End time,Duration,Status
check,Firefox 61.0,,2018-08-29 15:09:44,2018-08-29 15:09:54,9.631s,PASSED
,,,,,,
Test Cases/GETCRAFT/Create_Brief,Firefox 61.0,,2018-08-29 15:09:45,2018-08-29 15:09:54,9.240s,PASSED
Statement - RN = <not implemented yet for class: org.codehaus.groovy.ast.expr.EmptyExpression>,Firefox 61.0,,2018-08-29 15:09:45,2018-08-29 15:09:45,0.003s,NOT_RUN
Statement - RN = java.lang.Math.random() * 500,Firefox 61.0,,2018-08-29 15:09:45,2018-08-29 15:09:45,0.001s,NOT_RUN
Statement - name_project = project_name + RN,Firefox 61.0,,2018-08-29 15:09:45,2018-08-29 15:09:45,0.001s,NOT_RUN
callTestCase,Firefox 61.0,,2018-08-29 15:09:45,2018-08-29 15:09:45,0.003s,NOT_RUN
delay,Firefox 61.0,,2018-08-29 15:09:45,2018-08-29 15:09:45,0.001s,NOT_RUN
openBrowser,Firefox 61.0,,2018-08-29 15:09:45,2018-08-29 15:09:49,3.818s,PASSED
maximizeWindow,Firefox 61.0,,2018-08-29 15:09:49,2018-08-29 15:09:49,0.357s,PASSED
navigateToUrl,Firefox 61.0,,2018-08-29 15:09:49,2018-08-29 15:09:53,4.213s,PASSED
setText,Firefox 61.0,,2018-08-29 15:09:53,2018-08-29 15:09:53,0.004s,NOT_RUN
setText,Firefox 61.0,,2018-08-29 15:09:53,2018-08-29 15:09:53,0.002s,NOT_RUN
click,Firefox 61.0,,2018-08-29 15:09:53,2018-08-29 15:09:53,0.001s,NOT_RUN
verifyElementPresent,Firefox 61.0,,2018-08-29 15:09:53,2018-08-29 15:09:54,0.083s,NOT_RUN
click,Firefox 61.0,,2018-08-29 15:09:54,2018-08-29 15:09:54,0.011s,NOT_RUN
click,Firefox 61.0,,2018-08-29 15:09:54,2018-08-29 15:09:54,0.006s,NOT_RUN
delay,Firefox 61.0,,2018-08-29 15:09:54,2018-08-29 15:09:54,0.003s,NOT_RUN
waitForElementClickable,Firefox 61.0,,2018-08-29 15:09:54,2018-08-29 15:09:54,0.001s,NOT_RUN
scrollToElement,Firefox 61.0,,2018-08-29 15:09:54,2018-08-29 15:09:54,0.002s,NOT_RUN
click,Firefox 61.0,,2018-08-29 15:09:54,2018-08-29 15:09:54,0.001s,NOT_RUN
click,Firefox 61.0,,2018-08-29 15:09:54,2018-08-29 15:09:54,0.002s,NOT_RUN
click,Firefox 61.0,,2018-08-29 15:09:54,2018-08-29 15:09:54,0.001s,NOT_RUN
setText,Firefox 61.0,,2018-08-29 15:09:54,2018-08-29 15:09:54,0.001s,NOT_RUN
setText,Firefox 61.0,,2018-08-29 15:09:54,2018-08-29 15:09:54,0.001s,NOT_RUN
setText,Firefox 61.0,,2018-08-29 15:09:54,2018-08-29 15:09:54,0.001s,NOT_RUN
setText,Firefox 61.0,,2018-08-29 15:09:54,2018-08-29 15:09:54,0.011s,NOT_RUN
scrollToElement,Firefox 61.0,,2018-08-29 15:09:54,2018-08-29 15:09:54,0.001s,NOT_RUN
uploadFiles.uploadFile,Firefox 61.0,,2018-08-29 15:09:54,2018-08-29 15:09:54,0.005s,NOT_RUN
Statement - java.lang.Thread.sleep(2000),Firefox 61.0,,2018-08-29 15:09:54,2018-08-29 15:09:54,0.002s,NOT_RUN
waitForElementClickable,Firefox 61.0,,2018-08-29 15:09:54,2018-08-29 15:09:54,0.002s,NOT_RUN
click,Firefox 61.0,,2018-08-29 15:09:54,2018-08-29 15:09:54,0.001s,NOT_RUN
delay,Firefox 61.0,,2018-08-29 15:09:54,2018-08-29 15:09:54,0.001s,NOT_RUN
click,Firefox 61.0,,2018-08-29 15:09:54,2018-08-29 15:09:54,0.001s,NOT_RUN
setText,Firefox 61.0,,2018-08-29 15:09:54,2018-08-29 15:09:54,0.001s,NOT_RUN
click,Firefox 61.0,,2018-08-29 15:09:54,2018-08-29 15:09:54,0.001s,NOT_RUN
click,Firefox 61.0,,2018-08-29 15:09:54,2018-08-29 15:09:54,0.002s,NOT_RUN
scrollToElement,Firefox 61.0,,2018-08-29 15:09:54,2018-08-29 15:09:54,0.003s,NOT_RUN
delay,Firefox 61.0,,2018-08-29 15:09:54,2018-08-29 15:09:54,0.001s,NOT_RUN
click,Firefox 61.0,,2018-08-29 15:09:54,2018-08-29 15:09:54,0.004s,NOT_RUN
click,Firefox 61.0,,2018-08-29 15:09:54,2018-08-29 15:09:54,0.000s,NOT_RUN
waitForElementClickable,Firefox 61.0,,2018-08-29 15:09:54,2018-08-29 15:09:54,0.001s,NOT_RUN
click,Firefox 61.0,,2018-08-29 15:09:54,2018-08-29 15:09:54,0.001s,NOT_RUN
delay,Firefox 61.0,,2018-08-29 15:09:54,2018-08-29 15:09:54,0.001s,NOT_RUN
click,Firefox 61.0,,2018-08-29 15:09:54,2018-08-29 15:09:54,0.001s,NOT_RUN
waitForElementPresent,Firefox 61.0,,2018-08-29 15:09:54,2018-08-29 15:09:54,0.000s,NOT_RUN
verifyElementPresent,Firefox 61.0,,2018-08-29 15:09:54,2018-08-29 15:09:54,0.010s,NOT_RUN
delay,Firefox 61.0,,2018-08-29 15:09:54,2018-08-29 15:09:54,0.001s,NOT_RUN
closeBrowser,Firefox 61.0,,2018-08-29 15:09:54,2018-08-29 15:09:54,0.164s,PASSED
